<?xml version="1.0" encoding="ISO-8859-1" standalone="no"?>

<svg 
     version="1.1"
     baseProfile="full"
     xmlns="http://www.w3.org/2000/svg"
     xmlns:xlink="http://www.w3.org/1999/xlink"
     xmlns:ev="http://www.w3.org/2001/xml-events"
     width="6.852162240000002cm"
     height="8.048571520000003cm"
     viewBox="0 0 251 295"
     >
<title>

</title>
<g stroke-dashoffset="0.0000" stroke-linejoin="miter" stroke-dasharray="none" stroke-width="1.0000" stroke-linecap="square" stroke-miterlimit="10.000">
<clipPath id="clip8dea566f-6eac-4491-8faf-13d352c9b303">
  <path d="M 0.0000 0.0000 L 0.0000 296.00 L 252.00 296.00 L 252.00 0.0000 z"/>
</clipPath>
<g clip-path="url(#clip1)">
<g stroke-opacity="1.0000" stroke-linejoin="round" fill="none" stroke="#bcd4e6" stroke-linecap="round">
  <path d="M 6.2866 0.0000 L 6.2866 296.00"/>
</g> <!-- drawing style -->
</g> <!-- clip1 -->
<clipPath id="clipa35077cb-b39a-4ef6-9010-2a14f68cad3d">
  <path d="M 0.0000 0.0000 L 0.0000 296.00 L 252.00 296.00 L 252.00 0.0000 z"/>
</clipPath>
<g clip-path="url(#clip2)">
<g stroke-opacity="1.0000" stroke-linejoin="round" fill="none" stroke="#bcd4e6" stroke-linecap="round">
  <path d="M 6.2866 0.0000 L 6.2866 296.00"/>
</g> <!-- drawing style -->
</g> <!-- clip2 -->
<clipPath id="clip6c5a439d-7f42-4282-8ed8-002f7de17aeb">
  <path d="M 0.0000 0.0000 L 0.0000 296.00 L 252.00 296.00 L 252.00 0.0000 z"/>
</clipPath>
<g clip-path="url(#clip3)">
<g stroke-opacity="1.0000" stroke-linejoin="round" fill="none" stroke="#bcd4e6" stroke-linecap="round">
  <path d="M 43.063 0.0000 L 43.063 296.00"/>
</g> <!-- drawing style -->
</g> <!-- clip3 -->
<clipPath id="clip66398ed0-9401-4a9e-8ae3-aedb6b7af115">
  <path d="M 0.0000 0.0000 L 0.0000 296.00 L 252.00 296.00 L 252.00 0.0000 z"/>
</clipPath>
<g clip-path="url(#clip4)">
<g stroke-opacity="1.0000" stroke-linejoin="round" fill="none" stroke="#bcd4e6" stroke-linecap="round">
  <path d="M 79.840 0.0000 L 79.840 296.00"/>
</g> <!-- drawing style -->
</g> <!-- clip4 -->
<clipPath id="clip14cd667e-d838-426c-a693-48c9003c1e56">
  <path d="M 0.0000 0.0000 L 0.0000 296.00 L 252.00 296.00 L 252.00 0.0000 z"/>
</clipPath>
<g clip-path="url(#clip5)">
<g stroke-opacity="1.0000" stroke-linejoin="round" fill="none" stroke="#bcd4e6" stroke-linecap="round">
  <path d="M 116.62 0.0000 L 116.62 296.00"/>
</g> <!-- drawing style -->
</g> <!-- clip5 -->
<clipPath id="clip32582c75-0003-42d7-bd80-c6c7ab6236df">
  <path d="M 0.0000 0.0000 L 0.0000 296.00 L 252.00 296.00 L 252.00 0.0000 z"/>
</clipPath>
<g clip-path="url(#clip6)">
<g stroke-opacity="1.0000" stroke-linejoin="round" fill="none" stroke="#bcd4e6" stroke-linecap="round">
  <path d="M 190.17 0.0000 L 190.17 296.00"/>
</g> <!-- drawing style -->
</g> <!-- clip6 -->
<clipPath id="clipb7e8b7c9-d1eb-4493-b9f4-04ef2584239e">
  <path d="M 0.0000 0.0000 L 0.0000 296.00 L 252.00 296.00 L 252.00 0.0000 z"/>
</clipPath>
<g clip-path="url(#clip7)">
<g stroke-opacity="1.0000" stroke-linejoin="round" fill="none" stroke="#bcd4e6" stroke-linecap="round">
  <path d="M 226.95 0.0000 L 226.95 296.00"/>
</g> <!-- drawing style -->
</g> <!-- clip7 -->
<clipPath id="clip83da71a9-368e-47d9-9a02-8f46c08a5334">
  <path d="M 0.0000 0.0000 L 0.0000 296.00 L 252.00 296.00 L 252.00 0.0000 z"/>
</clipPath>
<g clip-path="url(#clip8)">
<g stroke-opacity="1.0000" stroke-linejoin="round" fill="none" stroke="#bcd4e6" stroke-linecap="round">
  <path d="M 0.0000 2.1090 L 252.00 2.1090"/>
</g> <!-- drawing style -->
</g> <!-- clip8 -->
<clipPath id="clipcdaba494-b733-4c6e-bd9b-2538ff506ee9">
  <path d="M 0.0000 0.0000 L 0.0000 296.00 L 252.00 296.00 L 252.00 0.0000 z"/>
</clipPath>
<g clip-path="url(#clip9)">
<g stroke-opacity="1.0000" stroke-linejoin="round" fill="none" stroke="#bcd4e6" stroke-linecap="round">
  <path d="M 0.0000 2.1090 L 252.00 2.1090"/>
</g> <!-- drawing style -->
</g> <!-- clip9 -->
<clipPath id="clip1c52dc0e-2a50-4242-8602-cf6d720ef96d">
  <path d="M 0.0000 0.0000 L 0.0000 296.00 L 252.00 296.00 L 252.00 0.0000 z"/>
</clipPath>
<g clip-path="url(#clip10)">
<g stroke-opacity="1.0000" stroke-linejoin="round" fill="none" stroke="#bcd4e6" stroke-linecap="round">
  <path d="M 0.0000 38.886 L 252.00 38.886"/>
</g> <!-- drawing style -->
</g> <!-- clip10 -->
<clipPath id="clip070f6ce5-714e-4ff0-ab90-21b52385d319">
  <path d="M 0.0000 0.0000 L 0.0000 296.00 L 252.00 296.00 L 252.00 0.0000 z"/>
</clipPath>
<g clip-path="url(#clip11)">
<g stroke-opacity="1.0000" stroke-linejoin="round" fill="none" stroke="#bcd4e6" stroke-linecap="round">
  <path d="M 0.0000 75.662 L 252.00 75.662"/>
</g> <!-- drawing style -->
</g> <!-- clip11 -->
<clipPath id="clipf359188f-a08a-490d-85c5-52d0f8af6b95">
  <path d="M 0.0000 0.0000 L 0.0000 296.00 L 252.00 296.00 L 252.00 0.0000 z"/>
</clipPath>
<g clip-path="url(#clip12)">
<g stroke-opacity="1.0000" stroke-linejoin="round" fill="none" stroke="#bcd4e6" stroke-linecap="round">
  <path d="M 0.0000 112.44 L 252.00 112.44"/>
</g> <!-- drawing style -->
</g> <!-- clip12 -->
<clipPath id="clip361b286f-c0f5-4bf7-9e75-8626a329b009">
  <path d="M 0.0000 0.0000 L 0.0000 296.00 L 252.00 296.00 L 252.00 0.0000 z"/>
</clipPath>
<g clip-path="url(#clip13)">
<g stroke-opacity="1.0000" stroke-linejoin="round" fill="none" stroke="#bcd4e6" stroke-linecap="round">
  <path d="M 0.0000 185.99 L 252.00 185.99"/>
</g> <!-- drawing style -->
</g> <!-- clip13 -->
<clipPath id="clip2c3b8ce9-1530-4c53-9779-b4dabdce2a6b">
  <path d="M 0.0000 0.0000 L 0.0000 296.00 L 252.00 296.00 L 252.00 0.0000 z"/>
</clipPath>
<g clip-path="url(#clip14)">
<g stroke-opacity="1.0000" stroke-linejoin="round" fill="none" stroke="#bcd4e6" stroke-linecap="round">
  <path d="M 0.0000 222.77 L 252.00 222.77"/>
</g> <!-- drawing style -->
</g> <!-- clip14 -->
<clipPath id="clip17d979c4-861f-4c3d-b71b-f502477d7d45">
  <path d="M 0.0000 0.0000 L 0.0000 296.00 L 252.00 296.00 L 252.00 0.0000 z"/>
</clipPath>
<g clip-path="url(#clip15)">
<g stroke-opacity="1.0000" stroke-linejoin="round" fill="none" stroke="#bcd4e6" stroke-linecap="round">
  <path d="M 0.0000 259.55 L 252.00 259.55"/>
</g> <!-- drawing style -->
</g> <!-- clip15 -->
<clipPath id="clip95d4c3a8-8e92-49b9-97a2-8e28844d74b0">
  <path d="M 0.0000 0.0000 L 0.0000 296.00 L 252.00 296.00 L 252.00 0.0000 z"/>
</clipPath>
<g clip-path="url(#clip16)">
<g stroke-opacity="1.0000" stroke-width="2.0000" fill="none" stroke="#252525" stroke-linecap="butt">
  <path d="M 153.39 3.0000 L 153.39 296.00"/>
</g> <!-- drawing style -->
</g> <!-- clip16 -->
<clipPath id="clip2fac87e9-94eb-4033-8855-9d13150a8435">
  <path d="M 0.0000 0.0000 L 0.0000 296.00 L 252.00 296.00 L 252.00 0.0000 z"/>
</clipPath>
<g clip-path="url(#clip17)">
<g stroke-opacity="1.0000" stroke-width="2.0000" fill="none" stroke="#252525" stroke-linecap="butt">
  <path d="M 153.39 2.0000 L 148.39 7.0000"/>
</g> <!-- drawing style -->
</g> <!-- clip17 -->
<clipPath id="clip272ee894-1942-4933-9130-50ee6d2539b3">
  <path d="M 0.0000 0.0000 L 0.0000 296.00 L 252.00 296.00 L 252.00 0.0000 z"/>
</clipPath>
<g clip-path="url(#clip18)">
<g stroke-opacity="1.0000" stroke-width="2.0000" fill="none" stroke="#252525" stroke-linecap="butt">
  <path d="M 153.39 2.0000 L 158.39 7.0000"/>
</g> <!-- drawing style -->
</g> <!-- clip18 -->
<g transform="matrix(.19000, 0.0000, 0.0000, .19000, 234.00, 144.44)">
<clipPath id="clipf3ca4e8b-3f78-43a6-bffe-4d7a038ef210">
  <path d="M -1231.6 -760.19 L -1231.6 797.71 L 94.737 797.71 L 94.737 -760.19 z"/>
</clipPath>
<g clip-path="url(#clip19)">
<g fill="#000000" fill-rule="nonzero" fill-opacity="1.0000" stroke="none">
  <path d="M 26.000 -22.906 L 46.000 0.0000 L 37.703 0.0000 L 22.703 -18.797 L 8.2031 0.0000 L 0.0000 0.0000 L 19.406 -22.906 L .59375 -44.406 L 8.9062 -44.406 L 22.703 -27.906 L 36.094 -44.406 L 44.297 -44.406 L 26.000 -22.906 z"/>
</g> <!-- drawing style -->
</g> <!-- clip19 -->
</g> <!-- transform -->
<clipPath id="clipd86b0858-4725-4dd4-95c4-2892b9d55096">
  <path d="M 0.0000 0.0000 L 0.0000 296.00 L 252.00 296.00 L 252.00 0.0000 z"/>
</clipPath>
<g clip-path="url(#clip20)">
<g stroke-opacity="1.0000" stroke-width="2.0000" fill="none" stroke="#252525" stroke-linecap="butt">
  <path d="M 0.0000 149.22 L 249.00 149.22"/>
</g> <!-- drawing style -->
</g> <!-- clip20 -->
<clipPath id="clipc26e6931-e00b-4d3b-ac47-bc877d0e25e6">
  <path d="M 0.0000 0.0000 L 0.0000 296.00 L 252.00 296.00 L 252.00 0.0000 z"/>
</clipPath>
<g clip-path="url(#clip21)">
<g stroke-opacity="1.0000" stroke-width="2.0000" fill="none" stroke="#252525" stroke-linecap="butt">
  <path d="M 250.00 149.22 L 245.00 144.22"/>
</g> <!-- drawing style -->
</g> <!-- clip21 -->
<clipPath id="clip463a2b90-f7b3-49fb-9c56-e40e5c498f81">
  <path d="M 0.0000 0.0000 L 0.0000 296.00 L 252.00 296.00 L 252.00 0.0000 z"/>
</clipPath>
<g clip-path="url(#clip22)">
<g stroke-opacity="1.0000" stroke-width="2.0000" fill="none" stroke="#252525" stroke-linecap="butt">
  <path d="M 250.00 149.22 L 245.00 154.22"/>
</g> <!-- drawing style -->
</g> <!-- clip22 -->
<clipPath id="clip952b3b82-aecb-4f03-bbf9-a3481b8763f2">
  <path d="M 0.0000 0.0000 L 0.0000 296.00 L 252.00 296.00 L 252.00 0.0000 z"/>
</clipPath>
<g clip-path="url(#clip23)">
<g stroke-opacity="1.0000" stroke-width="2.0000" fill="none" stroke="#252525" stroke-linecap="butt">
  <path d="M 6.2866 149.22 L 6.2866 152.22"/>
</g> <!-- drawing style -->
</g> <!-- clip23 -->
<clipPath id="clipde20aeb9-14ec-4313-aca9-2b4e78b17f0a">
  <path d="M 0.0000 0.0000 L 0.0000 296.00 L 252.00 296.00 L 252.00 0.0000 z"/>
</clipPath>
<g clip-path="url(#clip24)">
<g fill="#252525" fill-rule="nonzero" fill-opacity="1.0000" stroke="none">
  <path d="M 74.484 162.25 L 74.484 161.31 L 79.516 161.31 L 79.516 162.25 L 74.484 162.25 z M 86.234 165.00 L 80.578 165.00 L 80.578 164.12 L 82.813 161.86 Q 83.469 161.20 83.906 160.70 Q 84.359 160.20 84.578 159.72 Q 84.813 159.23 84.813 158.66 Q 84.813 157.94 84.391 157.58 Q 83.969 157.22 83.297 157.22 Q 82.672 157.22 82.203 157.44 Q 81.734 157.64 81.234 158.03 L 80.672 157.31 Q 81.172 156.91 81.828 156.61 Q 82.484 156.31 83.297 156.31 Q 84.500 156.31 85.188 156.92 Q 85.891 157.53 85.891 158.59 Q 85.891 159.27 85.609 159.86 Q 85.344 160.44 84.844 161.02 Q 84.359 161.58 83.703 162.23 L 81.906 163.98 L 81.906 164.05 L 86.234 164.05 L 86.234 165.00 z"/>
</g> <!-- drawing style -->
</g> <!-- clip24 -->
<clipPath id="clip0ebe7598-ef24-45f4-b767-f7d7cf68cc05">
  <path d="M 0.0000 0.0000 L 0.0000 296.00 L 252.00 296.00 L 252.00 0.0000 z"/>
</clipPath>
<g clip-path="url(#clip25)">
<g stroke-opacity="1.0000" stroke-width="2.0000" fill="none" stroke="#252525" stroke-linecap="butt">
  <path d="M 79.840 149.22 L 79.840 152.22"/>
</g> <!-- drawing style -->
</g> <!-- clip25 -->
<clipPath id="clip47dce4f4-d8f2-478c-9f30-a000b9765d4f">
  <path d="M 0.0000 0.0000 L 0.0000 296.00 L 252.00 296.00 L 252.00 0.0000 z"/>
</clipPath>
<g clip-path="url(#clip26)">
<g stroke-opacity="1.0000" stroke-width="2.0000" fill="none" stroke="#252525" stroke-linecap="butt">
  <path d="M 153.39 149.22 L 153.39 152.22"/>
</g> <!-- drawing style -->
</g> <!-- clip26 -->
<clipPath id="clip9acd38f7-9823-4e41-9bf7-93cc1226306d">
  <path d="M 0.0000 0.0000 L 0.0000 296.00 L 252.00 296.00 L 252.00 0.0000 z"/>
</clipPath>
<g clip-path="url(#clip27)">
<g fill="#252525" fill-rule="nonzero" fill-opacity="1.0000" stroke="none">
  <path d="M 230.23 165.00 L 224.58 165.00 L 224.58 164.12 L 226.81 161.86 Q 227.47 161.20 227.91 160.70 Q 228.36 160.20 228.58 159.72 Q 228.81 159.23 228.81 158.66 Q 228.81 157.94 228.39 157.58 Q 227.97 157.22 227.30 157.22 Q 226.67 157.22 226.20 157.44 Q 225.73 157.64 225.23 158.03 L 224.67 157.31 Q 225.17 156.91 225.83 156.61 Q 226.48 156.31 227.30 156.31 Q 228.50 156.31 229.19 156.92 Q 229.89 157.53 229.89 158.59 Q 229.89 159.27 229.61 159.86 Q 229.34 160.44 228.84 161.02 Q 228.36 161.58 227.70 162.23 L 225.91 163.98 L 225.91 164.05 L 230.23 164.05 L 230.23 165.00 z"/>
</g> <!-- drawing style -->
</g> <!-- clip27 -->
<clipPath id="clipdd67aa89-aac6-484f-b1e4-0dc3148d8beb">
  <path d="M 0.0000 0.0000 L 0.0000 296.00 L 252.00 296.00 L 252.00 0.0000 z"/>
</clipPath>
<g clip-path="url(#clip28)">
<g stroke-opacity="1.0000" stroke-width="2.0000" fill="none" stroke="#252525" stroke-linecap="butt">
  <path d="M 226.95 149.22 L 226.95 152.22"/>
</g> <!-- drawing style -->
</g> <!-- clip28 -->
<clipPath id="clip451fc2e0-0592-4203-b9e6-1566dc2ffb34">
  <path d="M 0.0000 0.0000 L 0.0000 296.00 L 252.00 296.00 L 252.00 0.0000 z"/>
</clipPath>
<g clip-path="url(#clip29)">
<g fill="#252525" fill-rule="nonzero" fill-opacity="1.0000" stroke="none">
  <path d="M 158.02 13.422 L 159.52 13.422 L 161.38 18.297 Q 161.61 18.938 161.80 19.531 Q 162.00 20.109 162.09 20.641 L 162.16 20.641 Q 162.25 20.234 162.45 19.594 Q 162.67 18.938 162.89 18.281 L 164.64 13.422 L 166.16 13.422 L 162.47 23.188 Q 162.02 24.406 161.30 25.125 Q 160.59 25.844 159.34 25.844 Q 158.95 25.844 158.67 25.797 Q 158.39 25.766 158.17 25.719 L 158.17 24.594 Q 158.36 24.625 158.59 24.656 Q 158.84 24.688 159.12 24.688 Q 159.86 24.688 160.31 24.266 Q 160.77 23.859 161.03 23.172 L 161.47 22.031 L 158.02 13.422 z"/>
</g> <!-- drawing style -->
</g> <!-- clip29 -->
<clipPath id="clipfe23fea3-2cd7-43e0-ae68-d20d9aa6222c">
  <path d="M 0.0000 0.0000 L 0.0000 296.00 L 252.00 296.00 L 252.00 0.0000 z"/>
</clipPath>
<g clip-path="url(#clip30)">
<g stroke-opacity="1.0000" stroke-width="2.0000" fill="none" stroke="#252525" stroke-linecap="butt">
  <path d="M 150.39 241.16 L 153.39 241.16"/>
</g> <!-- drawing style -->
</g> <!-- clip30 -->
<clipPath id="clip7b73906d-7b79-4ef2-aa5a-a9500be25a47">
  <path d="M 0.0000 0.0000 L 0.0000 296.00 L 252.00 296.00 L 252.00 0.0000 z"/>
</clipPath>
<g clip-path="url(#clip31)">
<g stroke-opacity="1.0000" stroke-width="2.0000" fill="none" stroke="#252525" stroke-linecap="butt">
  <path d="M 150.39 57.274 L 153.39 57.274"/>
</g> <!-- drawing style -->
</g> <!-- clip31 -->
<clipPath id="clipbeabd3e2-55b8-496a-8cf8-690a14d3d08c">
  <path d="M 0.0000 0.0000 L 0.0000 296.00 L 252.00 296.00 L 252.00 0.0000 z"/>
</clipPath>
<g clip-path="url(#clip32)">
<g fill="#252525" fill-rule="nonzero" fill-opacity="1.0000" stroke="none">
  <path d="M 133.48 243.25 L 133.48 242.31 L 138.52 242.31 L 138.52 243.25 L 133.48 243.25 z M 142.30 240.75 Q 143.63 240.75 144.41 241.41 Q 145.19 242.06 145.19 243.27 Q 145.19 244.59 144.33 245.36 Q 143.48 246.12 141.97 246.12 Q 141.31 246.12 140.73 246.00 Q 140.16 245.88 139.75 245.66 L 139.75 244.66 Q 140.19 244.92 140.80 245.08 Q 141.42 245.22 141.98 245.22 Q 142.94 245.22 143.52 244.77 Q 144.09 244.31 144.09 243.38 Q 144.09 242.53 143.58 242.08 Q 143.06 241.62 141.95 241.62 Q 141.61 241.62 141.17 241.69 Q 140.75 241.75 140.48 241.81 L 139.95 241.47 L 140.28 237.44 L 144.58 237.44 L 144.58 238.39 L 141.19 238.39 L 140.98 240.88 Q 141.19 240.84 141.53 240.80 Q 141.88 240.75 142.30 240.75 z"/>
</g> <!-- drawing style -->
</g> <!-- clip32 -->
<clipPath id="clip0464e52d-b0ee-402e-b092-ef667bb94f04">
  <path d="M 0.0000 0.0000 L 0.0000 296.00 L 252.00 296.00 L 252.00 0.0000 z"/>
</clipPath>
<g clip-path="url(#clip33)">
<g fill="#252525" fill-rule="nonzero" fill-opacity="1.0000" stroke="none">
  <path d="M 142.30 56.750 Q 143.62 56.750 144.41 57.406 Q 145.19 58.062 145.19 59.266 Q 145.19 60.594 144.33 61.359 Q 143.48 62.125 141.97 62.125 Q 141.31 62.125 140.73 62.000 Q 140.16 61.875 139.75 61.656 L 139.75 60.656 Q 140.19 60.922 140.80 61.078 Q 141.42 61.219 141.98 61.219 Q 142.94 61.219 143.52 60.766 Q 144.09 60.312 144.09 59.375 Q 144.09 58.531 143.58 58.078 Q 143.06 57.625 141.95 57.625 Q 141.61 57.625 141.17 57.688 Q 140.75 57.750 140.48 57.812 L 139.95 57.469 L 140.28 53.438 L 144.58 53.438 L 144.58 54.391 L 141.19 54.391 L 140.98 56.875 Q 141.19 56.844 141.53 56.797 Q 141.88 56.750 142.30 56.750 z"/>
</g> <!-- drawing style -->
</g> <!-- clip33 -->
<clipPath id="clip3092d740-367b-44ac-a7fa-4a0de3799b1f">
  <path d="M 0.0000 0.0000 L 0.0000 296.00 L 252.00 296.00 L 252.00 0.0000 z"/>
</clipPath>
<g clip-path="url(#clip34)">
<g fill="#252525" fill-rule="nonzero" fill-opacity="1.0000" stroke="none">
  <path d="M 145.28 160.70 Q 145.28 162.08 144.98 163.08 Q 144.70 164.06 144.08 164.59 Q 143.45 165.12 142.42 165.12 Q 140.97 165.12 140.28 163.95 Q 139.59 162.78 139.59 160.70 Q 139.59 159.31 139.88 158.33 Q 140.16 157.34 140.78 156.83 Q 141.41 156.30 142.42 156.30 Q 143.86 156.30 144.56 157.45 Q 145.28 158.61 145.28 160.70 z M 140.64 160.70 Q 140.64 162.47 141.05 163.34 Q 141.45 164.22 142.42 164.22 Q 143.38 164.22 143.78 163.36 Q 144.20 162.48 144.20 160.70 Q 144.20 158.95 143.78 158.08 Q 143.38 157.20 142.42 157.20 Q 141.45 157.20 141.05 158.08 Q 140.64 158.95 140.64 160.70 z"/>
</g> <!-- drawing style -->
</g> <!-- clip34 -->
<g id="misc">
</g><!-- misc -->
<g id="layer0">
<clipPath id="clipd7963b2d-3235-4a9e-9f56-4afc86673c16">
  <path d="M 0.0000 0.0000 L 0.0000 296.00 L 252.00 296.00 L 252.00 0.0000 z"/>
</clipPath>
<g clip-path="url(#clip35)">
<g stroke-opacity="1.0000" stroke-linejoin="round" stroke-width="2.5000" fill="none" stroke="#006400" stroke-linecap="round">
  <path d="M 0.0000 437.61 L 0.0000 439.61 L 0.0000 437.61 L 1.0000 435.61 L 1.0000 435.61 L 2.0000 433.61 L 2.0000 433.61 L 3.0000 431.61 L 3.0000 431.61 L 4.0000 429.61 L 4.0000 429.61 L 5.0000 427.61 L 5.0000 427.61 L 6.0000 425.61 L 6.0000 425.61 L 7.0000 423.61 L 7.0000 423.61 L 8.0000 421.61 L 8.0000 421.61 L 9.0000 419.61 L 9.0000 419.61 L 10.000 417.61 L 10.000 417.61 L 11.000 415.61 L 11.000 415.61 L 12.000 413.61 L 12.000 413.61 L 13.000 411.61 L 13.000 411.61 L 14.000 409.61 L 14.000 409.61 L 15.000 407.61 L 15.000 407.61 L 16.000 405.61 L 16.000 405.61 L 17.000 403.61 L 17.000 403.61 L 18.000 401.61 L 18.000 401.61 L 19.000 399.61 L 19.000 399.61 L 20.000 397.61 L 20.000 397.61 L 21.000 395.61 L 21.000 395.61 L 22.000 393.61 L 22.000 393.61 L 23.000 391.61 L 23.000 391.61 L 24.000 389.61 L 24.000 389.61 L 25.000 387.61 L 25.000 387.61 L 26.000 385.61 L 26.000 385.61 L 27.000 383.61 L 27.000 383.61 L 28.000 381.61 L 28.000 381.61 L 29.000 379.61 L 29.000 379.61 L 30.000 377.61 L 30.000 377.61 L 31.000 375.61 L 31.000 375.61 L 32.000 373.61 L 32.000 373.61 L 33.000 371.61 L 33.000 371.61 L 34.000 369.61 L 34.000 369.61 L 35.000 367.61 L 35.000 367.61 L 36.000 365.61 L 36.000 365.61 L 37.000 363.61 L 37.000 363.61 L 38.000 361.61 L 38.000 361.61 L 39.000 359.61 L 39.000 359.61 L 40.000 357.61 L 40.000 357.61 L 41.000 355.61 L 41.000 355.61 L 42.000 353.61 L 42.000 353.61 L 43.000 351.61 L 43.000 351.61 L 44.000 349.61 L 44.000 349.61 L 45.000 347.61 L 45.000 347.61 L 46.000 345.61 L 46.000 345.61 L 47.000 343.61 L 47.000 343.61 L 48.000 341.61 L 48.000 341.61 L 49.000 339.61 L 49.000 339.61 L 50.000 337.61 L 50.000 337.61 L 51.000 335.61 L 51.000 335.61 L 52.000 333.61 L 52.000 333.61 L 53.000 331.61 L 53.000 331.61 L 54.000 329.61 L 54.000 329.61 L 55.000 327.61 L 55.000 327.61 L 56.000 325.61 L 56.000 325.61 L 57.000 323.61 L 57.000 323.61 L 58.000 321.61 L 58.000 321.61 L 59.000 319.61 L 59.000 319.61 L 60.000 317.61 L 60.000 317.61 L 61.000 315.61 L 61.000 315.61 L 62.000 313.61 L 62.000 313.61 L 63.000 311.61 L 63.000 311.61 L 64.000 309.61 L 64.000 309.61 L 65.000 307.61 L 65.000 307.61 L 66.000 305.61 L 66.000 305.61 L 67.000 303.61 L 67.000 303.61 L 68.000 301.61 L 68.000 301.61 L 69.000 299.61 L 69.000 299.61 L 70.000 297.61 L 70.000 297.61 L 71.000 295.61 L 71.000 295.61 L 72.000 293.61 L 72.000 293.61 L 73.000 291.61 L 73.000 291.61 L 74.000 289.61 L 74.000 289.61 L 75.000 287.61 L 75.000 287.61 L 76.000 285.61 L 76.000 285.61 L 77.000 283.61 L 77.000 283.61 L 78.000 281.61 L 78.000 281.61 L 79.000 279.61 L 79.000 279.61 L 80.000 277.61 L 80.000 277.61 L 81.000 275.61 L 81.000 275.61 L 82.000 273.61 L 82.000 273.61 L 83.000 271.61 L 83.000 271.61 L 84.000 269.61 L 84.000 269.61 L 85.000 267.61 L 85.000 267.61 L 86.000 265.61 L 86.000 265.61 L 87.000 263.61 L 87.000 263.61 L 88.000 261.61 L 88.000 261.61 L 89.000 259.61 L 89.000 259.61 L 90.000 257.61 L 90.000 257.61 L 91.000 255.61 L 91.000 255.61 L 92.000 253.61 L 92.000 253.61 L 93.000 251.61 L 93.000 251.61 L 94.000 249.61 L 94.000 249.61 L 95.000 247.61 L 95.000 247.61 L 96.000 245.61 L 96.000 245.61 L 97.000 243.61 L 97.000 243.61 L 98.000 241.61 L 98.000 241.61 L 99.000 239.61 L 99.000 239.61 L 100.00 237.61 L 100.00 237.61 L 101.00 235.61 L 101.00 235.61 L 102.00 233.61 L 102.00 233.61 L 103.00 231.61 L 103.00 231.61 L 104.00 229.61 L 104.00 229.61 L 105.00 227.61 L 105.00 227.61 L 106.00 225.61 L 106.00 225.61 L 107.00 223.61 L 107.00 223.61 L 108.00 221.61 L 108.00 221.61 L 109.00 219.61 L 109.00 219.61 L 110.00 217.61 L 110.00 217.61 L 111.00 215.61 L 111.00 215.61 L 112.00 213.61 L 112.00 213.61 L 113.00 211.61 L 113.00 211.61 L 114.00 209.61 L 114.00 209.61 L 115.00 207.61 L 115.00 207.61 L 116.00 205.61 L 116.00 205.61 L 117.00 203.61 L 117.00 203.61 L 118.00 201.61 L 118.00 201.61 L 119.00 199.61 L 119.00 199.61 L 120.00 197.61 L 120.00 197.61 L 121.00 195.61 L 121.00 195.61 L 122.00 193.61 L 122.00 193.61 L 123.00 191.61 L 123.00 191.61 L 124.00 189.61 L 124.00 189.61 L 125.00 187.61 L 125.00 187.61 L 126.00 185.61 L 126.00 185.61 L 127.00 183.61 L 127.00 183.61 L 128.00 181.61 L 128.00 181.61 L 129.00 179.61 L 129.00 179.61 L 130.00 177.61 L 130.00 177.61 L 131.00 175.61 L 131.00 175.61 L 132.00 173.61 L 132.00 173.61 L 133.00 171.61 L 133.00 171.61 L 134.00 169.61 L 134.00 169.61 L 135.00 167.61 L 135.00 167.61 L 136.00 165.61 L 136.00 165.61 L 137.00 163.61 L 137.00 163.61 L 138.00 161.61 L 138.00 161.61 L 139.00 159.61 L 139.00 159.61 L 140.00 157.61 L 140.00 157.61 L 141.00 155.61 L 141.00 155.61 L 142.00 153.61 L 142.00 153.61 L 143.00 151.61 L 143.00 151.61 L 144.00 149.61 L 144.00 149.61 L 145.00 147.61 L 145.00 147.61 L 146.00 145.61 L 146.00 145.61 L 147.00 143.61 L 147.00 143.61 L 148.00 141.61 L 148.00 141.61 L 149.00 139.61 L 149.00 139.61 L 150.00 137.61 L 150.00 137.61 L 151.00 135.61 L 151.00 135.61 L 152.00 133.61 L 152.00 133.61 L 153.00 131.61 L 153.00 131.61 L 154.00 129.61 L 154.00 129.61 L 155.00 127.61 L 155.00 127.61 L 156.00 125.61 L 156.00 125.61 L 157.00 123.61 L 157.00 123.61 L 158.00 121.61 L 158.00 121.61 L 159.00 119.61 L 159.00 119.61 L 160.00 117.61 L 160.00 117.61 L 161.00 115.61 L 161.00 115.61 L 162.00 113.61 L 162.00 113.61 L 163.00 111.61 L 163.00 111.61 L 164.00 109.61 L 164.00 109.61 L 165.00 107.61 L 165.00 107.61 L 166.00 105.61 L 166.00 105.61 L 167.00 103.61 L 167.00 103.61 L 168.00 101.61 L 168.00 101.61 L 169.00 99.614 L 169.00 99.614 L 170.00 97.614 L 170.00 97.614 L 171.00 95.614 L 171.00 95.614 L 172.00 93.614 L 172.00 93.614 L 173.00 91.614 L 173.00 91.614 L 174.00 89.614 L 174.00 89.614 L 175.00 87.614 L 175.00 87.614 L 176.00 85.614 L 176.00 85.614 L 177.00 83.614 L 177.00 83.614 L 178.00 81.614 L 178.00 81.614 L 179.00 79.614 L 179.00 79.614 L 180.00 77.614 L 180.00 77.614 L 181.00 75.614 L 181.00 75.614 L 182.00 73.614 L 182.00 73.614 L 183.00 71.614 L 183.00 71.614 L 184.00 69.614 L 184.00 69.614 L 185.00 67.614 L 185.00 67.614 L 186.00 65.614 L 186.00 65.614 L 187.00 63.614 L 187.00 63.614 L 188.00 61.614 L 188.00 61.614 L 189.00 59.614 L 189.00 59.614 L 190.00 57.614 L 190.00 57.614 L 191.00 55.614 L 191.00 55.614 L 192.00 53.614 L 192.00 53.614 L 193.00 51.614 L 193.00 51.614 L 194.00 49.614 L 194.00 49.614 L 195.00 47.614 L 195.00 47.614 L 196.00 45.614 L 196.00 45.614 L 197.00 43.614 L 197.00 43.614 L 198.00 41.614 L 198.00 41.614 L 199.00 39.614 L 199.00 39.614 L 200.00 37.614 L 200.00 37.614 L 201.00 35.614 L 201.00 35.614 L 202.00 33.614 L 202.00 33.614 L 203.00 31.614 L 203.00 31.614 L 204.00 29.614 L 204.00 29.614 L 205.00 27.614 L 205.00 27.614 L 206.00 25.614 L 206.00 25.614 L 207.00 23.614 L 207.00 23.614 L 208.00 21.614 L 208.00 21.614 L 209.00 19.614 L 209.00 19.614 L 210.00 17.614 L 210.00 17.614 L 211.00 15.614 L 211.00 15.614 L 212.00 13.614 L 212.00 13.614 L 213.00 11.614 L 213.00 11.614 L 214.00 9.6144 L 214.00 9.6144 L 215.00 7.6144 L 215.00 7.6144 L 216.00 5.6144 L 216.00 5.6144 L 217.00 3.6144 L 217.00 3.6144 L 218.00 1.6144 L 218.00 1.6144 L 219.00 -.38557 L 219.00 -.38557 L 220.00 -2.3856 L 220.00 -2.3856 L 221.00 -4.3856 L 221.00 -4.3856 L 222.00 -6.3856 L 222.00 -6.3856 L 223.00 -8.3856 L 223.00 -8.3856 L 224.00 -10.386 L 224.00 -10.386 L 225.00 -12.386 L 225.00 -12.386 L 226.00 -14.386 L 226.00 -14.386 L 227.00 -16.386 L 227.00 -16.386 L 228.00 -18.386 L 228.00 -18.386 L 229.00 -20.386 L 229.00 -20.386 L 230.00 -22.386 L 230.00 -22.386 L 231.00 -24.386 L 231.00 -24.386 L 232.00 -26.386 L 232.00 -26.386 L 233.00 -28.386 L 233.00 -28.386 L 234.00 -30.386 L 234.00 -30.386 L 235.00 -32.386 L 235.00 -32.386 L 236.00 -34.386 L 236.00 -34.386 L 237.00 -36.386 L 237.00 -36.386 L 238.00 -38.386 L 238.00 -38.386 L 239.00 -40.386 L 239.00 -40.386 L 240.00 -42.386 L 240.00 -42.386 L 241.00 -44.386 L 241.00 -44.386 L 242.00 -46.386 L 242.00 -46.386 L 243.00 -48.386 L 243.00 -48.386 L 244.00 -50.386 L 244.00 -50.386 L 245.00 -52.386 L 245.00 -52.386 L 246.00 -54.386 L 246.00 -54.386 L 247.00 -56.386 L 247.00 -56.386 L 248.00 -58.386 L 248.00 -58.386 L 249.00 -60.386 L 249.00 -60.386 L 250.00 -62.386 L 250.00 -62.386 L 251.00 -64.386 L 251.00 -64.386 L 252.00 -66.386 L 252.00 -66.386 L 253.00 -68.386"/>
<title>Fonction f</title>
<desc>f(x) = 4x + 1</desc>

</g> <!-- drawing style -->
</g> <!-- clip35 -->
<g transform="matrix(.19000, 0.0000, 0.0000, .19000, 14.000, 231.24)">
<clipPath id="clip1d84e126-0fa7-4d8a-b3fc-eb8203003c4c">
  <path d="M -73.684 -1217.0 L -73.684 340.86 L 1252.6 340.86 L 1252.6 -1217.0 z"/>
</clipPath>
<g clip-path="url(#clip36)">
<g fill="#006400" fill-rule="nonzero" fill-opacity="1.0000" stroke="none">
  <path d="M 48.594 -38.094 L 39.000 .093750 Q 36.594 9.9062 28.297 16.000 Q 22.203 20.500 15.594 20.500 Q 8.9062 20.500 6.0938 15.906 Q 5.0000 14.000 5.0000 11.797 Q 5.0000 6.7031 9.0938 5.5000 Q 9.9062 5.2969 10.594 5.2969 Q 13.797 5.2969 14.203 8.0938 Q 14.297 8.4062 14.297 8.7969 Q 14.297 11.094 12.297 12.906 Q 10.906 14.094 8.0000 14.094 Q 9.7969 18.297 15.594 18.297 Q 21.797 18.297 26.594 12.000 Q 30.500 6.7969 32.797 -2.0938 Q 32.906 -2.5000 33.094 -3.4062 Q 28.594 1.0938 23.000 1.0938 Q 15.000 1.0938 12.094 -4.7969 Q 10.797 -7.4062 10.797 -10.797 Q 10.797 -16.297 16.094 -30.500 Q 16.297 -31.094 16.594 -31.797 Q 18.297 -36.406 18.297 -38.797 Q 18.297 -42.000 15.797 -42.000 Q 10.297 -42.000 6.7969 -32.906 L 6.7969 -32.797 Q 6.2031 -31.297 5.7031 -29.594 Q 4.5938 -27.906 4.0938 -27.797 Q 2.9062 -27.797 2.9062 -28.797 Q 2.9062 -30.594 5.0000 -35.094 Q 9.4062 -44.203 16.094 -44.203 Q 21.406 -44.203 23.500 -39.703 Q 24.297 -38.000 24.297 -36.000 Q 24.297 -33.906 22.297 -28.797 Q 17.203 -15.594 17.203 -9.2031 Q 17.203 -1.0938 23.406 -1.0938 Q 29.203 -1.0938 33.500 -7.2969 Q 34.500 -8.7969 34.703 -9.5938 L 39.203 -27.594 Q 39.906 -30.906 41.203 -35.594 Q 42.203 -39.906 42.594 -41.000 Q 43.906 -43.094 46.094 -43.094 Q 48.594 -42.594 49.000 -40.406 Q 49.000 -39.500 48.594 -38.094 z"/>
<title>Fonction f</title>
<desc>f(x) = 4x + 1</desc>

</g> <!-- drawing style -->
</g> <!-- clip36 -->
</g> <!-- transform -->
<g transform="matrix(.19000, 0.0000, 0.0000, .19000, 29.272, 231.24)">
<clipPath id="clipa5fb6503-460d-495a-b2be-6855a90c6c92">
  <path d="M -154.06 -1217.0 L -154.06 340.86 L 1172.3 340.86 L 1172.3 -1217.0 z"/>
</clipPath>
<g clip-path="url(#clip37)">
<g fill="#006400" fill-rule="nonzero" fill-opacity="1.0000" stroke="none">
  <path d="M 68.703 -32.703 L 9.0000 -32.703 Q 5.7969 -32.703 5.5938 -34.703 Q 5.5938 -36.703 8.9062 -36.703 L 68.797 -36.703 Q 72.000 -36.703 72.094 -34.703 Q 72.094 -32.703 68.703 -32.703 z M 68.797 -13.297 L 8.9062 -13.297 Q 5.7031 -13.297 5.5938 -15.297 Q 5.5938 -17.297 9.0000 -17.297 L 68.703 -17.297 Q 71.906 -17.297 72.094 -15.297 Q 72.094 -13.297 68.797 -13.297 z"/>
<title>Fonction f</title>
<desc>f(x) = 4x + 1</desc>

</g> <!-- drawing style -->
</g> <!-- clip37 -->
</g> <!-- transform -->
<g transform="matrix(.19000, 0.0000, 0.0000, .19000, 49.332, 231.24)">
<clipPath id="clipe8c9ba65-73e2-4c6a-bd2a-1ac58fa75945">
  <path d="M -259.64 -1217.0 L -259.64 340.86 L 1066.7 340.86 L 1066.7 -1217.0 z"/>
</clipPath>
<g clip-path="url(#clip38)">
<g fill="#006400" fill-rule="nonzero" fill-opacity="1.0000" stroke="none">
  <path d="M 2.7969 -16.500 L 2.7969 -19.594 L 33.500 -66.500 Q 34.297 -67.703 35.500 -67.703 Q 36.906 -67.703 37.094 -66.594 L 37.094 -65.094 L 37.094 -19.594 L 47.094 -19.594 L 47.094 -16.500 L 37.094 -16.500 L 37.094 -7.7969 Q 37.094 -4.7031 38.297 -4.0000 Q 39.703 -3.0938 44.703 -3.0938 L 46.797 -3.0938 L 46.797 0.0000 Q 42.703 -.29688 33.203 -.29688 Q 23.797 -.29688 19.703 0.0000 L 19.703 -3.0938 L 21.797 -3.0938 Q 28.000 -3.0938 29.000 -4.7969 Q 29.406 -5.5000 29.406 -7.7969 L 29.406 -16.500 L 2.7969 -16.500 z M 30.000 -19.594 L 30.000 -56.906 L 5.5938 -19.594 L 30.000 -19.594 z"/>
<title>Fonction f</title>
<desc>f(x) = 4x + 1</desc>

</g> <!-- drawing style -->
</g> <!-- clip38 -->
</g> <!-- transform -->
<g transform="matrix(.19000, 0.0000, 0.0000, .19000, 58.832, 231.24)">
<clipPath id="clipa2278a30-b9a6-4c6c-9c5a-2a24a4e65af6">
  <path d="M -309.64 -1217.0 L -309.64 340.86 L 1016.7 340.86 L 1016.7 -1217.0 z"/>
</clipPath>
<g clip-path="url(#clip39)">
<g fill="#006400" fill-rule="nonzero" fill-opacity="1.0000" stroke="none">
  <path d="M 33.406 -30.203 L 30.000 -16.500 Q 28.297 -9.7031 28.297 -7.7031 Q 28.297 -2.5000 32.000 -1.4062 Q 32.797 -1.0938 33.797 -1.0938 Q 38.797 -1.0938 42.906 -6.0938 Q 45.594 -9.2969 47.094 -14.203 Q 47.406 -15.297 48.406 -15.297 Q 49.594 -15.297 49.594 -14.297 Q 49.594 -11.797 46.500 -7.0938 Q 41.094 1.0938 33.594 1.0938 Q 26.797 1.0938 23.703 -4.5938 Q 23.094 -5.5000 22.797 -6.5000 Q 20.406 -1.7031 16.203 .20312 Q 14.297 1.0938 12.297 1.0938 Q 6.2969 1.0938 3.9062 -2.4062 Q 2.9062 -3.7031 2.9062 -5.5000 Q 2.9062 -9.2031 6.0938 -10.703 Q 7.2031 -11.297 8.4062 -11.297 Q 11.406 -11.297 12.000 -8.7969 Q 12.094 -8.2969 12.094 -7.7969 Q 12.094 -4.4062 8.7031 -2.7969 Q 8.0938 -2.5000 7.4062 -2.4062 Q 9.5000 -1.0938 12.406 -1.0938 Q 17.703 -1.0938 20.797 -8.2031 Q 21.406 -9.7031 21.906 -11.500 Q 27.297 -31.906 27.297 -35.297 Q 26.703 -41.500 21.906 -42.000 Q 16.703 -42.000 12.406 -36.703 L 12.406 -36.594 Q 12.406 -36.500 12.297 -36.500 Q 10.797 -34.500 9.5938 -31.906 Q 9.0938 -30.703 8.7031 -29.500 L 8.5000 -28.906 Q 8.2969 -27.797 7.2031 -27.797 Q 6.0000 -27.797 6.0000 -28.797 Q 6.0000 -31.297 9.2031 -36.000 Q 14.594 -44.203 22.094 -44.203 Q 29.797 -44.203 32.906 -36.594 Q 36.094 -42.797 41.406 -44.000 Q 42.406 -44.203 43.406 -44.203 Q 49.297 -44.203 51.703 -40.906 Q 52.703 -39.500 52.703 -37.594 Q 52.703 -33.500 49.000 -32.094 Q 48.094 -31.797 47.297 -31.797 Q 44.203 -31.797 43.594 -34.500 Q 43.500 -34.906 43.500 -35.297 Q 43.500 -38.297 46.406 -40.000 Q 47.297 -40.500 48.297 -40.703 Q 46.203 -42.000 43.297 -42.000 Q 36.500 -42.000 33.703 -31.406 Q 33.500 -30.797 33.406 -30.203 z"/>
<title>Fonction f</title>
<desc>f(x) = 4x + 1</desc>

</g> <!-- drawing style -->
</g> <!-- clip39 -->
</g> <!-- transform -->
<g transform="matrix(.19000, 0.0000, 0.0000, .19000, 73.922, 231.24)">
<clipPath id="clip714eed14-c1d1-4990-b4aa-be96c50aaf62">
  <path d="M -389.06 -1217.0 L -389.06 340.86 L 937.25 340.86 L 937.25 -1217.0 z"/>
</clipPath>
<g clip-path="url(#clip40)">
<g fill="#006400" fill-rule="nonzero" fill-opacity="1.0000" stroke="none">
  <path d="M 40.906 -23.000 L 40.906 5.0000 Q 40.906 8.2031 38.906 8.2969 Q 36.906 8.2969 36.906 5.0000 L 36.906 -23.000 L 8.9062 -23.000 Q 5.7031 -23.000 5.5938 -25.000 Q 5.5938 -27.000 8.9062 -27.000 L 36.906 -27.000 L 36.906 -55.000 Q 36.906 -58.203 38.906 -58.297 Q 40.906 -58.297 40.906 -55.000 L 40.906 -27.000 L 68.797 -27.000 Q 72.000 -27.000 72.094 -25.000 Q 72.094 -23.000 68.797 -23.000 L 40.906 -23.000 z"/>
<title>Fonction f</title>
<desc>f(x) = 4x + 1</desc>

</g> <!-- drawing style -->
</g> <!-- clip40 -->
</g> <!-- transform -->
<g transform="matrix(.19000, 0.0000, 0.0000, .19000, 92.926, 231.24)">
<clipPath id="clip845e4270-1b96-4c6e-84b7-3b200c1f7f6a">
  <path d="M -489.08 -1217.0 L -489.08 340.86 L 837.23 340.86 L 837.23 -1217.0 z"/>
</clipPath>
<g clip-path="url(#clip41)">
<g fill="#006400" fill-rule="nonzero" fill-opacity="1.0000" stroke="none">
  <path d="M 29.406 -64.000 L 29.406 -7.9062 Q 29.406 -4.9062 30.594 -4.0938 Q 32.297 -3.0938 38.703 -3.0938 L 41.906 -3.0938 L 41.906 0.0000 Q 38.406 -.29688 25.703 -.29688 Q 13.000 -.29688 9.5000 0.0000 L 9.5000 -3.0938 L 12.703 -3.0938 Q 20.406 -3.0938 21.500 -4.9062 L 21.594 -5.0000 Q 22.000 -5.7969 22.000 -7.9062 L 22.000 -59.703 Q 16.797 -57.094 8.9062 -57.094 L 8.9062 -60.203 Q 20.906 -60.203 27.094 -66.594 Q 29.000 -66.594 29.297 -65.906 L 29.297 -65.906 L 29.297 -65.797 Q 29.406 -65.500 29.406 -64.000 z"/>
<title>Fonction f</title>
<desc>f(x) = 4x + 1</desc>

</g> <!-- drawing style -->
</g> <!-- clip41 -->
</g> <!-- transform -->
<clipPath id="clip74552731-d42e-4a71-a8b5-7289243cd08a">
  <path d="M 0.0000 0.0000 L 0.0000 296.00 L 252.00 296.00 L 252.00 0.0000 z"/>
</clipPath>
<g clip-path="url(#clip42)">
<g fill="#000000" fill-rule="nonzero" fill-opacity="1.0000" stroke="none">
  <path d="M 55.703 96.172 Q 55.703 99.078 54.125 100.55 Q 52.547 102.00 49.734 102.00 L 46.547 102.00 L 46.547 90.578 L 50.078 90.578 Q 51.797 90.578 53.062 91.219 Q 54.328 91.859 55.016 93.109 Q 55.703 94.344 55.703 96.172 z M 54.188 96.219 Q 54.188 93.938 53.047 92.875 Q 51.922 91.812 49.859 91.812 L 47.984 91.812 L 47.984 100.77 L 49.547 100.77 Q 54.188 100.77 54.188 96.219 z M 61.352 93.266 Q 62.461 93.266 63.243 93.750 Q 64.039 94.219 64.461 95.094 Q 64.883 95.969 64.883 97.141 L 64.883 97.984 L 59.024 97.984 Q 59.055 99.438 59.758 100.20 Q 60.477 100.95 61.758 100.95 Q 62.571 100.95 63.196 100.81 Q 63.836 100.66 64.508 100.38 L 64.508 101.59 Q 63.852 101.89 63.211 102.02 Q 62.571 102.16 61.696 102.16 Q 60.477 102.16 59.539 101.67 Q 58.602 101.17 58.071 100.19 Q 57.555 99.203 57.555 97.781 Q 57.555 96.375 58.024 95.375 Q 58.508 94.359 59.352 93.812 Q 60.211 93.266 61.352 93.266 z M 61.336 94.422 Q 60.321 94.422 59.743 95.078 Q 59.164 95.719 59.055 96.859 L 63.414 96.859 Q 63.399 95.781 62.899 95.109 Q 62.414 94.422 61.336 94.422 z M 72.642 99.625 Q 72.642 100.88 71.720 101.52 Q 70.798 102.16 69.220 102.16 Q 68.329 102.16 67.673 102.02 Q 67.032 101.88 66.532 101.61 L 66.532 100.34 Q 67.048 100.59 67.767 100.81 Q 68.501 101.03 69.251 101.03 Q 70.329 101.03 70.798 100.69 Q 71.282 100.34 71.282 99.766 Q 71.282 99.438 71.110 99.188 Q 70.938 98.922 70.470 98.672 Q 70.017 98.422 69.173 98.094 Q 68.345 97.781 67.751 97.469 Q 67.157 97.141 66.829 96.688 Q 66.517 96.234 66.517 95.531 Q 66.517 94.453 67.407 93.859 Q 68.298 93.266 69.735 93.266 Q 70.517 93.266 71.188 93.422 Q 71.876 93.562 72.470 93.844 L 71.985 94.953 Q 71.454 94.734 70.860 94.578 Q 70.267 94.422 69.642 94.422 Q 68.782 94.422 68.313 94.703 Q 67.860 94.969 67.860 95.453 Q 67.860 95.812 68.063 96.062 Q 68.282 96.297 68.767 96.531 Q 69.251 96.766 70.079 97.094 Q 70.892 97.391 71.470 97.719 Q 72.048 98.031 72.345 98.484 Q 72.642 98.938 72.642 99.625 z M 80.306 99.625 Q 80.306 100.88 79.384 101.52 Q 78.462 102.16 76.884 102.16 Q 75.993 102.16 75.337 102.02 Q 74.696 101.88 74.196 101.61 L 74.196 100.34 Q 74.712 100.59 75.431 100.81 Q 76.165 101.03 76.915 101.03 Q 77.993 101.03 78.462 100.69 Q 78.946 100.34 78.946 99.766 Q 78.946 99.438 78.774 99.188 Q 78.602 98.922 78.134 98.672 Q 77.681 98.422 76.837 98.094 Q 76.009 97.781 75.415 97.469 Q 74.821 97.141 74.493 96.688 Q 74.181 96.234 74.181 95.531 Q 74.181 94.453 75.071 93.859 Q 75.962 93.266 77.399 93.266 Q 78.181 93.266 78.852 93.422 Q 79.540 93.562 80.134 93.844 L 79.649 94.953 Q 79.118 94.734 78.524 94.578 Q 77.931 94.422 77.306 94.422 Q 76.446 94.422 75.977 94.703 Q 75.524 94.969 75.524 95.453 Q 75.524 95.812 75.727 96.062 Q 75.946 96.297 76.431 96.531 Q 76.915 96.766 77.743 97.094 Q 78.556 97.391 79.134 97.719 Q 79.712 98.031 80.009 98.484 Q 80.306 98.938 80.306 99.625 z M 83.110 90.203 Q 83.438 90.203 83.673 90.422 Q 83.923 90.641 83.923 91.109 Q 83.923 91.547 83.673 91.781 Q 83.438 92.000 83.110 92.000 Q 82.766 92.000 82.516 91.781 Q 82.282 91.547 82.282 91.109 Q 82.282 90.641 82.516 90.422 Q 82.766 90.203 83.110 90.203 z M 83.798 93.422 L 83.798 102.00 L 82.391 102.00 L 82.391 93.422 L 83.798 93.422 z M 90.644 93.266 Q 92.191 93.266 92.973 94.016 Q 93.754 94.750 93.754 96.422 L 93.754 102.00 L 92.363 102.00 L 92.363 96.516 Q 92.363 94.453 90.441 94.453 Q 89.019 94.453 88.473 95.250 Q 87.926 96.047 87.926 97.547 L 87.926 102.00 L 86.519 102.00 L 86.519 93.422 L 87.660 93.422 L 87.863 94.594 L 87.941 94.594 Q 88.363 93.922 89.098 93.594 Q 89.832 93.266 90.644 93.266 z M 100.00 95.531 Q 100.00 93.859 100.63 92.406 Q 101.27 90.953 102.36 89.859 Q 103.47 88.766 104.93 88.156 Q 106.38 87.531 108.00 87.531 Q 109.66 87.531 111.10 88.156 Q 112.55 88.766 113.65 89.859 Q 114.75 90.953 115.38 92.422 Q 116.00 93.875 116.00 95.531 Q 116.00 97.188 115.38 98.641 Q 114.75 100.08 113.66 101.19 Q 112.57 102.28 111.11 102.91 Q 109.68 103.53 108.00 103.53 Q 106.36 103.53 104.91 102.91 Q 103.46 102.30 102.35 101.20 Q 101.25 100.09 100.63 98.656 Q 100.00 97.203 100.00 95.531 z M 100.80 95.531 Q 100.80 97.047 101.36 98.359 Q 101.94 99.656 102.93 100.64 Q 103.93 101.62 105.22 102.17 Q 106.54 102.73 108.00 102.73 Q 109.49 102.73 110.79 102.17 Q 112.10 101.61 113.08 100.62 Q 114.08 99.641 114.65 98.344 Q 115.21 97.031 115.21 95.531 Q 115.21 94.047 114.65 92.750 Q 114.08 91.438 113.10 90.453 Q 112.11 89.453 110.80 88.906 Q 109.49 88.344 108.00 88.344 Q 106.52 88.344 105.21 88.906 Q 103.90 89.453 102.91 90.438 Q 101.93 91.422 101.36 92.734 Q 100.80 94.047 100.80 95.531 z M 104.44 98.969 Q 105.88 99.641 107.43 99.641 Q 110.13 99.641 110.13 97.703 Q 110.13 96.781 109.35 96.375 Q 108.58 95.953 107.13 95.953 L 106.10 95.953 L 106.10 94.781 L 107.15 94.781 Q 108.50 94.781 109.18 94.281 Q 109.85 93.766 109.85 92.922 Q 109.85 92.203 109.32 91.812 Q 108.80 91.422 107.90 91.422 Q 107.11 91.422 106.50 91.641 Q 105.91 91.844 105.19 92.266 L 104.50 91.297 Q 105.08 90.859 105.93 90.547 Q 106.79 90.234 107.90 90.234 Q 109.40 90.234 110.33 90.875 Q 111.27 91.500 111.27 92.781 Q 111.27 93.844 110.66 94.453 Q 110.05 95.062 109.02 95.266 L 109.02 95.312 Q 110.33 95.469 110.97 96.094 Q 111.61 96.719 111.61 97.750 Q 111.61 98.812 111.07 99.500 Q 110.52 100.17 109.57 100.50 Q 108.63 100.81 107.43 100.81 Q 106.57 100.81 105.83 100.70 Q 105.11 100.58 104.44 100.25 L 104.44 98.969 z"/>
<title>Dessin ③</title>
<desc>texte1 = “Dessin ③”</desc>

</g> <!-- drawing style -->
</g> <!-- clip42 -->
</g><!-- layer0 -->
</g> <!-- default stroke -->
</svg> <!-- bounding box -->
