<?xml version="1.0" encoding="UTF-8" standalone="no"?>
<!-- Created with Inkscape (http://www.inkscape.org/) -->

<svg
   width="60.95388mm"
   height="60.305496mm"
   viewBox="0 0 60.95388 60.305496"
   version="1.1"
   id="svg5"
   xml:space="preserve"
   inkscape:version="1.2.2 (b0a8486541, 2022-12-01)"
   sodipodi:docname="R_Durer_empattement.svg"
   xmlns:inkscape="http://www.inkscape.org/namespaces/inkscape"
   xmlns:sodipodi="http://sodipodi.sourceforge.net/DTD/sodipodi-0.dtd"
   xmlns="http://www.w3.org/2000/svg"
   xmlns:svg="http://www.w3.org/2000/svg"
   xmlns:rdf="http://www.w3.org/1999/02/22-rdf-syntax-ns#"
   xmlns:cc="http://creativecommons.org/ns#"
   xmlns:dc="http://purl.org/dc/elements/1.1/"><title
     id="title10945">R selon Durer</title><sodipodi:namedview
     id="namedview7"
     pagecolor="#ffffff"
     bordercolor="#cccccc"
     borderopacity="1"
     inkscape:showpageshadow="0"
     inkscape:pageopacity="1"
     inkscape:pagecheckerboard="0"
     inkscape:deskcolor="#d1d1d1"
     inkscape:document-units="mm"
     showgrid="false"
     inkscape:zoom="1.4142136"
     inkscape:cx="227.68838"
     inkscape:cy="234.4059"
     inkscape:window-width="1920"
     inkscape:window-height="1005"
     inkscape:window-x="0"
     inkscape:window-y="0"
     inkscape:window-maximized="1"
     inkscape:current-layer="g9096" /><defs
     id="defs2"><clipPath
       clipPathUnits="userSpaceOnUse"
       id="clipPath900"><g
         inkscape:label="Clip"
         id="use902"><path
           style="fill:#000000;fill-opacity:1;stroke-width:0.264583"
           d="m 156.50616,188.00384 c -0.0939,-0.1519 -0.0268,-0.44955 0.14908,-0.66146 0.2587,-0.31171 0.23358,-0.38529 -0.13157,-0.38529 -0.72102,0 -0.30653,-0.65288 0.47308,-0.74517 0.80389,-0.0952 0.87712,0.12025 0.31413,0.92404 -0.32659,0.46627 -0.33204,0.58461 -0.0322,0.69965 0.19845,0.0762 0.4944,0.005 0.65765,-0.15836 0.21938,-0.21938 0.29683,-0.17946 0.29683,0.15297 0,0.32137 -0.22217,0.44979 -0.77814,0.44979 -0.42797,0 -0.85494,-0.12428 -0.94882,-0.27617 z m 28.18878,-1.10396 c -0.65778,-0.70604 -0.65792,-0.7705 -0.003,-1.60248 0.62404,-0.79335 0.65062,-1.20019 0.12387,-1.8966 -0.50477,-0.66738 -0.49727,-1.84486 0.0145,-2.26957 0.33405,-0.27723 0.3763,-0.26501 0.24716,0.0715 -0.0932,0.24293 0.27867,0.97507 0.92617,1.82336 0.90279,1.18276 1.06995,1.5892 1.0096,2.45479 -0.0599,0.85969 -0.21899,1.11898 -0.92873,1.51403 -0.84037,0.46775 -0.8664,0.46597 -1.38907,-0.0951 z m 1.58401,-1.08284 c 0,-0.19047 -0.16042,-0.56569 -0.35649,-0.83383 -0.46651,-0.638 -0.83662,-0.0952 -0.44018,0.6455 0.32226,0.60215 0.79667,0.7143 0.79667,0.18833 z m -57.8384,0.76837 c -0.0785,-0.20443 -0.10448,-0.76998 -0.0578,-1.25677 0.0751,-0.78411 0.18288,-0.89455 0.94468,-0.968 0.995,-0.0959 1.23773,0.58385 0.29637,0.83002 -0.38143,0.0998 -0.50968,0.28072 -0.39688,0.56002 0.0917,0.22697 0.23893,0.59126 0.32726,0.80954 0.11294,0.27912 -0.007,0.39687 -0.40518,0.39687 -0.31118,0 -0.62997,-0.16725 -0.70841,-0.37168 z m 12.70781,-0.66129 c -0.0586,-0.0588 -2.21086,-0.14751 -4.78281,-0.1971 -2.57195,-0.0496 -4.74633,-0.1604 -4.83196,-0.24624 -0.2503,-0.25094 -0.0304,-35.90628 0.22673,-36.76751 0.15275,-0.51157 0.24143,1.265 0.25631,5.13462 l 0.0227,5.91683 1.83788,-0.10385 c 1.01083,-0.0571 1.92374,-0.18971 2.02868,-0.29464 0.10494,-0.10495 0.24676,-3.00752 0.31516,-6.45017 l 0.12437,-6.25937 -2.28534,0.16128 -2.28534,0.16128 0.036,-0.84702 c 0.0265,-0.62231 0.0665,-0.68909 0.1507,-0.2517 0.10741,0.55768 0.24731,0.59531 2.21292,0.59531 h 2.09827 v -2.1294 -2.1294 l -0.9335,0.9066 c -0.51342,0.49863 -1.51706,1.14912 -2.2303,1.44553 l -1.2968,0.53892 -0.1665,-1.63123 c -0.0916,-0.89717 -0.12974,-3.41716 -0.0848,-5.59998 l 0.0817,-3.96875 2.24896,-0.0151 c 1.23692,-0.008 2.36802,-0.059 2.51354,-0.1127 0.14552,-0.0537 1.18796,-0.003 2.31652,0.11244 1.45269,0.14872 2.16055,0.11993 2.42384,-0.0986 0.25441,-0.21113 0.42607,-0.221 0.54337,-0.0312 0.0943,0.15259 0.89338,0.27743 1.77574,0.27743 1.48983,0 1.57838,-0.033 1.24116,-0.46302 -0.31571,-0.40255 -0.3113,-0.42392 0.0337,-0.16365 0.21828,0.16465 1.46843,0.44934 2.77812,0.63264 1.91718,0.26832 5.51505,0.26716 18.46149,-0.006 8.84412,-0.18657 16.16647,-0.25253 16.27187,-0.14657 0.19592,0.19694 0.10114,24.26622 -0.0963,24.46616 -0.0599,0.0606 -0.10992,-1.9039 -0.11119,-4.36562 -0.001,-2.46173 -0.0767,-5.09526 -0.16765,-5.8523 l -0.16535,-1.37643 -7.70371,0.13057 c -4.23703,0.0718 -8.30557,0.19086 -9.04118,0.26455 l -1.33748,0.13397 -0.29915,1.7464 c -0.45047,2.62981 -1.70744,4.92443 -3.95322,7.21663 l -1.93673,1.97677 0.53669,0.53678 c 0.52314,0.52321 0.83385,0.53677 12.30285,0.53677 h 11.76615 l -0.0472,1.45521 c -0.0456,1.40835 -0.0503,1.41687 -0.14409,0.26458 l -0.0969,-1.19062 -11.51148,-0.0433 c -6.33132,-0.0238 -11.47522,0.0468 -11.4309,0.15702 0.0443,0.11019 2.34278,3.28184 5.10768,7.04811 6.0647,8.26118 9.89508,12.33039 14.50008,15.40419 1.57213,1.04939 3.06041,1.91062 3.3073,1.91386 0.24688,0.003 0.74653,0.23871 1.11033,0.52328 l 0.66146,0.5174 -1.05834,0.01 c -0.58208,0.005 -3.08239,0.13283 -5.55625,0.28341 -4.00895,0.24403 -22.5023,0.047 -20.83594,-0.22197 l 0.59532,-0.0961 v -9.75176 -9.75176 l -1.3625,-2.07038 c -2.61874,-3.97854 -2.7039,-4.05647 -4.41445,-4.03907 -2.08415,0.0212 -3.77102,0.36552 -3.1364,0.6402 0.44269,0.1916 0.42722,0.26193 -0.20215,0.91884 -0.71026,0.74137 -0.65981,1.07156 0.16373,1.07156 0.60942,0 0.61663,0.23274 0.022,0.71091 -0.41302,0.33215 -0.36302,0.35372 0.46302,0.19973 1.2883,-0.24017 0.72883,0.30271 -0.80905,0.78507 -0.64643,0.20276 -0.96696,0.38041 -0.7123,0.3948 0.57408,0.0324 0.5844,0.24724 0.0408,0.84798 -0.34045,0.37619 -0.54315,0.41153 -1.04606,0.18239 -0.59466,-0.27094 -0.60517,-0.32021 -0.22509,-1.0552 0.2811,-0.5436 0.34601,-1.12235 0.22006,-1.96226 -0.15402,-1.02703 -0.0921,-1.28539 0.44892,-1.87399 l 0.62757,-0.68272 -2.4937,0.18132 c -1.37153,0.0997 -2.59192,0.24202 -2.71198,0.31622 -0.12005,0.0742 -0.21828,3.76739 -0.21828,8.20709 v 8.0722 l 0.72761,-0.51263 c 2.55644,-1.80114 5.22389,-2.18697 6.96066,-1.0068 1.47892,1.00495 2.43101,2.58784 2.52634,4.20016 l 0.0819,1.38428 -0.22571,-1.2163 c -0.66139,-3.564 -3.28681,-5.34299 -6.45409,-4.37331 -1.71052,0.52368 -2.94387,1.40639 -3.60256,2.57838 -1.95961,3.48666 1.87108,8.43661 5.72572,7.39867 1.17197,-0.31558 3.39228,-2.11113 3.66221,-2.9616 0.0942,-0.29682 0.22873,-0.48224 0.29893,-0.41204 0.27696,0.27696 -0.75662,1.76873 -1.95499,2.82162 l -1.26367,1.11028 2.38125,-0.14474 c 1.30968,-0.0796 2.8575,-0.0473 3.43958,0.0718 0.6969,0.14257 -1.2309,0.25108 -5.64484,0.31772 -3.68674,0.0556 -6.75111,0.0531 -6.80971,-0.006 z m -6.48351,-1.56314 c 0.53372,-0.42997 1.09977,-1.21274 1.29814,-1.79513 0.49998,-1.46793 0.29452,-4.14306 -0.38898,-5.06476 -0.64665,-0.87199 -2.37675,-1.91065 -3.19272,-1.91673 -0.58183,-0.004 -0.58411,0.015 -0.58003,4.92258 l 0.004,4.92693 0.95655,-0.15523 c 0.52611,-0.0854 1.38243,-0.49832 1.90295,-0.91766 z m 1.87243,0.69111 c 0,-0.24694 0.0706,-0.24694 0.3175,0 0.40295,0.40295 4.08069,0.42834 4.32696,0.0299 0.12801,-0.20713 0.25828,-0.20713 0.46541,0 0.1582,0.1582 0.69866,0.28763 1.20103,0.28763 h 0.9134 l -1.47275,-1.54402 c -1.75714,-1.84219 -2.01928,-2.89363 -1.55312,-6.22972 0.16693,-1.19462 0.30002,-5.51204 0.29983,-9.72659 -3.2e-4,-6.84427 0.0426,-7.59494 0.44281,-7.74852 0.24374,-0.0935 2.95241,-0.33619 6.01928,-0.53923 4.55862,-0.30181 5.96812,-0.49331 7.7244,-1.04948 2.02264,-0.64053 2.2634,-0.8008 4.11676,-2.74069 2.52145,-2.63918 3.4147,-4.64173 3.59797,-8.06621 0.14319,-2.67558 -0.39841,-4.59982 -1.96075,-6.96624 -2.05866,-3.11817 -4.88414,-5.04731 -8.47688,-5.7877 -1.4413,-0.29702 -8.87841,-0.59729 -10.93476,-0.44149 -0.21828,0.0165 -1.97366,-0.0187 -3.90083,-0.0784 l -3.50395,-0.10847 1.29764,1.26394 c 1.72031,1.67563 1.9381,2.51727 1.46151,5.64775 -0.28193,1.85179 -0.38207,6.0618 -0.41372,17.39216 -0.0281,10.05333 -0.11643,14.25577 -0.26978,12.83229 -0.12542,-1.16417 -0.15643,-3.4582 -0.0689,-5.09785 0.0875,-1.63965 0.0789,-3.78277 -0.0191,-4.7625 l -0.17825,-1.78132 -2.0773,0.0857 -2.0773,0.0857 0.11798,0.84038 c 0.0649,0.4622 0.0262,3.83009 -0.0859,7.48421 l -0.20393,6.64384 1.19062,0.3161 c 0.71674,0.19028 1.58554,0.70023 2.18282,1.28121 l 0.99218,0.96511 0.0389,-1.97193 0.0389,-1.97192 0.19697,1.5875 c 0.31227,2.51677 0.28713,7.24701 -0.0419,7.88874 -0.16298,0.31786 -0.66259,0.96488 -1.11023,1.43782 l -0.81391,0.85989 h 1.11024 c 0.68713,0 1.11023,-0.12099 1.11023,-0.3175 z m 4.82584,-37.84864 0.069,-11.44323 1.5875,-0.0306 1.5875,-0.0306 -1.43503,0.16289 -1.43502,0.16289 -0.11065,5.22552 -0.11065,5.22552 1.94255,-0.004 c 2.88511,-0.005 3.12554,-0.11268 3.17291,-1.4163 l 0.0397,-1.09363 0.1587,1.19063 0.1587,1.19062 4.6522,0.067 c 4.4961,0.0648 4.6509,0.0494 4.61355,-0.45763 -0.0213,-0.28854 -0.12045,-0.60642 -0.22043,-0.7064 -0.1,-0.1 -0.18178,-0.41851 -0.18178,-0.70786 0,-0.49289 -0.0305,-0.49845 -0.48385,-0.0882 -0.60257,0.54532 -0.94413,0.56416 -0.74338,0.041 0.21547,-0.56152 -0.0923,-0.49232 -0.81026,0.1822 l -0.61639,0.57906 0.0455,-1.20278 c 0.0321,-0.84783 0.18942,-1.29266 0.53319,-1.50735 0.41871,-0.26148 0.49065,-0.22004 0.50859,0.29299 0.0115,0.32865 0.0809,0.44872 0.15434,0.26682 0.1724,-0.42725 0.79881,-0.42725 0.97672,0 0.16557,0.39761 0.96472,-0.48515 0.96472,-1.06565 0,-0.74076 -1.7379,-2.76131 -3.2348,-3.7609 -1.7445,-1.16493 -4.0941,-2.11876 -5.21922,-2.11876 -0.82786,0 -0.80245,-0.11011 -1.1602,5.02708 -0.0456,0.65485 -0.10372,-0.28443 -0.12914,-2.08727 l -0.0462,-3.27789 1.57199,0.14254 c 3.69014,0.33461 7.92015,3.48274 9.1773,6.83007 0.2981,0.79375 0.44865,2.06515 0.46758,3.9488 0.0249,2.47729 -0.0467,2.93571 -0.66114,4.23333 -0.37898,0.80037 -0.94326,1.75287 -1.25397,2.11667 l -0.56491,0.66146 0.46022,-0.92604 c 0.33642,-0.67694 0.46022,-1.57848 0.46022,-3.35142 0,-1.33396 -0.0595,-2.48131 -0.13229,-2.54967 -0.0728,-0.0684 -1.32292,-0.0431 -2.77813,0.0561 -1.45521,0.0992 -2.68552,0.0857 -2.73403,-0.03 -0.0485,-0.11572 -0.91171,-0.2104 -1.91823,-0.2104 h -1.83003 v 5.53785 5.53785 l 0.59531,0.0928 c 0.69169,0.10783 -3.73126,0.73774 -5.1801,0.73774 h -0.97708 z m 4.86784,10.73119 c 0.29784,-0.11429 0.36005,-1.17766 0.33158,-5.66745 l -0.0351,-5.52676 h -2.48156 -2.48156 v 5.85499 5.855 l 2.14998,-0.18754 c 1.18249,-0.10315 2.31497,-0.25086 2.51661,-0.32824 z m 11.31372,-9.93744 c 0.16306,-0.88286 0.12362,-0.99219 -0.35791,-0.99219 -0.50085,0 -0.5392,0.15272 -0.51499,2.05052 0.0261,2.04426 0.0272,2.04729 0.3579,0.99219 0.18246,-0.58209 0.41421,-1.50482 0.515,-2.05052 z m 0.031,-1.52781 c 0.0921,-0.14907 0.0884,-0.63101 -0.008,-1.07098 -0.14299,-0.65105 -0.24513,-0.74231 -0.54877,-0.49032 -0.50005,0.415 -0.49372,1.83234 0.008,1.83234 0.20969,0 0.45664,-0.12197 0.54877,-0.27104 z m -0.41946,-2.70553 c -0.0102,-0.1819 -0.12092,-0.56885 -0.24599,-0.85989 -0.19055,-0.44345 -0.2304,-0.38987 -0.24598,0.33073 -0.0102,0.47294 0.10046,0.85989 0.24598,0.85989 0.14552,0 0.25622,-0.14883 0.24599,-0.33073 z m -7.99933,13.72774 c 1.35459,-0.44921 4.46275,-2.1243 5.38863,-2.9041 0.37289,-0.31407 0.15427,-0.0793 -0.48582,0.52168 -1.35102,1.26848 -3.44218,2.36184 -4.95468,2.59055 l -1.05833,0.16004 z m 6.6968,-1.09172 c -0.26494,-0.31923 -0.27549,-0.49576 -0.0435,-0.72775 0.16846,-0.16846 0.30629,-0.56569 0.30629,-0.88273 0,-0.67932 1.2675,-1.31521 2.15761,-1.08244 0.31558,0.0825 0.79265,0.0329 1.06017,-0.11026 0.62714,-0.33564 0.62876,0.0766 0.003,0.64334 -0.53985,0.48856 -1.51279,0.58156 -1.76777,0.16899 -0.0914,-0.1479 -0.28598,-0.19487 -0.43239,-0.10438 -0.15608,0.0965 -0.0154,0.43152 0.34016,0.80995 0.47517,0.5058 0.54525,0.74305 0.32394,1.09657 -0.37781,0.60351 -1.51159,0.7134 -1.94704,0.18871 z m 1.32113,-0.38342 c 0,-0.31217 -0.51603,-0.64611 -0.70556,-0.45659 -0.18952,0.18953 0.14442,0.70556 0.45659,0.70556 0.13693,0 0.24897,-0.11204 0.24897,-0.24897 z M 144.2102,145.69771 c 0,-0.13694 0.13047,-0.32961 0.28994,-0.42816 0.18134,-0.11208 0.22739,-0.5962 0.12296,-1.2926 -0.21702,-1.44719 0.0133,-1.99902 0.83434,-1.99902 0.49446,0 0.62091,0.10566 0.50086,0.41851 -0.0883,0.23018 -0.16242,0.49807 -0.16465,0.59531 -0.002,0.0972 -0.0915,0.0394 -0.19844,-0.12849 -0.10691,-0.16791 -0.21902,0.26781 -0.24912,0.96826 -0.0401,0.93215 0.0531,1.31492 0.3475,1.4279 0.22123,0.0849 0.32813,0.27426 0.23756,0.4208 -0.20819,0.33686 -1.72095,0.35223 -1.72095,0.0175 z m 5.92103,-0.75387 c -0.1614,-0.10328 -0.37904,-0.46191 -0.48364,-0.79696 -0.27264,-0.87332 0.91281,-2.06448 1.6578,-1.66578 0.28351,0.15173 0.57975,0.44339 0.65832,0.64814 0.18026,0.46973 -1.43483,2.06907 -1.83248,1.8146 z m 0.85911,-1.51943 c -0.18432,-0.48032 -0.69472,-0.51279 -0.69472,-0.0442 0,0.48166 0.62747,1.08092 0.74925,0.71556 0.0519,-0.15577 0.0274,-0.4579 -0.0545,-0.67138 z m 26.82195,41.81365 c 0,-0.0723 -0.38696,-0.31221 -0.8599,-0.53305 -0.47294,-0.22083 -0.6341,-0.33728 -0.35813,-0.25878 1.11992,0.31859 3.8096,0.59577 4.50016,0.46377 0.70108,-0.13402 0.66003,-0.18193 -0.84478,-0.98593 -3.5834,-1.91459 -8.25886,-5.7671 -10.84719,-8.93794 -0.86185,-1.05581 -3.97342,-5.19388 -6.91459,-9.1957 -2.94117,-4.00183 -5.48864,-7.30573 -5.66106,-7.34201 -0.17241,-0.0363 -1.15028,0.20261 -2.17304,0.53087 l -1.85956,0.59684 4.92751,7.23551 c 2.71013,3.97953 5.7189,8.16659 6.68616,9.30458 2.29863,2.70439 5.54478,5.27624 8.50863,6.74119 2.64159,1.30566 2.76941,1.47305 0.47394,0.62063 -4.32232,-1.6051 -8.74135,-5.90459 -14.45041,-14.05949 l -1.99674,-2.85218 0.0133,9.40161 0.0133,9.40161 h 10.42115 c 5.73166,0 10.42118,-0.0592 10.42118,-0.13153 z M 147.12062,162.8517 c 0,-0.12995 -0.1786,-0.23627 -0.39688,-0.23627 -0.21828,0 -0.39687,0.17485 -0.39687,0.38857 0,0.23669 0.15512,0.32904 0.39687,0.23627 0.21828,-0.0838 0.39688,-0.25862 0.39688,-0.38857 z m 0,-1.75219 c 0,-0.32641 -0.0738,-0.33972 -0.39688,-0.0716 -0.21828,0.18116 -0.39687,0.43013 -0.39687,0.55326 0,0.12314 0.17859,0.15535 0.39687,0.0716 0.21828,-0.0838 0.39688,-0.33273 0.39688,-0.55326 z m 32.4776,-14.78388 2.4474,-0.15376 v -5.96371 -5.96372 l -12.36927,0.19516 c -6.8031,0.10734 -12.45857,0.2493 -12.56771,0.31548 -0.55038,0.33372 -0.14815,1.39993 0.73373,1.94496 0.51269,0.31687 1.47517,1.24271 2.13885,2.05744 1.80202,2.21217 2.67878,4.08451 3.37551,7.20849 l 0.1496,0.67075 6.82225,-0.0787 c 3.75223,-0.0433 7.92358,-0.14786 9.26964,-0.23242 z m -15.49262,-2.39879 c 0.0882,-1.3515 0.7421,-1.97843 0.7421,-0.71147 v 0.74238 l 0.42243,-0.60309 c 0.26802,-0.38266 0.63067,-0.57112 0.99218,-0.51561 0.58276,0.0895 0.62038,0.23455 0.28467,1.09788 -0.1716,0.44131 -0.12909,0.46013 0.39993,0.17701 0.90265,-0.48309 0.94325,-0.1394 0.058,0.49096 -0.98074,0.69834 -1.36345,0.70645 -1.36345,0.0289 0,-0.29105 -0.11487,-0.52917 -0.25527,-0.52917 -0.1404,0 -0.38272,0.23812 -0.53848,0.52917 -0.49007,0.9157 -0.82702,0.59473 -0.7421,-0.70693 z m -30.08186,-0.0985 c 2.37904,-1.44006 3.37406,-3.93289 2.49671,-6.255 -0.5678,-1.50281 -2.45798,-2.99379 -3.79536,-2.99379 h -0.66347 l -0.003,5.04231 -0.003,5.0423 0.5871,-0.17768 c 0.32291,-0.0977 0.94429,-0.39389 1.38085,-0.65814 z m 22.62188,-8.58733 c 0,-0.61736 -0.0882,-0.66146 -1.32292,-0.66146 -1.61925,0 -1.69838,0.35217 -0.19844,0.88311 1.51268,0.53544 1.52136,0.53418 1.52136,-0.22165 z m 25.33522,46.30209 c -0.28818,-3.86919 -0.21153,-14.29945 0.0955,-12.99102 0.13317,0.56754 0.21051,4.31801 0.17186,8.33437 -0.0561,5.83357 -0.1099,6.77026 -0.26733,4.65665 z m -36.18314,-1.68857 c 0,-0.14552 0.11906,-0.33816 0.26458,-0.4281 0.14553,-0.0899 0.26459,-0.0445 0.26459,0.10106 0,0.14552 -0.11906,0.33817 -0.26459,0.42811 -0.14552,0.0899 -0.26458,0.0444 -0.26458,-0.10107 z m 38.03345,-16.52596 c 0.1131,-2.94068 0.07,-3.97711 -0.17157,-4.12642 -0.22687,-0.1402 -0.12784,-0.32701 0.33363,-0.62937 0.41967,-0.27498 0.80658,-0.93349 1.0733,-1.82671 0.22937,-0.7682 0.6529,-1.69438 0.94116,-2.05818 0.51501,-0.65 0.5242,-0.65141 0.52998,-0.0818 0.003,0.31883 0.13073,0.65685 0.28332,0.75116 0.39752,0.24568 -0.21695,0.9181 -0.839,0.9181 -0.38661,0 -0.49677,0.19556 -0.49677,0.88194 0,1.11512 0.16235,1.26996 0.95356,0.90946 0.3499,-0.15942 0.71432,-0.21172 0.80983,-0.11621 0.26431,0.26431 -0.72329,1.23522 -1.25645,1.23522 -0.55341,0 -1.13321,1.76798 -1.73027,5.27607 -0.56122,3.2975 -0.59746,3.20214 -0.43072,-1.1333 z m -55.31416,-1.97443 c -0.90687,-0.94657 -0.89463,-1.3642 0.067,-2.2855 1.29294,-1.23871 1.96524,-0.55004 1.21214,1.24164 -0.13921,0.3312 -0.0718,0.46302 0.23666,0.46302 0.39809,0 0.39792,0.0509 -0.002,0.66146 -0.54512,0.83196 -0.64442,0.82668 -1.51367,-0.0806 z m 1.02042,-1.88502 c -0.26015,-0.42092 -0.67916,-0.078 -0.49406,0.4044 0.1018,0.26529 0.24582,0.31623 0.41518,0.14687 0.14262,-0.14262 0.17812,-0.39069 0.0789,-0.55127 z m -2.34674,-7.20546 c -0.33531,-0.18765 -0.44297,-0.62315 -0.44297,-1.79182 0,-1.39438 0.0705,-1.58929 0.72761,-2.01219 0.72512,-0.46667 0.72598,-0.46643 0.25327,0.0691 -0.6259,0.70901 -0.88406,2.33095 -0.45357,2.84966 0.9827,1.18409 2.64769,-0.19379 2.64769,-2.19112 0,-1.15837 -0.0158,-1.18165 -0.5029,-0.74083 -0.53859,0.48742 -0.57593,0.46246 -1.27396,-0.85156 -0.2755,-0.51862 -0.23968,-0.74005 0.2375,-1.46799 0.55369,-0.84466 0.57397,-0.85131 1.38138,-0.45288 0.80079,0.39516 0.8209,0.45099 0.88368,2.45313 0.061,1.94422 0.0235,2.0952 -0.73435,2.95833 -0.92319,1.05146 -2.06624,1.54598 -2.72338,1.17822 z m 2.23209,-5.58989 c -0.45781,-0.4578 -0.63188,-0.0243 -0.26067,0.64927 0.30565,0.55458 0.3511,0.56759 0.44312,0.12685 0.0564,-0.27012 -0.0257,-0.61937 -0.18245,-0.77612 z m 55.21524,2.99533 c 0.59636,-0.43199 1.20953,-1.01948 1.36262,-1.30552 0.40109,-0.74944 0.34231,-1.75989 -0.12494,-2.14767 -0.46166,-0.38314 -0.52176,-0.3468 -0.77178,0.46666 -0.14861,0.4835 -0.0999,0.56197 0.26249,0.42291 0.38318,-0.14704 0.40266,-0.0917 0.14028,0.39854 -0.34916,0.65242 -0.63009,0.71428 -1.03395,0.22766 -0.20151,-0.24281 -0.20172,-0.89273 -7.9e-4,-2.24695 0.25952,-1.74851 0.35601,-1.95058 1.17234,-2.4551 0.99086,-0.61238 1.44789,-0.51206 1.24265,0.27277 -0.1868,0.71432 -0.83067,1.24479 -0.77862,0.64147 0.0637,-0.73814 -0.54734,-0.7066 -0.7342,0.0379 -0.14723,0.58664 0.001,0.85069 0.96062,1.70656 l 1.1348,1.01254 -0.5227,0.98424 c -0.49872,0.93922 -2.56519,2.76944 -3.12686,2.76944 -0.14643,0 0.22169,-0.35345 0.81804,-0.78545 z m -1.41989,-15.82949 c -0.48784,-0.40802 -0.51129,-0.5436 -0.21587,-1.24797 0.18229,-0.43462 0.31783,-1.43097 0.3012,-2.21412 -0.032,-1.50617 0.40034,-2.14797 1.44689,-2.14797 0.74688,0 0.82685,0.63454 0.22793,1.80852 l -0.54387,1.06608 0.59155,0.0841 c 0.86968,0.12358 0.90097,1.1248 0.0692,2.21527 -0.78088,1.02378 -1.08889,1.09535 -1.87706,0.43614 z m 1.31274,-1.00149 c 0.28925,-0.75377 0.15189,-1.04743 -0.24469,-0.5231 -0.21365,0.28247 -0.38846,0.60989 -0.38846,0.7276 0,0.37872 0.46727,0.2278 0.63315,-0.2045 z m -0.18521,-3.21447 c -0.0671,-0.25743 -0.12638,-0.11087 -0.13177,0.32569 -0.005,0.43657 0.0495,0.64719 0.12197,0.46806 0.0725,-0.17913 0.0769,-0.53632 0.01,-0.79375 z m -27.9646,2.85681 c 0,-1.51596 -0.025,-1.5728 -0.72761,-1.65365 -0.59552,-0.0685 -0.73937,-0.22781 -0.79245,-0.87747 -0.0927,-1.13412 0.41594,-1.67369 1.43645,-1.52391 l 0.83745,0.12291 0.0946,2.02342 c 0.0842,1.79977 -0.26476,3.47863 -0.72297,3.47863 -0.069,0 -0.1255,-0.70647 -0.1255,-1.56993 z m 0,-2.94361 c 0,-0.29963 -0.11907,-0.47119 -0.26459,-0.38126 -0.14552,0.0899 -0.26458,0.33509 -0.26458,0.54479 0,0.20969 0.11906,0.38126 0.26458,0.38126 0.14552,0 0.26459,-0.24516 0.26459,-0.54479 z m -9.78959,3.7795 c 0,-0.30671 -0.11906,-0.63124 -0.26458,-0.72117 -0.49101,-0.30346 -0.26915,-1.17544 0.41274,-1.62223 0.56189,-0.36817 0.61765,-0.50348 0.32719,-0.79394 -0.19258,-0.19258 -0.7337,-0.42686 -1.20249,-0.52062 -0.73034,-0.14606 -0.96654,-0.0482 -1.6501,0.68354 -0.88857,0.95121 -0.99178,0.88237 -0.39815,-0.26559 0.8131,-1.57235 2.63558,-1.80649 3.85986,-0.49589 0.95331,1.02052 0.95978,1.23768 0.04,1.34351 -0.67775,0.078 -0.7276,0.16824 -0.7276,1.3175 0,0.67858 -0.0893,1.3235 -0.19844,1.43316 -0.10914,0.10966 -0.19844,-0.0516 -0.19844,-0.35827 z m -17.44198,-0.81324 -0.5194,-1.01811 1.17548,-1.15364 c 0.95761,-0.93982 1.17704,-1.05762 1.1839,-0.63554 0.008,0.50994 0.015,0.50977 0.42829,-0.0111 0.40716,-0.51314 0.41495,-0.50788 0.2573,0.17385 -0.0894,0.38667 -0.23809,0.89979 -0.33037,1.14027 -0.11652,0.30365 0.003,0.48199 0.39241,0.58373 l 0.5602,0.1465 -0.57168,0.80284 -0.57168,0.80285 -0.23852,-0.6344 -0.23852,-0.63439 -0.38554,0.7276 c -0.21205,0.40018 -0.43885,0.72761 -0.504,0.72761 -0.0652,0 -0.3522,-0.45815 -0.63787,-1.01811 z m 1.3024,-1.09856 c 0,-0.29104 -0.11906,-0.52916 -0.26459,-0.52916 -0.14552,0 -0.26458,0.23812 -0.26458,0.52916 0,0.29104 0.11906,0.52917 0.26458,0.52917 0.14553,0 0.26459,-0.23813 0.26459,-0.52917 z"
           id="path2356" /></g></clipPath></defs><g
     inkscape:label="Calque 1"
     inkscape:groupmode="layer"
     id="layer1"
     transform="translate(-48.509161,-130.26926)"><g
       id="g9096"><g
         id="g890"
         transform="translate(-12.938178,66.409141)"
         style="fill:#999999"><path
           style="fill:#999999;fill-opacity:1;stroke-width:0.264583"
           d="m 90.518986,121.5252 c -0.706464,-0.13796 -0.460746,-0.1891 1.036285,-0.21567 1.079278,-0.0192 1.912716,0.008 1.852084,0.06 -0.262493,0.22582 -2.038853,0.32155 -2.888369,0.15566 z m 20.042184,-0.16115 c 0.1819,-0.0734 0.47956,-0.0734 0.66146,0 0.1819,0.0734 0.0331,0.13346 -0.33073,0.13346 -0.3638,0 -0.51263,-0.0601 -0.33073,-0.13346 z m -39.670961,-0.53464 c 0.190996,-0.0764 0.419199,-0.067 0.507118,0.0209 0.08792,0.0879 -0.06835,0.15045 -0.347266,0.13897 -0.308224,-0.0127 -0.370919,-0.0754 -0.159852,-0.15986 z m 6.908533,-0.41458 c -0.142855,-0.46678 -0.167627,-1.00367 -0.04044,-0.87648 0.193083,0.19308 0.327914,0.94263 0.169563,0.94263 -0.05988,0 -0.117989,-0.0298 -0.129123,-0.0662 z m 39.559958,-0.27569 c -0.0721,-0.18801 -0.0977,-2.18231 -0.0569,-4.43177 l 0.0743,-4.08993 0.13133,4.43212 c 0.0722,2.43767 0.0978,4.43197 0.0569,4.43177 -0.0409,-1.9e-4 -0.13348,-0.15418 -0.20563,-0.34219 z m -46.357498,-3.89146 c 0,-0.50932 0.05445,-0.71768 0.121,-0.46302 0.06655,0.25467 0.06655,0.67138 0,0.92605 -0.06655,0.25466 -0.121,0.0463 -0.121,-0.46303 z m -1.153466,-3.63802 c -0.329108,-0.41964 -0.319749,-0.429 0.0999,-0.0999 0.254661,0.19972 0.463021,0.40808 0.463021,0.46302 0,0.21776 -0.217273,0.0776 -0.562916,-0.36313 z m 35.983334,0 c -0.32911,-0.41964 -0.31975,-0.429 0.0999,-0.0999 0.25466,0.19972 0.46302,0.40808 0.46302,0.46302 0,0.21776 -0.21728,0.0776 -0.56292,-0.36313 z m 0,-1.05833 c -0.32911,-0.41964 -0.31975,-0.429 0.0999,-0.0999 0.25466,0.19973 0.46302,0.40808 0.46302,0.46303 0,0.21776 -0.21728,0.0776 -0.56292,-0.36313 z m -30.041931,-5.22552 c 0.0012,-1.01865 0.049,-1.40294 0.106272,-0.854 0.05728,0.54895 0.05631,1.38239 -0.0021,1.85209 -0.05845,0.4697 -0.105312,0.0206 -0.104138,-0.99809 z m -9.010591,-2.51361 c 0,-0.65485 0.0516,-0.92274 0.114662,-0.59531 0.06306,0.32742 0.06306,0.8632 0,1.19062 -0.06306,0.32742 -0.114662,0.0595 -0.114662,-0.59531 z m 9.003057,-0.79375 c 0,-0.80037 0.0496,-1.12779 0.110222,-0.72761 0.06062,0.40019 0.06062,1.05503 0,1.45521 -0.06062,0.40018 -0.110222,0.0728 -0.110222,-0.7276 z m 41.292345,-3.571877 c 8e-4,-1.455208 0.0451,-2.016765 0.0987,-1.247902 0.0536,0.768863 0.053,1.959489 -0.001,2.645829 -0.0542,0.68635 -0.0981,0.0573 -0.0974,-1.397927 z m -50.854855,1.719787 c 0,-0.3638 0.06005,-0.51263 0.133452,-0.33072 0.0734,0.1819 0.0734,0.47955 0,0.66145 -0.0734,0.1819 -0.133452,0.0331 -0.133452,-0.33073 z m 9.558898,-1.719787 c 0.002,-0.727604 0.05337,-0.993857 0.114185,-0.591674 0.06082,0.402182 0.05919,0.997495 -0.0036,1.322921 -0.0628,0.32542 -0.11256,-0.004 -0.110574,-0.731247 z m -9.558898,0.396875 c 0,-0.363802 0.06005,-0.51263 0.133452,-0.330729 0.0734,0.181901 0.0734,0.479557 0,0.661461 -0.0734,0.1819 -0.133452,0.0331 -0.133452,-0.330732 z m 10.073774,-2.910417 c 0,-0.509323 0.05445,-0.717682 0.121,-0.46302 0.06655,0.254661 0.06655,0.67138 0,0.926041 -0.06655,0.254662 -0.121,0.0463 -0.121,-0.463021 z m 19.451638,-1.498145 c 0.181901,-0.0734 0.479557,-0.0734 0.661458,0 0.181901,0.0734 0.03307,0.133454 -0.330729,0.133454 -0.363802,0 -0.51263,-0.06006 -0.330729,-0.133454 z M 80.679793,95.164778 c 0.190996,-0.07643 0.419199,-0.06703 0.507118,0.02088 0.08792,0.08792 -0.06835,0.150453 -0.347266,0.138965 -0.308224,-0.0127 -0.370919,-0.07539 -0.159852,-0.159851 z m 5.291666,-0.264584 c 0.190997,-0.07643 0.4192,-0.06703 0.507119,0.02088 0.08792,0.08792 -0.06835,0.150453 -0.347266,0.138964 -0.308225,-0.0127 -0.370919,-0.07539 -0.159853,-0.15985 z m 14.138671,-0.0088 c 0.40018,-0.06062 1.05503,-0.06062 1.45521,0 0.40018,0.06062 0.0728,0.110222 -0.7276,0.110222 -0.80037,0 -1.127791,-0.0496 -0.72761,-0.110222 z m 20.40984,-1.246369 c -0.0797,-0.207698 -0.10056,-0.654182 -0.0463,-0.992187 0.0725,-0.45211 0.13394,-0.35229 0.23238,0.377631 0.13853,1.027232 0.0652,1.269363 -0.18604,0.614556 z M 76.018482,92.83199 c 0.0054,-0.436563 0.06469,-0.583126 0.131774,-0.325694 0.06708,0.257431 0.06267,0.614619 -0.0098,0.79375 -0.07248,0.17913 -0.127363,-0.03149 -0.121971,-0.468056 z M 71.5778,86.614281 c 0,-2.546614 0.03968,-3.588411 0.08819,-2.315104 0.0485,1.273307 0.0485,3.356901 0,4.630208 -0.0485,1.273308 -0.08819,0.231511 -0.08819,-2.315104 z m -0.555996,1.984375 c 0.0015,-0.873125 0.05088,-1.198414 0.109766,-0.722865 0.05889,0.475548 0.05767,1.189923 -0.0027,1.5875 -0.06037,0.397576 -0.108552,0.0085 -0.107067,-0.864635 z m 45.732706,0.661459 c 0,-0.363802 0.0601,-0.512631 0.13345,-0.33073 0.0734,0.181901 0.0734,0.479558 0,0.661459 -0.0734,0.181901 -0.13345,0.03307 -0.13345,-0.330729 z m 0.50828,0.110243 c 0.0127,-0.308225 0.0754,-0.37092 0.15985,-0.159853 0.0764,0.190996 0.067,0.419199 -0.0209,0.507118 -0.0879,0.08792 -0.15046,-0.06835 -0.13897,-0.347265 z m -0.47438,-2.094618 c 0.002,-0.727605 0.0534,-0.993858 0.11419,-0.591675 0.0608,0.402183 0.0592,0.997496 -0.004,1.322917 -0.0628,0.325421 -0.11257,-0.0036 -0.11059,-0.731242 z m -52.463175,0.0324 c 0,-0.05494 0.208359,-0.263302 0.463021,-0.463021 0.419644,-0.329108 0.429002,-0.31975 0.09989,0.09989 -0.345643,0.44073 -0.562915,0.580888 -0.562915,0.363127 z m 26.774498,-1.6199 c 0.0054,-0.436563 0.06469,-0.583125 0.131773,-0.325694 0.06708,0.257431 0.06267,0.614618 -0.0098,0.79375 -0.07249,0.179131 -0.127375,-0.03149 -0.121983,-0.468056 z M 76.545012,83.902302 c -0.04835,-1.503033 -0.04018,-1.52092 0.678661,-1.485323 0.603676,0.02989 0.628464,0.05527 0.14554,0.148958 -0.494105,0.09586 -0.59666,0.320314 -0.678661,1.485323 l -0.0966,1.372396 z m 16.416607,-0.992187 c 0,-0.509323 0.05445,-0.717683 0.121002,-0.463021 0.06655,0.254661 0.06655,0.67138 0,0.926041 -0.06655,0.254662 -0.121002,0.0463 -0.121002,-0.46302 z m 10.591731,-0.18986 c 0.40219,-0.06082 0.9975,-0.05919 1.32292,0.0036 0.32542,0.0628 -0.004,0.11256 -0.73124,0.110574 -0.72761,-0.002 -0.99386,-0.05337 -0.59168,-0.114185 z M 69.038126,82.464791 c 0.190996,-0.07643 0.419199,-0.06703 0.507118,0.02089 0.08792,0.08792 -0.06835,0.150453 -0.347266,0.138965 -0.308224,-0.0127 -0.370919,-0.07539 -0.159852,-0.159853 z m 44.979164,0 c 0.191,-0.07643 0.4192,-0.06703 0.50712,0.02089 0.0879,0.08792 -0.0684,0.150453 -0.34726,0.138965 -0.30823,-0.0127 -0.37092,-0.07539 -0.15986,-0.159853 z m -37.476744,-1.472906 0.04448,-1.124479 0.102801,0.975674 c 0.0669,0.634918 0.259278,1.016924 0.550836,1.093787 0.319036,0.08411 0.276631,0.12695 -0.147279,0.148806 -0.535243,0.0276 -0.590825,-0.08277 -0.550835,-1.093788 z m 36.137294,0.949251 c 0.1819,-0.0734 0.47956,-0.0734 0.66146,0 0.1819,0.0734 0.0331,0.133452 -0.33073,0.133452 -0.3638,0 -0.51263,-0.06005 -0.33073,-0.133452 z M 71.535708,80.92574 c 0.0029,-0.582084 0.05712,-0.789055 0.120406,-0.459937 0.06329,0.329119 0.06088,0.805369 -0.0053,1.058334 -0.06622,0.252965 -0.118003,-0.01631 -0.115067,-0.598397 z M 85.84468,80.143628 c 0,-0.21188 0.101161,-0.322715 0.224802,-0.246301 0.123641,0.07641 0.156302,0.249771 0.07258,0.385236 -0.213948,0.346176 -0.297381,0.307197 -0.297382,-0.138935 z m 4.695194,-0.03369 c 0.0127,-0.308225 0.07539,-0.370919 0.159851,-0.159853 0.07643,0.190997 0.06703,0.4192 -0.02088,0.507119 -0.08792,0.08792 -0.150453,-0.06835 -0.138965,-0.347266 z m 1.343803,-8.841493 c 0,-0.363802 0.06006,-0.51263 0.133454,-0.330729 0.0734,0.181901 0.0734,0.479557 0,0.661458 -0.0734,0.181901 -0.133454,0.03307 -0.133454,-0.330729 z m -11.468468,0.08384 c 0.190996,-0.07643 0.419199,-0.06703 0.507118,0.02089 0.08792,0.08792 -0.06835,0.150453 -0.347265,0.138965 -0.308225,-0.0127 -0.37092,-0.07539 -0.159853,-0.159853 z M 69.546346,70.177283 c 0.179476,-0.180821 0.39297,-0.262115 0.474432,-0.180653 0.08146,0.08146 -0.06538,0.229406 -0.32632,0.328765 -0.377083,0.143586 -0.407474,0.113195 -0.148112,-0.148112 z m 14.837613,0.116674 c 0.190996,-0.07643 0.4192,-0.06703 0.507119,0.02089 0.08792,0.08792 -0.06835,0.150453 -0.347266,0.138964 -0.308225,-0.01269 -0.370919,-0.07539 -0.159853,-0.159852 z m 10.173561,-0.0091 c 0.402182,-0.06082 0.997495,-0.05919 1.322916,0.0036 0.325422,0.0628 -0.0036,0.11256 -0.731242,0.110573 -0.727604,-0.002 -0.993857,-0.05337 -0.591674,-0.114185 z m 12.7014,-0.258077 c 0.25743,-0.06708 0.61462,-0.06267 0.79375,0.0098 0.17913,0.07247 -0.0315,0.127362 -0.46806,0.121969 -0.43656,-0.0054 -0.58312,-0.06469 -0.32569,-0.131773 z m 1.46671,0.0026 c 0.19099,-0.07643 0.41919,-0.06703 0.50712,0.02089 0.0879,0.08792 -0.0684,0.150453 -0.34727,0.138964 -0.30823,-0.01269 -0.37092,-0.07539 -0.15985,-0.159852 z m -22.236802,-0.2756 c 0.475549,-0.05889 1.189924,-0.05767 1.5875,0.0027 0.397577,0.06037 0.0085,0.108551 -0.864634,0.107066 -0.873125,-0.0015 -1.198415,-0.05088 -0.722866,-0.109766 z M 74.858959,69.500207 c 0.190996,-0.07643 0.419199,-0.06703 0.507118,0.02089 0.08792,0.08792 -0.06835,0.150453 -0.347265,0.138964 -0.308225,-0.01269 -0.37092,-0.07539 -0.159853,-0.159852 z m 24.870834,0 c 0.190995,-0.07643 0.419197,-0.06703 0.507117,0.02089 0.0879,0.08792 -0.0683,0.150453 -0.347263,0.138964 -0.308227,-0.01269 -0.37092,-0.07539 -0.159854,-0.159852 z m 2.108997,-0.01463 c 0.76887,-0.05362 1.95949,-0.05305 2.64584,0.0012 0.68634,0.0543 0.0573,0.09817 -1.39794,0.09748 -1.4552,-6.88e-4 -2.01676,-0.04512 -1.2479,-0.09874 z m -9.680724,-2.847339 c 0.0054,-0.436562 0.06469,-0.583124 0.131773,-0.325693 0.06708,0.257431 0.06267,0.614618 -0.0098,0.79375 -0.07249,0.179131 -0.127376,-0.03149 -0.121984,-0.468057 z m 0.0098,-1.719791 c 0,-0.509323 0.05445,-0.717683 0.121002,-0.463021 0.06655,0.254661 0.06655,0.67138 0,0.926042 -0.06655,0.254661 -0.121002,0.0463 -0.121002,-0.463021 z"
           id="path884"
           sodipodi:nodetypes="sccsscsscsscsscssccccccscsssscsscccssccscsscscccsssssssscscccsssscscccsssssssssssscssccsssssssssccsccsscssscsssssssscssccscccsccccsccccscccsssscssssscccccsscssscsssccsssscsssscscccsssscssccsssssscsssscssscsscccccsssssscssssscssscssscsssccscccscccssss" /><path
           style="fill:#999999;fill-opacity:1;stroke-width:0.264583"
           d="m 120.96696,121.38494 c 0.0127,-0.30822 0.0754,-0.37092 0.15985,-0.15985 0.0764,0.19099 0.067,0.4192 -0.0209,0.50712 -0.0879,0.0879 -0.15045,-0.0683 -0.13896,-0.34727 z m -53.268288,-0.0371 c 0.472943,-0.0587 1.246849,-0.0587 1.719792,0 0.472943,0.0587 0.08599,0.10672 -0.859896,0.10672 -0.945885,0 -1.332838,-0.048 -0.859896,-0.10672 z m 4.894792,0.002 c 0.400183,-0.0606 1.055026,-0.0606 1.455209,0 0.400182,0.0606 0.07276,0.11023 -0.727605,0.11023 -0.800364,0 -1.127786,-0.0496 -0.727604,-0.11023 z m 16.073438,-0.0967 c -0.83303,-0.15583 -0.786524,-0.17673 0.463021,-0.20807 0.763984,-0.0191 1.389063,0.0108 1.389063,0.0666 0,0.22854 -0.984581,0.30375 -1.852084,0.14146 z m 6.294224,0.0901 c 0.915207,-0.0518 2.343957,-0.0514 3.175,0.001 0.83104,0.0523 0.08223,0.0947 -1.664015,0.0942 -1.74625,-5.3e-4 -2.426195,-0.0433 -1.510985,-0.0951 z m 14.541714,0.0209 c 0.1819,-0.0734 0.47956,-0.0734 0.66146,0 0.1819,0.0734 0.0331,0.13345 -0.33073,0.13345 -0.3638,0 -0.51263,-0.0601 -0.33073,-0.13345 z m 12.52245,-0.2437 c 0.0127,-0.30823 0.0754,-0.37092 0.15985,-0.15985 0.0764,0.19099 0.067,0.4192 -0.0209,0.50712 -0.0879,0.0879 -0.15046,-0.0684 -0.13897,-0.34727 z m -37.525575,-0.028 c 0.254661,-0.0665 0.67138,-0.0665 0.926041,0 0.254662,0.0666 0.0463,0.121 -0.463021,0.121 -0.509322,0 -0.717682,-0.0545 -0.46302,-0.121 z m 30.432115,-10e-4 c 0.25744,-0.0671 0.61462,-0.0627 0.79375,0.01 0.17913,0.0725 -0.0315,0.12736 -0.46805,0.12197 -0.43656,-0.005 -0.58313,-0.0647 -0.3257,-0.13177 z m -2.76662,-0.26196 c 0.191,-0.0764 0.4192,-0.067 0.50712,0.0209 0.0879,0.0879 -0.0683,0.15045 -0.34727,0.13897 -0.30822,-0.0127 -0.37092,-0.0754 -0.15985,-0.15986 z m 2.91042,-0.26459 c 0.19099,-0.0764 0.41919,-0.067 0.50712,0.0209 0.0879,0.0879 -0.0684,0.15045 -0.34727,0.13896 -0.30823,-0.0127 -0.37092,-0.0754 -0.15985,-0.15985 z m -38.207825,-1.20823 -0.504028,-0.59531 0.595312,0.50403 c 0.559447,0.47366 0.715762,0.68659 0.504028,0.68659 -0.05021,0 -0.318097,-0.26789 -0.595312,-0.59531 z m -10.618424,-1.78594 c 0,-0.65484 0.0516,-0.92273 0.114662,-0.59531 0.06307,0.32742 0.06307,0.8632 0,1.19062 -0.06306,0.32743 -0.114662,0.0595 -0.114662,-0.59531 z m 50.505129,-0.79375 c 0,-0.3638 0.0601,-0.51263 0.13345,-0.33073 0.0734,0.1819 0.0734,0.47956 0,0.66146 -0.0734,0.1819 -0.13345,0.0331 -0.13345,-0.33073 z m -15.78448,-2.64583 c -0.56839,-0.58209 -0.93516,-1.05834 -0.81505,-1.05834 0.12011,0 0.055,-0.20835 -0.14474,-0.46302 -0.328606,-0.419 -0.319388,-0.42872 0.097,-0.10231 0.25306,0.19839 0.4032,0.45279 0.33364,0.56533 -0.14984,0.24246 0.51602,0.851 0.71425,0.65277 0.17771,-0.17771 0.83433,0.61636 0.90439,1.09372 0.0741,0.50506 0.0782,0.50761 -1.08947,-0.68815 z m 0.92604,0.42927 c 0,-0.0549 -0.20836,-0.2633 -0.46302,-0.46302 -0.41965,-0.32911 -0.429,-0.31975 -0.0999,0.0999 0.34565,0.44073 0.56292,0.58089 0.56292,0.36313 z m -31.747584,-2.14615 c -0.179827,-0.21668 -0.450927,-0.31734 -0.602444,-0.2237 -0.165234,0.10212 -0.195668,0.0411 -0.07604,-0.15244 0.149873,-0.2425 0.324423,-0.20959 0.702338,0.13241 0.276595,0.25032 0.5029,0.4962 0.5029,0.54641 0,0.19669 -0.2147,0.0733 -0.526749,-0.30268 z m 0.920292,-3.13666 c -0.103909,-1.52448 -0.134381,-2.93131 -0.06772,-3.12631 0.06666,-0.19499 0.209852,0.99414 0.318194,2.64251 0.108341,1.64836 0.138814,3.0552 0.06772,3.1263 -0.0711,0.0711 -0.214285,-1.11803 -0.318193,-2.6425 z m 4.724242,0.7525 c 9.53e-4,-1.16417 0.04748,-1.60751 0.10337,-0.9852 0.05589,0.62231 0.0551,1.57481 -0.0017,2.11667 -0.05685,0.54185 -0.102584,0.0327 -0.101623,-1.13147 z m 41.114,-6.35 c -0.10365,-0.58209 -0.17277,-2.18943 -0.15359,-3.57188 l 0.0349,-2.51354 0.22738,3.04271 c 0.24578,3.28878 0.19388,4.74177 -0.10867,3.04271 z M 71.0352,99.578865 c 0,-1.382448 0.04459,-1.947995 0.0991,-1.256771 0.0545,0.691224 0.0545,1.822316 0,2.513546 -0.0545,0.69122 -0.0991,0.12567 -0.0991,-1.256775 z m 4.708895,1.587495 c 0,-0.3638 0.06005,-0.51263 0.133452,-0.33072 0.0734,0.1819 0.0734,0.47955 0,0.66145 -0.0734,0.1819 -0.133452,0.0331 -0.133452,-0.33073 z m 41.163075,-5.793495 c -0.10694,-0.930851 -0.17743,-2.597726 -0.15665,-3.704166 0.0353,-1.880433 0.0527,-1.813154 0.26593,1.030999 0.25848,3.447185 0.1853,5.237292 -0.10928,2.673167 z m -32.787794,0.05651 c 0.190996,-0.07643 0.419199,-0.06703 0.507118,0.02088 0.08792,0.08792 -0.06835,0.150452 -0.347265,0.138964 -0.308225,-0.0127 -0.37092,-0.07539 -0.159853,-0.15985 z m 13.609506,-0.01373 c 0.691224,-0.0545 1.822317,-0.0545 2.513538,0 0.69123,0.0545 0.12568,0.0991 -1.256767,0.0991 -1.382448,0 -1.947995,-0.04459 -1.256771,-0.0991 z m 17.065628,0.01926 c 0.1819,-0.0734 0.47955,-0.0734 0.66146,0 0.1819,0.0734 0.0331,0.133453 -0.33073,0.133453 -0.36381,0 -0.51263,-0.06006 -0.33073,-0.133453 z M 81.594333,95.162202 c 0.257431,-0.06708 0.614619,-0.06267 0.79375,0.0098 0.179132,0.07248 -0.03149,0.127363 -0.468056,0.121971 -0.436563,-0.0054 -0.583125,-0.06469 -0.325694,-0.131774 z M 97.336745,94.88922 c 0.475549,-0.05889 1.189924,-0.05767 1.5875,0.0027 0.397577,0.06037 0.0085,0.108551 -0.864634,0.107067 -0.873125,-0.0016 -1.198415,-0.05088 -0.722866,-0.109766 z M 75.98779,93.868283 c 0.01269,-0.308226 0.07539,-0.370919 0.159852,-0.159853 0.07643,0.190995 0.06703,0.419198 -0.02089,0.507119 -0.08792,0.08792 -0.150453,-0.06835 -0.138965,-0.347266 z m 2.029633,-0.0209 c 0.181901,-0.0734 0.479557,-0.0734 0.661458,0 0.181901,0.0734 0.03307,0.133454 -0.330729,0.133454 -0.363802,0 -0.51263,-0.06006 -0.330729,-0.133454 z m 4.828646,-0.369554 c 0,-0.154109 0.119062,-0.206613 0.264583,-0.116676 0.145521,0.08994 0.264583,0.216027 0.264583,0.280199 0,0.06417 -0.119062,0.116676 -0.264583,0.116676 -0.145521,0 -0.264583,-0.12609 -0.264583,-0.280199 z M 94.223152,92.03824 c 0.341776,-0.363802 0.68094,-0.661459 0.7537,-0.661459 0.07276,0 -0.147341,0.297657 -0.489116,0.661459 -0.341776,0.363802 -0.68094,0.661458 -0.7537,0.661458 -0.07276,0 0.147341,-0.297656 0.489116,-0.661458 z M 71.015493,91.24449 c 0.002,-0.727605 0.05337,-0.993857 0.114185,-0.591675 0.06082,0.402183 0.05919,0.997495 -0.0036,1.322917 -0.0628,0.325421 -0.11256,-0.0036 -0.110574,-0.731242 z m 50.459747,0.561562 c 0,-0.05494 0.20836,-0.2633 0.46302,-0.463021 0.41964,-0.329107 0.429,-0.319749 0.0999,0.0999 -0.34564,0.44073 -0.56291,0.580888 -0.56291,0.363125 z m -4.18176,-3.471979 c 0.005,-0.436563 0.0647,-0.583125 0.13178,-0.325694 0.0671,0.257431 0.0627,0.614619 -0.01,0.79375 -0.0725,0.179132 -0.12735,-0.03149 -0.12196,-0.468056 z m -0.51402,-3.175 c 0.003,-0.582083 0.0571,-0.789055 0.12041,-0.459936 0.0633,0.329118 0.0609,0.805368 -0.005,1.058333 -0.0662,0.252965 -0.118,-0.01631 -0.11506,-0.598397 z M 91.099733,84.365322 c 0.0054,-0.436563 0.06469,-0.583125 0.131773,-0.325694 0.06708,0.257431 0.06267,0.614619 -0.0098,0.79375 -0.07249,0.179132 -0.127375,-0.03149 -0.121983,-0.468056 z M 66.468275,82.006121 c -0.0145,-1.588602 0.02469,-2.837306 0.0871,-2.774898 0.219281,0.219281 0.33228,4.347853 0.1369,5.001808 -0.118261,0.395831 -0.208213,-0.498449 -0.223996,-2.22691 z m 34.038735,0.712595 c 0.47294,-0.05869 1.24685,-0.05869 1.71979,0 0.47294,0.05869 0.086,0.106712 -0.8599,0.106712 -0.94588,0 -1.33284,-0.04802 -0.85989,-0.106712 z M 68.244376,82.464788 c 0.190996,-0.07643 0.419199,-0.06703 0.507118,0.02089 0.08792,0.08792 -0.06835,0.150453 -0.347266,0.138965 -0.308224,-0.0127 -0.370919,-0.07539 -0.159852,-0.159853 z m 21.94388,0.0055 c 0.181901,-0.0734 0.479558,-0.0734 0.661459,0 0.181901,0.0734 0.03307,0.133452 -0.330729,0.133452 -0.363802,0 -0.512631,-0.06005 -0.33073,-0.133452 z m 22.357294,-0.0072 c 0.25466,-0.06655 0.67138,-0.06655 0.92604,0 0.25466,0.06655 0.0463,0.121 -0.46302,0.121 -0.50932,0 -0.71768,-0.05445 -0.46302,-0.121 z m -20.753257,-0.26294 c 0.190995,-0.07643 0.419198,-0.06703 0.507119,0.02089 0.08792,0.08792 -0.06835,0.150453 -0.347266,0.138964 -0.308226,-0.01269 -0.370919,-0.07539 -0.159853,-0.159852 z m 7.127214,-0.006 c 0.327422,-0.06306 0.863203,-0.06306 1.190623,0 0.32742,0.06306 0.0595,0.114663 -0.595311,0.114663 -0.654844,0 -0.922734,-0.0516 -0.595312,-0.114663 z M 81.933062,81.785631 c -0.277763,-0.894938 -0.346275,-3.239881 -0.16427,-5.622396 l 0.202121,-2.645833 0.0407,4.152691 0.0407,4.152691 1.256771,0.0991 1.25677,0.0991 -1.265074,0.04769 c -0.816542,0.03078 -1.301469,-0.06957 -1.367724,-0.283039 z m 31.803108,0.155501 c 0.1819,-0.0734 0.47956,-0.0734 0.66146,0 0.1819,0.0734 0.0331,0.133452 -0.33073,0.133452 -0.3638,0 -0.51263,-0.06005 -0.33073,-0.133452 z M 97.662736,80.809063 c 0,-0.136933 0.1177,-0.321711 0.261554,-0.410617 0.149981,-0.09269 0.194336,0.01351 0.103984,0.248968 -0.175893,0.458369 -0.365538,0.542234 -0.365538,0.161649 z M 79.427373,79.845358 c 0.01269,-0.308225 0.07539,-0.37092 0.159853,-0.159853 0.07643,0.190996 0.06703,0.419199 -0.02089,0.507118 -0.08792,0.08792 -0.150453,-0.06835 -0.138963,-0.347265 z m 20.511576,0.110243 c 0.07494,-0.121268 0.248301,-0.220486 0.385231,-0.220486 0.13694,0 0.24897,0.09922 0.24897,0.220486 0,0.121267 -0.17336,0.220486 -0.38523,0.220486 -0.211884,0 -0.32392,-0.09922 -0.248971,-0.220486 z M 71.520565,79.33824 c 0.0054,-0.436563 0.06469,-0.583125 0.131774,-0.325694 0.06708,0.257431 0.06267,0.614618 -0.0098,0.79375 -0.07248,0.179131 -0.127363,-0.03149 -0.121971,-0.468056 z m 5.072138,-1.852084 c 6.87e-4,-1.455208 0.04512,-2.016764 0.09874,-1.247901 0.05362,0.768862 0.05305,1.959487 -0.0012,2.645833 -0.05431,0.686346 -0.09818,0.05728 -0.09749,-1.397932 z m 13.661699,1.234722 c 0,-0.121267 0.173358,-0.220486 0.385236,-0.220486 0.211881,0 0.323916,0.09922 0.248968,0.220486 -0.07495,0.121268 -0.248304,0.220487 -0.385236,0.220487 -0.136933,0 -0.248968,-0.09922 -0.248968,-0.220487 z M 80.150626,77.437707 c 0.190996,-0.07643 0.419199,-0.06703 0.507118,0.02089 0.08792,0.08792 -0.06835,0.150453 -0.347266,0.138965 -0.308224,-0.01269 -0.370919,-0.07539 -0.159852,-0.159853 z m 9.329576,-2.309246 c -0.211801,-0.255205 -0.222051,-0.427568 -0.0324,-0.544781 0.152588,-0.0943 0.286541,-0.13467 0.297675,-0.0897 0.118769,0.479682 0.182192,1.007802 0.121034,1.007802 -0.04207,0 -0.215906,-0.167994 -0.386311,-0.37332 z M 76.496068,72.210104 c 0,-0.209693 0.107959,-0.447982 0.239909,-0.529531 0.13195,-0.08155 0.177595,0.09002 0.101433,0.38126 -0.161558,0.617798 -0.341342,0.695893 -0.341342,0.148271 z m 3.125391,-0.857813 c 0.190996,-0.07643 0.419199,-0.06703 0.507118,0.02089 0.08792,0.08792 -0.06835,0.150453 -0.347265,0.138965 -0.308225,-0.0127 -0.37092,-0.07539 -0.159853,-0.159853 z m 12.458277,-0.956678 c 0.123225,-0.123224 0.626139,-0.18264 1.117584,-0.132035 0.871543,0.08975 0.866029,0.09526 -0.224043,0.224045 -0.614673,0.07262 -1.016765,0.03122 -0.893541,-0.09201 z m -6.918563,-0.09614 c 0.181901,-0.0734 0.479557,-0.0734 0.661458,0 0.181901,0.0734 0.03307,0.133452 -0.330729,0.133452 -0.363802,0 -0.51263,-0.06005 -0.330729,-0.133452 z M 73.006876,70.029374 c 0.190996,-0.07643 0.419199,-0.06703 0.507118,0.02089 0.08792,0.08792 -0.06835,0.150453 -0.347266,0.138964 -0.308224,-0.0127 -0.370919,-0.07539 -0.159852,-0.159852 z m 1.30638,0.0055 c 0.181901,-0.0734 0.479557,-0.0734 0.661458,0 0.181901,0.0734 0.03307,0.133452 -0.330729,0.133452 -0.363802,0 -0.51263,-0.06005 -0.330729,-0.133452 z m 30.431824,-0.01652 c 0.47555,-0.05889 1.18992,-0.05767 1.5875,0.0027 0.39758,0.06037 0.008,0.10855 -0.86464,0.107065 -0.87312,-0.0015 -1.19841,-0.05088 -0.72286,-0.109765 z M 83.974186,69.75567 c 0.402183,-0.06082 0.997496,-0.05919 1.322917,0.0036 0.32542,0.0628 -0.0036,0.11256 -0.731243,0.110574 -0.727604,-0.002 -0.993857,-0.05337 -0.591674,-0.114186 z m 9.785946,0.0075 c 0.254661,-0.06655 0.67138,-0.06655 0.926041,0 0.254662,0.06655 0.0463,0.121 -0.463021,0.121 -0.509323,0 -0.717682,-0.05445 -0.46302,-0.121 z M 68.757006,69.49422 c 0.327422,-0.06306 0.863203,-0.06306 1.190625,0 0.327422,0.06306 0.05953,0.114663 -0.595313,0.114663 -0.654844,0 -0.922734,-0.0516 -0.595312,-0.114663 z m 5.027083,0.0115 c 0.181901,-0.0734 0.479558,-0.0734 0.661459,0 0.181901,0.0734 0.03307,0.133452 -0.33073,0.133452 -0.363802,0 -0.51263,-0.06005 -0.330729,-0.133452 z m 32.560291,-0.0055 c 0.19099,-0.07643 0.41919,-0.06703 0.50712,0.02089 0.0879,0.08792 -0.0684,0.150453 -0.34727,0.138965 -0.30823,-0.0127 -0.37092,-0.07539 -0.15985,-0.159853 z m 11.75266,-2.729674 c 0,-0.509323 0.0544,-0.717682 0.121,-0.463021 0.0665,0.254662 0.0665,0.67138 0,0.926042 -0.0666,0.254661 -0.121,0.0463 -0.121,-0.463021 z M 81.888125,66.670142 c 0.03337,-0.227404 0.13457,-0.487349 0.224877,-0.577655 0.09031,-0.09031 0.136886,0.02186 0.103511,0.249267 -0.03338,0.227403 -0.134571,0.487348 -0.224878,0.577655 -0.09031,0.09031 -0.136886,-0.02186 -0.10351,-0.249267 z M 78.877319,66.14147 c 0,-0.05494 0.208359,-0.263302 0.46302,-0.463021 0.419644,-0.329108 0.429003,-0.319749 0.0999,0.0999 -0.345643,0.440729 -0.562915,0.580887 -0.562915,0.363126 z M 65.933623,65.293274 c 0.0127,-0.308224 0.07539,-0.370919 0.159852,-0.159852 0.07643,0.190996 0.06703,0.419199 -0.02089,0.507118 -0.08792,0.08792 -0.150453,-0.06835 -0.138965,-0.347266 z m 25.180675,-1.35096 c 0.254662,-0.06655 0.67138,-0.06655 0.926042,0 0.254661,0.06655 0.0463,0.121 -0.463021,0.121 -0.509323,0 -0.717682,-0.05445 -0.463021,-0.121 z"
           id="path886"
           sodipodi:nodetypes="ssssscssccsscscsssccccccssccssccscsscccccsscssscsssscssssscsscsscscscscccsscsssscsssssssssscsccccccsccscsssssssccsssssscsscsssssccsssscssssssssssssssssssssscscccsssssccccccsccccscccccsccsssssscssssssssssssssssssscscccccsccsssssssscssccssscsccsscscccssssssscsssssssssssssscsssssssssssscsssssssscscccccsssscsscssssscssssccscscsccsccccssccssss" /><path
           style="fill:#999999;fill-opacity:1;stroke-width:0.264583"
           d="m 91.437865,123.64436 c -0.09388,-0.1519 -0.02679,-0.44955 0.149072,-0.66146 0.258701,-0.31171 0.233579,-0.38529 -0.131562,-0.38529 -0.721021,0 -0.306538,-0.65288 0.473078,-0.74517 0.803886,-0.0952 0.87712,0.12025 0.314126,0.92404 -0.326585,0.46627 -0.332038,0.58461 -0.03224,0.69965 0.198456,0.0762 0.4944,0.005 0.657654,-0.15836 0.219379,-0.21938 0.296825,-0.17946 0.296825,0.15297 0,0.32137 -0.222163,0.44979 -0.778134,0.44979 -0.427974,0 -0.854943,-0.12428 -0.948819,-0.27617 z m 28.188775,-1.10396 c -0.65778,-0.70604 -0.65792,-0.7705 -0.003,-1.60248 0.62404,-0.79335 0.65062,-1.20019 0.12387,-1.8966 -0.50477,-0.66738 -0.49727,-1.84486 0.0145,-2.26957 0.33405,-0.27723 0.3763,-0.26501 0.24716,0.0715 -0.0932,0.24293 0.27867,0.97507 0.92617,1.82336 0.90279,1.18276 1.06995,1.5892 1.0096,2.45479 -0.0599,0.85969 -0.21899,1.11898 -0.92873,1.51403 -0.84037,0.46775 -0.8664,0.46597 -1.38907,-0.0951 z m 1.58401,-1.08284 c 0,-0.19047 -0.16042,-0.56569 -0.35649,-0.83383 -0.46651,-0.638 -0.83662,-0.0952 -0.44018,0.6455 0.32226,0.60215 0.79667,0.7143 0.79667,0.18833 z m -57.838403,0.76837 c -0.07845,-0.20443 -0.104475,-0.76998 -0.05784,-1.25677 0.07511,-0.78411 0.182888,-0.89455 0.944684,-0.968 0.995003,-0.0959 1.237725,0.58385 0.296365,0.83002 -0.381424,0.0998 -0.509675,0.28072 -0.396875,0.56002 0.09166,0.22697 0.238925,0.59126 0.327255,0.80954 -0.0039,0.69479 -0.835936,0.36999 -1.113589,0.0252 z m 12.707813,-0.66129 c -0.0586,-0.0588 -2.210863,-0.14751 -4.782814,-0.1971 -2.57195,-0.0496 -4.746332,-0.1604 -4.831955,-0.24624 -0.133113,-0.13345 -0.13325,-10.2801 -0.06552,-19.88148 0.05963,-8.452711 0.171851,-16.482811 0.29225,-16.886031 0.152751,-0.51157 0.241433,1.265008 0.256306,5.134621 l 0.02274,5.916835 1.837881,-0.103849 c 1.010835,-0.05712 1.923741,-0.189709 2.028681,-0.294648 0.10494,-0.104941 0.246765,-3.007516 0.315167,-6.450167 l 0.124367,-6.259366 -2.28534,0.161279 -2.285339,0.161278 0.03603,-0.847016 c 0.02647,-0.622317 0.06645,-0.68909 0.150694,-0.251704 0.107413,0.557678 0.247312,0.595313 2.212927,0.595313 h 2.098265 v -2.129404 -2.129403 l -0.933497,0.906601 c -0.513424,0.498631 -1.517059,1.149118 -2.2303,1.445528 l -1.296803,0.538927 -0.1665,-1.631229 c -0.09158,-0.897176 -0.129737,-3.417166 -0.0848,-5.599979 l 0.08169,-3.96875 2.248959,-0.01508 c 1.236927,-0.0083 2.36802,-0.05901 2.513541,-0.112703 0.145521,-0.05369 1.187957,-0.0031 2.316525,0.112441 1.452683,0.148718 2.160551,0.119928 2.42384,-0.09858 0.254404,-0.211136 0.426071,-0.220999 0.543362,-0.03122 0.0943,0.152587 0.893388,0.277431 1.775744,0.277431 1.489832,0 1.578376,-0.03303 1.241156,-0.463021 -0.315703,-0.402551 -0.311295,-0.423924 0.03375,-0.163655 0.218281,0.164651 1.468437,0.449339 2.778125,0.632639 1.91718,0.268323 5.515046,0.267166 18.461489,-0.0059 8.84412,-0.186567 16.16647,-0.252524 16.27187,-0.146571 0.19592,0.196942 0.10114,24.266224 -0.0963,24.466167 -0.0599,0.06063 -0.10992,-1.903899 -0.11119,-4.365626 -0.001,-2.461727 -0.0767,-5.095261 -0.16765,-5.852298 l -0.16535,-1.37643 -7.70371,0.130574 c -4.23703,0.07182 -8.30557,0.19086 -9.041181,0.264544 l -1.33748,0.133971 -0.299146,1.746404 c -0.450469,2.629814 -1.707443,4.924427 -3.953224,7.216633 l -1.936732,1.976765 0.536695,0.536777 c 0.523142,0.523218 0.83385,0.536776 12.302848,0.536776 h 11.76615 l -0.0472,1.455208 c -0.0456,1.408351 -0.0503,1.41687 -0.14409,0.264583 l -0.0969,-1.190625 -11.51148,-0.04333 c -6.331318,-0.02384 -11.475221,0.04683 -11.430895,0.157019 0.04432,0.110197 2.342777,3.281847 5.107673,7.048111 6.064702,8.26118 9.895082,12.33039 14.500082,15.40419 1.57213,1.04939 3.06041,1.91062 3.3073,1.91386 0.24688,0.003 0.74653,0.23871 1.11033,0.52328 l 0.66146,0.5174 -1.05834,0.01 c -0.58208,0.005 -3.08239,0.13283 -5.55625,0.28341 -4.00895,0.24403 -22.502304,0.047 -20.835937,-0.22197 l 0.595313,-0.0961 v -9.75176 -9.75176 L 90.21485,99.399837 c -2.618739,-3.978545 -2.703904,-4.05647 -4.414451,-4.039071 -2.084148,0.02119 -3.771023,0.365517 -3.136403,0.640191 0.442696,0.191606 0.427225,0.26193 -0.202142,0.918848 -0.710261,0.741365 -0.659809,1.07156 0.163729,1.07156 0.609413,0 0.616631,0.232735 0.02205,0.710903 -0.413021,0.332153 -0.363021,0.353722 0.463021,0.199732 1.288295,-0.240165 0.728828,0.302717 -0.809057,0.785077 -0.646425,0.20275 -0.966958,0.380403 -0.712297,0.394793 0.574082,0.0324 0.584404,0.24724 0.04075,0.84798 -0.340447,0.37619 -0.543152,0.41153 -1.046059,0.18239 -0.594656,-0.27094 -0.605166,-0.32021 -0.225088,-1.0552 0.281102,-0.543594 0.346005,-1.122351 0.220053,-1.96226 -0.154013,-1.027033 -0.09212,-1.285391 0.448926,-1.873988 l 0.627569,-0.682721 -2.493699,0.181317 c -1.371535,0.09972 -2.591926,0.242022 -2.71198,0.316219 -0.120054,0.0742 -0.21828,3.767392 -0.21828,8.207093 v 8.0722 l 0.727604,-0.51263 c 2.556444,-1.80114 5.223898,-2.18697 6.960669,-1.0068 1.47892,1.00495 2.431008,2.58784 2.52634,4.20016 l 0.08185,1.38428 -0.225716,-1.2163 c -0.661393,-3.564 -3.286804,-5.34299 -6.454093,-4.37331 -1.710518,0.52368 -2.943861,1.40639 -3.602553,2.57838 -1.959614,3.48666 1.871082,8.43661 5.725721,7.39867 1.171966,-0.31558 3.39228,-2.11113 3.662208,-2.9616 0.09421,-0.29682 0.228728,-0.48224 0.298931,-0.41204 0.276961,0.27696 -0.756627,1.76873 -1.954994,2.82162 l -1.263673,1.11028 0.937006,-0.057 1.444244,-0.0878 c 1.309688,-0.0796 2.8575,-0.0473 3.439584,0.0718 0.696896,0.14257 -1.230895,0.25108 -5.644839,0.31772 -3.686744,0.0556 -6.751114,0.0531 -6.809712,-0.006 z m -6.483508,-1.56314 c 0.533719,-0.42997 1.099768,-1.21274 1.298134,-1.79513 0.499981,-1.46793 0.294529,-4.14306 -0.388976,-5.06476 -0.646646,-0.87199 -2.376747,-1.91065 -3.192723,-1.91673 -0.581831,-0.004 -0.584107,0.015 -0.580028,4.92258 l 0.0041,4.92693 0.956553,-0.15523 c 0.526104,-0.0854 1.382429,-0.49832 1.902945,-0.91766 z m 1.872433,0.69111 c 0,-0.24694 0.07056,-0.24694 0.3175,0 0.40295,0.40295 4.080689,0.42834 4.326957,0.0299 0.128011,-0.20713 0.258279,-0.20713 0.465406,0 0.1582,0.1582 0.698667,0.28763 1.201037,0.28763 h 0.9134 l -1.472752,-1.54402 c -1.757146,-1.84219 -2.01928,-2.89363 -1.55312,-6.22972 0.166928,-1.19462 0.300014,-5.51204 0.299826,-9.72659 -3.17e-4,-6.844271 0.04259,-7.594942 0.442816,-7.748522 0.243735,-0.09353 2.952407,-0.336182 6.019271,-0.539229 4.558626,-0.30181 5.968122,-0.49331 7.7244,-1.04948 2.022649,-0.640522 2.263404,-0.800801 4.116763,-2.740689 2.52145,-2.639176 3.414699,-4.641727 3.597971,-8.066212 0.143192,-2.675575 -0.398412,-4.599813 -1.960753,-6.966233 -2.058657,-3.118172 -4.88414,-5.047308 -8.476872,-5.787698 -1.441309,-0.297024 -8.878417,-0.597299 -10.934767,-0.441493 -0.218281,0.01654 -1.973653,-0.01874 -3.900827,-0.0784 l -3.503953,-0.108473 1.297641,1.263941 c 1.720307,1.675631 1.938104,2.517271 1.461508,5.647752 -0.281922,1.851789 -0.382067,6.061801 -0.413714,17.392157 -0.02808,10.053329 -0.116431,14.255769 -0.269787,12.832289 -0.125418,-1.16417 -0.156421,-3.4582 -0.0689,-5.09785 0.08753,-1.63965 0.07893,-3.782768 -0.0191,-4.762493 l -0.178244,-1.781321 -2.077302,0.08567 -2.077301,0.08567 0.117985,0.840372 c 0.06489,0.462203 0.02622,3.830092 -0.08595,7.484212 l -0.203934,6.64384 1.190625,0.3161 c 0.716731,0.19028 1.585537,0.70023 2.182813,1.28121 l 0.992187,0.96511 0.0389,-1.97193 0.0389,-1.97192 0.196968,1.5875 c 0.312266,2.51677 0.287123,7.24701 -0.04193,7.88874 -0.162982,0.31786 -0.662588,0.96488 -1.110236,1.43782 l -0.813904,0.85989 h 1.110236 c 0.687128,0 1.110236,-0.12099 1.110236,-0.3175 z m 4.825835,-37.848641 0.06896,-11.44323 1.5875,-0.0306 1.5875,-0.0306 -1.435025,0.162892 -1.435025,0.162893 -0.110647,5.225521 -0.110648,5.225521 1.942548,-0.0036 c 2.88511,-0.0054 3.125541,-0.112688 3.172911,-1.416308 l 0.03974,-1.093622 0.158699,1.190625 0.158699,1.190625 4.6522,0.06699 c 4.496097,0.06475 4.650902,0.04939 4.613551,-0.457631 -0.02127,-0.288544 -0.120452,-0.606426 -0.22043,-0.706404 -0.09998,-0.09998 -0.181779,-0.418513 -0.181779,-0.707855 0,-0.492896 -0.03052,-0.498458 -0.483854,-0.08819 -0.602568,0.545317 -0.944134,0.564159 -0.743381,0.04101 0.215474,-0.561521 -0.09227,-0.492322 -0.810258,0.182192 l -0.616389,0.579068 0.0455,-1.20278 c 0.03207,-0.847833 0.189415,-1.292661 0.533191,-1.507352 0.418706,-0.261486 0.490651,-0.22004 0.508585,0.292984 0.01148,0.328655 0.08094,0.448726 0.154339,0.266825 0.1724,-0.427248 0.798817,-0.427248 0.976728,0 0.165566,0.397606 0.964711,-0.485153 0.964711,-1.06565 0,-0.740764 -1.737895,-2.761309 -3.234799,-3.760903 -1.744501,-1.164932 -4.094098,-2.11876 -5.219219,-2.11876 -0.827861,0 -0.802448,-0.110112 -1.160202,5.027084 -0.0456,0.654844 -0.103716,-0.284427 -0.129139,-2.087269 l -0.04623,-3.277893 1.571991,0.142543 c 3.690145,0.33461 7.920156,3.482733 9.1773,6.830068 0.298106,0.793753 0.448654,2.06515 0.467582,3.948801 0.0249,2.477286 -0.0467,2.935707 -0.661138,4.233333 -0.378979,0.800365 -0.943266,1.752865 -1.253969,2.116667 l -0.564914,0.661458 0.460221,-0.926041 c 0.336418,-0.676935 0.460219,-1.578474 0.460219,-3.351422 0,-1.333959 -0.05953,-2.48131 -0.132292,-2.549669 -0.07276,-0.06836 -1.322916,-0.04312 -2.778125,0.05609 -1.455208,0.09921 -2.685521,0.0857 -2.734028,-0.03002 -0.04851,-0.115718 -0.91171,-0.210397 -1.918229,-0.210397 H 81.78774 v 5.537848 5.537848 l 0.595313,0.09281 c 0.691684,0.107834 -3.731263,0.737746 -5.180105,0.737746 h -0.977079 z m 4.867843,10.731196 c 0.297835,-0.11429 0.360047,-1.177661 0.331575,-5.667451 l -0.03505,-5.526766 h -2.48156 -2.481561 v 5.854998 5.854997 l 2.149986,-0.187544 c 1.182492,-0.103151 2.314967,-0.250857 2.51661,-0.328234 z M 92.476381,83.637719 C 92.639439,82.754863 92.6,82.645531 92.118474,82.645531 c -0.500851,0 -0.539208,0.15272 -0.514996,2.050521 0.02609,2.044259 0.02717,2.047289 0.357905,0.992188 0.182462,-0.582084 0.41421,-1.504818 0.514998,-2.050521 z m 0.03097,-1.52781 c 0.09213,-0.149071 0.08845,-0.631011 -0.0082,-1.070978 -0.142994,-0.651053 -0.245131,-0.742311 -0.54877,-0.490314 -0.500052,0.414997 -0.49372,1.832331 0.0082,1.832331 0.209693,0 0.456642,-0.121968 0.548773,-0.271039 z m -0.419463,-2.705524 c -0.01023,-0.181901 -0.12092,-0.568854 -0.245986,-0.859896 -0.190555,-0.443446 -0.230404,-0.38987 -0.245985,0.33073 -0.01023,0.472942 0.100464,0.859896 0.245985,0.859896 0.145521,0 0.256215,-0.148829 0.245986,-0.33073 z m -7.999329,13.72774 c 1.354595,-0.449215 4.462752,-2.1243 5.388627,-2.904106 0.372896,-0.314066 0.154276,-0.07931 -0.48582,0.521681 -1.351015,1.268479 -3.442172,2.36184 -4.954672,2.590554 L 82.97836,93.50029 Z m 6.696806,-1.091721 c -0.26494,-0.319236 -0.275492,-0.49576 -0.0435,-0.727752 0.168458,-0.168458 0.306287,-0.565688 0.306287,-0.88273 0,-0.679324 1.267497,-1.315208 2.157606,-1.082439 0.315579,0.08253 0.792655,0.03291 1.06017,-0.110261 0.627141,-0.335636 0.628766,0.07662 0.0026,0.643344 -0.539847,0.488555 -1.512784,0.581559 -1.767771,0.168983 -0.0914,-0.147895 -0.285977,-0.194865 -0.432387,-0.104379 -0.156081,0.09646 -0.01537,0.431521 0.340156,0.809957 0.475171,0.505793 0.545256,0.74304 0.32394,1.096566 -0.377806,0.603506 -1.511588,0.713396 -1.947037,0.188711 z m 1.321121,-0.383424 c 0,-0.312171 -0.51603,-0.646112 -0.705557,-0.456588 -0.189523,0.189526 0.144418,0.705556 0.456589,0.705556 0.136933,0 0.248968,-0.112035 0.248968,-0.248968 z M 79.141902,81.338229 c 0,-0.136932 0.13047,-0.329603 0.289934,-0.428157 0.181343,-0.112076 0.227399,-0.596203 0.122968,-1.292596 -0.21702,-1.447194 0.0133,-1.999028 0.834338,-1.999028 0.494461,0 0.620912,0.105661 0.500859,0.418514 -0.08833,0.230184 -0.162422,0.498074 -0.164651,0.595313 -0.0022,0.09724 -0.09153,0.03942 -0.198437,-0.12849 -0.106912,-0.167908 -0.219019,0.267808 -0.249126,0.968257 -0.04006,0.932149 0.05309,1.314922 0.347499,1.427898 0.221232,0.0849 0.328135,0.274257 0.237563,0.420806 -0.208187,0.336853 -1.720947,0.352222 -1.720947,0.01748 z m 5.921029,-0.753865 c -0.161402,-0.103285 -0.379038,-0.461916 -0.483636,-0.796957 -0.272647,-0.873321 0.912805,-2.064489 1.657791,-1.665784 0.283512,0.151731 0.579759,0.443392 0.658327,0.648135 0.180254,0.469735 -1.434836,2.06907 -1.832482,1.814606 z m 0.859108,-1.519436 c -0.184315,-0.480317 -0.69472,-0.512782 -0.69472,-0.04419 0,0.481663 0.62747,1.080922 0.749255,0.715568 0.05193,-0.155778 0.02738,-0.4579 -0.05454,-0.67138 z m 26.821951,41.813652 c 0,-0.0723 -0.38696,-0.31221 -0.8599,-0.53305 -0.47294,-0.22083 -0.6341,-0.33728 -0.35813,-0.25878 1.11992,0.31859 3.8096,0.59577 4.50016,0.46377 0.70108,-0.13402 0.66003,-0.18193 -0.84478,-0.98593 -3.5834,-1.91459 -8.25886,-5.7671 -10.84719,-8.93794 -0.86185,-1.05581 -3.97342,-5.19388 -6.914587,-9.1957 -2.941172,-4.001825 -5.488647,-7.305727 -5.66106,-7.34201 -0.17241,-0.03628 -1.150279,0.202613 -2.173039,0.530876 l -1.859561,0.596839 4.927511,7.235505 c 2.71013,3.97953 5.7189,8.16659 6.686156,9.30458 2.29863,2.70439 5.54478,5.27624 8.50863,6.74119 2.64159,1.30566 2.76941,1.47305 0.47394,0.62063 -4.32232,-1.6051 -8.741352,-5.90459 -14.450407,-14.05949 l -1.996745,-2.85218 0.01333,9.40161 0.01333,9.40161 H 102.3228 c 5.73166,0 10.42118,-0.0592 10.42118,-0.13153 z M 82.052319,98.492224 c 0,-0.12995 -0.178594,-0.236276 -0.396875,-0.236276 -0.218282,0 -0.396875,0.174858 -0.396875,0.388572 0,0.236694 0.155122,0.329044 0.396875,0.236276 0.218281,-0.08376 0.396875,-0.25862 0.396875,-0.388572 z m 0,-1.752188 c 0,-0.326413 -0.07379,-0.339725 -0.396875,-0.07159 -0.218282,0.181158 -0.396875,0.430125 -0.396875,0.55326 0,0.123134 0.178593,0.15535 0.396875,0.07159 0.218281,-0.08376 0.396875,-0.332729 0.396875,-0.55326 z m 32.477601,-14.783882 2.4474,-0.153757 v -0.713303 -5.250412 -5.963715 l -12.36927,0.195157 c -6.803101,0.107337 -12.45857,0.249303 -12.56771,0.315481 -0.550376,0.333721 -0.148154,1.399929 0.733729,1.944962 0.512694,0.316861 1.475174,1.242707 2.138847,2.057435 1.802024,2.212174 2.678785,4.084515 3.375517,7.208489 l 0.149596,0.670752 6.822251,-0.07867 c 3.75223,-0.04327 7.92358,-0.147856 9.26964,-0.232423 z M 99.037302,79.557359 c 0.08817,-1.351496 0.742101,-1.978428 0.742101,-0.711463 v 0.742378 l 0.422427,-0.603092 c 0.26802,-0.382662 0.63067,-0.571118 0.99218,-0.515611 0.58276,0.08948 0.62038,0.234549 0.28467,1.097886 -0.1716,0.441307 -0.12909,0.460123 0.39993,0.177001 0.90265,-0.483086 0.94325,-0.139399 0.058,0.49096 -0.98074,0.698347 -1.36345,0.706449 -1.36345,0.02886 0,-0.291041 -0.11487,-0.529166 -0.25527,-0.529166 -0.1404,0 -0.382717,0.238125 -0.538477,0.529166 -0.490072,0.915706 -0.827022,0.59473 -0.742101,-0.706922 z m -30.081859,-0.09846 c 2.379034,-1.440054 3.374061,-3.932892 2.49671,-6.254996 -0.567801,-1.50281 -2.45798,-2.993787 -3.795359,-2.993787 h -0.66347 l -0.0029,5.042306 -0.0029,5.042305 0.587096,-0.177682 c 0.322906,-0.09772 0.944287,-0.393891 1.380849,-0.658146 z m 22.621876,-8.587324 c 0,-0.617361 -0.08819,-0.661459 -1.322917,-0.661459 -1.619247,0 -1.698379,0.352166 -0.198437,0.883105 1.512673,0.535446 1.521354,0.534181 1.521354,-0.221646 z m 25.335221,46.302085 c -0.28818,-3.86919 -0.21153,-14.29945 0.0955,-12.99102 0.13317,0.56754 0.21051,4.31801 0.17186,8.33437 -0.0561,5.83357 -0.1099,6.77026 -0.26733,4.65665 z m -36.183138,-1.68857 c 0,-0.14552 0.119062,-0.33816 0.264583,-0.4281 0.145521,-0.0899 0.264584,-0.0445 0.264584,0.10106 0,0.14552 -0.119063,0.33817 -0.264584,0.42811 -0.145521,0.0899 -0.264583,0.0444 -0.264583,-0.10107 z M 118.76285,98.959129 c 0.1131,-2.940675 0.07,-3.977106 -0.17157,-4.126413 -0.22687,-0.140208 -0.12784,-0.327009 0.33363,-0.629375 0.41967,-0.274981 0.80658,-0.93349 1.0733,-1.82671 0.22937,-0.768199 0.6529,-1.694381 0.94116,-2.058183 0.51501,-0.649992 0.5242,-0.651409 0.52998,-0.08176 0.003,0.318834 0.13073,0.656858 0.28332,0.75116 0.39752,0.245685 -0.21695,0.918102 -0.839,0.918102 -0.38661,0 -0.49677,0.195561 -0.49677,0.881944 0,1.115115 0.16235,1.269957 0.95356,0.90946 0.3499,-0.159425 0.71432,-0.21172 0.80983,-0.116213 0.26431,0.264308 -0.72329,1.235226 -1.25645,1.235226 -0.55341,0 -1.13321,1.76798 -1.73027,5.276063 -0.56122,3.2975 -0.59746,3.20214 -0.43072,-1.133299 z m -55.314156,-1.97443 c -0.906872,-0.94657 -0.89463,-1.364197 0.067,-2.285494 1.292934,-1.238708 1.965241,-0.55004 1.212137,1.241639 -0.139215,0.3312 -0.07184,0.463021 0.236658,0.463021 0.398088,0 0.397924,0.05091 -0.0021,0.661458 -0.545123,0.831964 -0.644421,0.826675 -1.513668,-0.08062 z m 1.020413,-1.885013 c -0.260147,-0.420928 -0.679157,-0.07796 -0.49406,0.404394 0.101801,0.26529 0.245819,0.316236 0.415183,0.146873 0.142623,-0.142624 0.178117,-0.390694 0.07888,-0.551267 z m -2.346736,-7.205468 c -0.335308,-0.187647 -0.44297,-0.623142 -0.44297,-1.791821 0,-1.394373 0.07048,-1.589281 0.727605,-2.012186 0.725127,-0.466668 0.725989,-0.466433 0.253274,0.06905 -0.625904,0.709008 -0.884063,2.330948 -0.45357,2.84966 0.982704,1.184087 2.647691,-0.193785 2.647691,-2.191116 0,-1.15837 -0.0158,-1.181649 -0.502899,-0.740833 -0.53859,0.487417 -0.575927,0.46246 -1.273959,-0.851557 -0.275502,-0.518621 -0.239678,-0.740052 0.237498,-1.467991 0.55369,-0.844662 0.573968,-0.85131 1.381379,-0.452885 0.800788,0.395158 0.820902,0.450995 0.883685,2.453137 0.06097,1.944212 0.02349,2.095197 -0.734353,2.958329 -0.923191,1.051456 -2.066238,1.545973 -2.723381,1.178217 z m 2.232086,-5.589881 c -0.457807,-0.457807 -0.631874,-0.02425 -0.260671,0.649263 0.305654,0.554582 0.351109,0.567594 0.443125,0.126848 0.05639,-0.270119 -0.02571,-0.619369 -0.182454,-0.776111 z m 55.215243,2.99533 c 0.59636,-0.431996 1.20953,-1.019481 1.36262,-1.305522 0.40109,-0.749447 0.34231,-1.759891 -0.12494,-2.14767 -0.46166,-0.383145 -0.52176,-0.346803 -0.77178,0.466662 -0.14861,0.483496 -0.0999,0.561966 0.26249,0.422902 0.38318,-0.147038 0.40266,-0.0917 0.14028,0.39854 -0.34916,0.652425 -0.63009,0.714281 -1.03395,0.227661 -0.20151,-0.24281 -0.20172,-0.892732 -7.9e-4,-2.246949 0.25952,-1.748506 0.35601,-1.950574 1.17234,-2.455098 0.99086,-0.612384 1.44789,-0.512065 1.24265,0.272768 -0.1868,0.714323 -0.83067,1.244788 -0.77862,0.641475 0.0637,-0.738142 -0.54734,-0.706599 -0.7342,0.0379 -0.14723,0.58664 10e-4,0.850682 0.96062,1.706556 l 1.1348,1.012536 -0.5227,0.984247 c -0.49872,0.939221 -2.56519,2.769439 -3.12686,2.769439 -0.14643,0 0.22169,-0.353452 0.81804,-0.785448 z m -1.41989,-15.829492 c -0.48784,-0.408018 -0.51129,-0.543605 -0.21587,-1.247968 0.18229,-0.43462 0.31783,-1.430975 0.3012,-2.214124 -0.032,-1.506173 0.40034,-2.147969 1.44689,-2.147969 0.74688,0 0.82685,0.63454 0.22793,1.808523 l -0.54387,1.066075 0.59155,0.08405 c 0.86968,0.123576 0.90097,1.124798 0.0692,2.215269 -0.78088,1.02378 -1.08889,1.095348 -1.87706,0.436139 z m 1.31274,-1.001492 c 0.28925,-0.753773 0.15189,-1.047427 -0.24469,-0.523103 -0.21365,0.282475 -0.38846,0.609897 -0.38846,0.727604 0,0.37872 0.46727,0.2278 0.63315,-0.204501 z m -0.18521,-3.214471 c -0.0671,-0.257431 -0.12638,-0.110868 -0.13177,0.325694 -0.005,0.436563 0.0495,0.647188 0.12197,0.468056 0.0725,-0.179131 0.0769,-0.536319 0.01,-0.79375 z m -27.964604,2.85681 c 0,-1.515962 -0.025,-1.572804 -0.727605,-1.653646 -0.595524,-0.06852 -0.739375,-0.227809 -0.792453,-0.87747 -0.09266,-1.134124 0.415943,-1.673696 1.436449,-1.523917 l 0.837449,0.122911 0.09463,2.02342 c 0.08417,1.799769 -0.264753,3.478628 -0.722969,3.478628 -0.06902,0 -0.125497,-0.706467 -0.125497,-1.569926 z m 0,-2.943606 c 0,-0.29963 -0.119063,-0.471197 -0.264584,-0.38126 -0.145521,0.08994 -0.264583,0.335089 -0.264583,0.544782 0,0.209693 0.119062,0.38126 0.264583,0.38126 0.145521,0 0.264584,-0.245152 0.264584,-0.544782 z m -9.789584,3.779494 c 0,-0.306707 -0.119063,-0.631234 -0.264583,-0.721171 -0.491009,-0.30346 -0.269153,-1.175432 0.412744,-1.622228 0.561889,-0.368164 0.617652,-0.503477 0.327185,-0.793943 -0.192578,-0.192578 -0.733697,-0.426853 -1.202486,-0.520611 -0.730337,-0.146067 -0.966539,-0.04822 -1.650102,0.683534 -0.888567,0.951214 -0.991776,0.882367 -0.398145,-0.265589 0.813096,-1.572353 2.635572,-1.806493 3.859859,-0.49589 0.953309,1.020521 0.959776,1.237676 0.04001,1.343507 -0.677758,0.07798 -0.727604,0.168243 -0.727604,1.317501 0,0.67858 -0.0893,1.323502 -0.198438,1.43316 -0.10914,0.109658 -0.198437,-0.05156 -0.198437,-0.35827 z m -17.441979,-0.813237 -0.5194,-1.018108 1.175481,-1.153647 c 0.957605,-0.939818 1.177041,-1.057615 1.183895,-0.635538 0.0083,0.509945 0.01503,0.509771 0.42829,-0.01106 0.40716,-0.513142 0.414951,-0.507877 0.257297,0.173857 -0.08942,0.386663 -0.238081,0.899782 -0.330362,1.140263 -0.116524,0.303657 0.0034,0.481995 0.392411,0.583733 l 0.560195,0.146495 -0.571678,0.802848 -0.571679,0.802848 -0.238522,-0.634397 -0.238522,-0.634397 -0.385539,0.727604 c -0.212046,0.400182 -0.438848,0.727604 -0.504003,0.727604 -0.06516,0 -0.352194,-0.458148 -0.637864,-1.018108 z m 1.302395,-1.098559 c 0,-0.291041 -0.119062,-0.529166 -0.264583,-0.529166 -0.145521,0 -0.264584,0.238125 -0.264584,0.529166 0,0.291042 0.119063,0.529167 0.264584,0.529167 0.145521,0 0.264583,-0.238125 0.264583,-0.529167 z"
           id="path888"
           sodipodi:nodetypes="ssscsccssscccscscsccsscscsccscccssssscssscccssscccsscccccccscsssscsccccsscsscssccsccssscsccsscccccscsssscsssssccsscssscssssssscccccccssscsccssscssscsscssssssssscsssscccccsccsscccssscssscscccccccscccccssssscsscssssssccssssscsssssscccssccsscccccsssscsssssssssssssscsscscsssscssssccssssssssscccssssscssscssccsscscsssscscssscccssssssssscssscccccssssscsscccccssssssscccssccccccscsscscccssscsscscscssssssssscssscccsssssscsssssssssssscsscscssscscsscscccssscccsscscccccsccscccsssscsssssssssscsssssscsssscsscscsccccccssccssssss" /></g><path
         id="path9086"
         style="fill:#000000;fill-opacity:1;stroke:#000000;stroke-width:0.264583px;stroke-linecap:butt;stroke-linejoin:miter;stroke-opacity:1"
         d="M 52.154933 136.15366 C 52.136546 136.15841 52.639483 136.18675 54.295371 136.26476 C 58.711072 136.47284 58.984491 141.69079 58.984491 141.69079 L 58.442922 144.68492 L 58.312697 180.89614 C 58.312697 180.89614 57.911916 176.82289 58.290993 180.93077 C 58.684695 185.19714 57.139369 187.18825 53.957924 187.70245 C 52.799675 187.88966 70.050186 188.27809 69.96935 187.88176 C 69.88851 187.48544 66.872579 187.90526 66.111187 187.41099 C 61.920077 184.6901 62.716046 180.54784 62.716046 180.54784 C 62.716046 180.54784 62.946175 163.31238 63.219374 162.90034 C 63.492572 162.4883 63.144471 162.35512 64.737628 162.11486 C 67.856819 161.64446 72.152576 161.1918 74.131886 161.60016 C 74.669316 161.71104 75.041273 162.58054 75.681663 163.46052 C 78.679956 167.58058 83.831553 175.32232 83.831553 175.32232 C 83.831553 175.32232 88.106774 180.47463 88.750116 181.04135 C 91.635159 183.58285 95.143524 185.21939 95.143524 185.21939 C 95.143524 185.21939 98.993316 186.61423 99.53447 186.72163 C 100.07563 186.82904 104.86748 187.28645 104.86748 187.28645 L 96.986822 182.30123 C 96.986822 182.30123 91.100724 176.39608 90.808388 175.89697 C 89.777722 174.13728 85.016493 167.80495 85.016493 167.80495 L 79.212196 160.1248 C 79.212196 160.1248 79.078066 160.09917 79.402366 159.82921 C 80.566335 158.86038 85.179439 155.43112 85.258856 149.1973 C 85.300766 145.90733 83.795275 141.39462 79.158453 138.58865 C 75.919875 136.62883 67.765867 136.19396 67.765867 136.19396 L 53.663885 136.20326 C 53.663885 136.20326 52.185578 136.14574 52.154933 136.15366 z M 67.732794 137.92512 C 68.074123 137.92827 68.430721 137.93537 68.799912 137.94734 C 71.753442 138.04314 74.325567 139.26976 76.984942 141.37918 C 79.644317 143.4886 79.94478 146.39025 79.90156 149.52958 C 79.858335 152.66893 77.440859 155.8947 74.332391 158.39054 C 71.223924 160.88637 66.166121 160.45727 63.640537 160.54596 C 63.536029 160.57237 63.505164 160.583 63.493259 160.58834 L 63.493259 160.59351 C 63.493259 160.59351 63.479777 160.59439 63.493259 160.58834 L 63.700999 138.07137 C 63.700999 138.07137 65.34349 137.9031 67.732794 137.92512 z " /><path
         id="rect350"
         style="fill:#ff0000;stroke:#ff0000;stroke-width:0.3;stroke-linecap:round;stroke-linejoin:round;stroke-dasharray:none;stroke-opacity:1"
         d="M 57.849676 185.01217 C 57.183759 186.55428 55.865348 187.39416 53.957924 187.70245 C 53.562516 187.76636 55.376202 187.85255 57.849676 187.92414 L 57.849676 185.01217 z " /><path
         id="rect909"
         style="fill:#ff0000;stroke:#ff0000;stroke-width:0.3;stroke-linecap:round;stroke-linejoin:round;stroke-dasharray:none;stroke-opacity:1"
         d="M 62.96616 183.41072 L 62.96616 188.02801 C 66.623724 188.07465 70.005144 188.05726 69.96935 187.88176 C 69.88851 187.48544 66.872579 187.90526 66.111187 187.41099 C 64.239036 186.19558 63.363552 184.69746 62.96616 183.41072 z " /><path
         id="rect915"
         style="fill:#ff0000;stroke:#ff0000;stroke-width:0.3;stroke-linecap:round;stroke-linejoin:round;stroke-dasharray:none;stroke-opacity:1"
         d="m 52.154933,136.15366 c -0.01839,0.005 0.484552,0.0331 2.140438,0.1111 3.220741,0.15177 4.234486,2.96266 4.549076,4.47621 v -4.54132 l -5.180562,0.004 c 0,0 -1.478307,-0.0575 -1.508952,-0.0496 z"
         sodipodi:nodetypes="cccccc" /></g></g><metadata
     id="metadata10943"><rdf:RDF><cc:Work
         rdf:about=""><cc:license
           rdf:resource="http://creativecommons.org/licenses/by-nc-sa/4.0/" /><dc:creator><cc:Agent><dc:title>Bruno HENRY</dc:title></cc:Agent></dc:creator><dc:title>R selon Durer</dc:title></cc:Work><cc:License
         rdf:about="http://creativecommons.org/licenses/by-nc-sa/4.0/"><cc:permits
           rdf:resource="http://creativecommons.org/ns#Reproduction" /><cc:permits
           rdf:resource="http://creativecommons.org/ns#Distribution" /><cc:requires
           rdf:resource="http://creativecommons.org/ns#Notice" /><cc:requires
           rdf:resource="http://creativecommons.org/ns#Attribution" /><cc:prohibits
           rdf:resource="http://creativecommons.org/ns#CommercialUse" /><cc:permits
           rdf:resource="http://creativecommons.org/ns#DerivativeWorks" /><cc:requires
           rdf:resource="http://creativecommons.org/ns#ShareAlike" /></cc:License></rdf:RDF></metadata></svg>
