<?xml version="1.0" encoding="UTF-8" standalone="no"?>
<!-- Created with Inkscape (http://www.inkscape.org/) -->

<svg
   width="100mm"
   height="100mm"
   viewBox="0 0 354.33073 354.33071"
   id="svg2"
   version="1.1"
   inkscape:version="1.2.2 (b0a8486541, 2022-12-01)"
   sodipodi:docname="LogoSNT.svg"
   inkscape:export-filename="LogoSNT.png"
   inkscape:export-xdpi="96"
   inkscape:export-ydpi="96"
   xmlns:inkscape="http://www.inkscape.org/namespaces/inkscape"
   xmlns:sodipodi="http://sodipodi.sourceforge.net/DTD/sodipodi-0.dtd"
   xmlns:xlink="http://www.w3.org/1999/xlink"
   xmlns="http://www.w3.org/2000/svg"
   xmlns:svg="http://www.w3.org/2000/svg"
   xmlns:rdf="http://www.w3.org/1999/02/22-rdf-syntax-ns#"
   xmlns:cc="http://creativecommons.org/ns#"
   xmlns:dc="http://purl.org/dc/elements/1.1/">
  <defs
     id="defs4">
    <linearGradient
       inkscape:collect="always"
       id="linearGradient4174">
      <stop
         style="stop-color:#d45500;stop-opacity:1;"
         offset="0"
         id="stop4176" />
      <stop
         style="stop-color:#d45500;stop-opacity:0;"
         offset="1"
         id="stop4178" />
    </linearGradient>
    <radialGradient
       inkscape:collect="always"
       xlink:href="#linearGradient4174"
       id="radialGradient4180"
       cx="177.78687"
       cy="874.57935"
       fx="177.78687"
       fy="874.57935"
       r="178.797"
       gradientTransform="matrix(0.99087435,0,0,0.99087438,-0.00921811,5.5681615)"
       gradientUnits="userSpaceOnUse" />
  </defs>
  <sodipodi:namedview
     id="base"
     pagecolor="#ffffff"
     bordercolor="#666666"
     borderopacity="1.0"
     inkscape:pageopacity="0.0"
     inkscape:pageshadow="2"
     inkscape:zoom="0.98994949"
     inkscape:cx="125.76399"
     inkscape:cy="115.15739"
     inkscape:document-units="px"
     inkscape:current-layer="layer1"
     showgrid="false"
     units="mm"
     inkscape:window-width="1920"
     inkscape:window-height="1016"
     inkscape:window-x="0"
     inkscape:window-y="0"
     inkscape:window-maximized="1"
     inkscape:showpageshadow="0"
     inkscape:pagecheckerboard="0"
     inkscape:deskcolor="#d1d1d1" />
  <metadata
     id="metadata7">
    <rdf:RDF>
      <cc:Work
         rdf:about="">
        <dc:format>image/svg+xml</dc:format>
        <dc:type
           rdf:resource="http://purl.org/dc/dcmitype/StillImage" />
        <cc:license
           rdf:resource="http://creativecommons.org/licenses/by-nc-sa/4.0/" />
        <dc:creator>
          <cc:Agent>
            <dc:title>HENRY Bruno</dc:title>
          </cc:Agent>
        </dc:creator>
      </cc:Work>
      <cc:License
         rdf:about="http://creativecommons.org/licenses/by-nc-sa/4.0/">
        <cc:permits
           rdf:resource="http://creativecommons.org/ns#Reproduction" />
        <cc:permits
           rdf:resource="http://creativecommons.org/ns#Distribution" />
        <cc:requires
           rdf:resource="http://creativecommons.org/ns#Notice" />
        <cc:requires
           rdf:resource="http://creativecommons.org/ns#Attribution" />
        <cc:prohibits
           rdf:resource="http://creativecommons.org/ns#CommercialUse" />
        <cc:permits
           rdf:resource="http://creativecommons.org/ns#DerivativeWorks" />
        <cc:requires
           rdf:resource="http://creativecommons.org/ns#ShareAlike" />
      </cc:License>
    </rdf:RDF>
  </metadata>
  <g
     inkscape:label="Calque 1"
     inkscape:groupmode="layer"
     id="layer1"
     transform="translate(1.0101318,-695.00103)">
    <path
       style="opacity:1;fill:url(#radialGradient4180);fill-opacity:1;stroke:none;stroke-width:1.00227547;stroke-linecap:round;stroke-linejoin:round;stroke-miterlimit:4;stroke-dasharray:none;stroke-dashoffset:0;stroke-opacity:1"
       id="path4167"
       sodipodi:type="arc"
       sodipodi:cx="176.15523"
       sodipodi:cy="872.16113"
       sodipodi:rx="177.16536"
       sodipodi:ry="177.17061"
       sodipodi:start="4.7232798"
       sodipodi:end="4.690328"
       sodipodi:open="true"
       d="M 178.08467,695.00103 A 177.16536,177.17061 0 0 1 353.31996,872.63114 177.16536,177.17061 0 0 1 177.14471,1049.329 177.16536,177.17061 0 0 1 -0.99320607,874.61009 177.16536,177.17061 0 0 1 172.2471,695.03364" />
    <g
       aria-label="SNT "
       transform="matrix(0.93750002,0,0,0.93750002,472.61911,696.13749)"
       id="flowRoot825"
       style="font-size:40px;line-height:1.25;letter-spacing:0px;word-spacing:0px">
      <path
         d="m -493.55159,128.3567 q 0,-1.38667 2.42667,-14.56 0.86667,-5.2 2.77333,-5.2 1.04,0 4.16,2.42667 3.12,2.42666 6.93334,5.54666 3.81333,2.94667 11.61333,5.37334 7.8,2.42666 17.16,2.42666 19.76,0 19.76,-16.98666 0,-10.22667 -10.4,-15.080004 -1.90666,-0.866667 -3.81333,-1.386667 -1.90667,-0.52 -7.45334,-1.733333 -5.54666,-1.213334 -11.61333,-2.773334 -11.09333,-2.773333 -20.45333,-11.786667 -9.18667,-9.186667 -9.18667,-23.573335 0,-6.24 1.38667,-11.613334 1.56,-5.373333 5.54666,-11.266667 4.16,-6.066667 13.17334,-9.533334 9.18666,-3.64 22.53333,-3.64 8.84,0 17.33334,2.253333 8.66666,2.08 13.17333,4.333334 4.50667,2.08 4.85333,3.293333 0.17334,0.346667 0.17334,1.213334 0,2.773333 -3.12,18.200001 -0.69334,1.906667 -1.73334,1.906667 -1.38666,0 -3.64,-2.08 -2.25333,-2.080001 -5.02666,-4.506667 -2.6,-2.426667 -9.01334,-4.506667 -6.41333,-2.08 -14.90667,-2.08 -10.57333,0 -14.73333,4.506666 -4.16,4.333334 -4.16,10.226668 0,4.506667 2.08,7.626667 2.25333,3.12 6.41333,5.026667 4.16,1.733333 8.14667,2.773333 3.98667,1.04 9.53333,2.253334 5.54667,1.04 8.49334,2.08 11.44,3.64 19.76,13.346667 8.49333,9.706668 8.49333,23.920005 0,7.62666 -1.90666,14.04 -1.90667,6.41333 -6.41334,12.13333 -4.50666,5.72 -13.17333,8.84 -8.66667,3.29334 -20.8,3.29334 -10.4,0 -20.97334,-2.77334 -10.57333,-2.77333 -16.46666,-5.72 -5.89334,-3.12 -6.58667,-4.68 -0.34667,-1.38667 -0.34667,-1.56 z"
         style="font-weight:bold;font-size:173.333px;font-family:'CMU Sans Serif';-inkscape-font-specification:'CMU Sans Serif Bold'"
         id="path415" />
      <path
         d="M -380.3649,131.30337 V 26.783362 q 0,-7.8 7.97333,-7.8 h 15.94667 q 5.54667,0 8.14667,2.08 2.6,2.08 5.02666,6.76 l 47.49334,91.000008 V 26.956696 q 0,-2.253334 0.17333,-3.640001 0.34667,-1.386666 2.25334,-2.773333 1.90666,-1.56 5.54666,-1.56 h 5.72 q 7.62667,0 7.62667,7.8 V 131.4767 q 0,7.8 -7.97333,7.8 h -15.77334 q -5.54666,0 -8.32,-2.08 -2.6,-2.25333 -5.02667,-6.76 L -359.0449,39.436696 v 91.866674 q 0,7.97333 -7.97334,7.97333 h -5.72 q -7.62666,0 -7.62666,-7.97333 z"
         style="font-weight:bold;font-size:173.333px;font-family:'CMU Sans Serif';-inkscape-font-specification:'CMU Sans Serif Bold'"
         id="path417" />
      <path
         d="m -251.75144,29.730029 v -1.386667 q 0,-4.68 1.90666,-6.413333 1.90667,-1.906667 6.58667,-1.906667 h 96.37334 q 5.02667,0 6.76,1.906667 1.73333,1.906666 1.73333,6.413333 v 1.386667 q 0,3.986667 -1.56,5.893334 -1.38666,1.906666 -2.94666,2.253333 -1.56,0.173334 -4.68,0.173334 -3.81334,0 -17.50667,-0.173334 -13.69334,-0.346667 -17.50667,-0.346667 V 130.9567 q 0,4.68 -1.73333,6.58667 -1.73334,1.73333 -6.58667,1.73333 h -8.14667 q -4.85333,0 -6.58666,-1.73333 -1.73334,-1.90667 -1.73334,-6.58667 V 37.530029 q -27.56,0.520001 -35.18667,0.520001 -2.42666,0 -3.64,-0.173334 -1.04,-0.173333 -2.6,-0.866667 -1.56,-0.693333 -2.25333,-2.426666 -0.69333,-1.906667 -0.69333,-4.853334 z"
         style="font-weight:bold;font-size:173.333px;font-family:'CMU Sans Serif';-inkscape-font-specification:'CMU Sans Serif Bold'"
         id="path419" />
    </g>
    <g
       aria-label="LVH"
       transform="matrix(0.93750002,0,0,0.93750002,124.05936,700.87257)"
       id="flowRoot863"
       style="font-size:40px;line-height:1.25;letter-spacing:0px;word-spacing:0px">
      <path
         d="m 45.101234,334.96183 v -57.6 q 0,-2.304 0.96,-3.36 0.96,-1.152 3.456,-1.152 h 4.992 q 4.224,0 4.224,4.128 v 52.8 q 3.648,0 9.6,-0.096 6.048,-0.192 10.464,-0.288 4.416,-0.096 4.608,-0.096 4.224,0 4.224,4.416 v 1.056 q 0,1.344 -0.192,2.304 -0.192,0.864 -1.248,1.632 -1.056,0.768 -3.072,0.768 h -33.6 q -1.344,0 -2.208,-0.192 -0.768,-0.288 -1.536,-1.344 -0.672,-1.056 -0.672,-2.976 z"
         style="font-weight:bold;font-size:96px;font-family:'CMU Sans Serif';-inkscape-font-specification:'CMU Sans Serif Bold'"
         id="path422" />
      <path
         d="m 82.925252,275.44183 q 0,-2.592 3.36,-2.592 h 5.28 q 0.672,0 1.248,0.096 0.672,0.096 1.152,0.192 0.48,0.096 0.864,0.48 0.48,0.288 0.768,0.48 0.288,0.096 0.576,0.576 0.384,0.48 0.48,0.672 0.192,0.096 0.48,0.768 0.288,0.672 0.288,0.768 0.096,0.096 0.384,0.864 0.288,0.768 0.288,0.864 l 17.951998,48.864 q 0.96,-3.552 17.76,-48.672 0.672,-1.92 0.96,-2.592 0.384,-0.768 1.152,-1.728 0.768,-0.96 1.824,-1.248 1.152,-0.384 2.88,-0.384 h 4.032 q 3.264,0 3.264,2.592 0,0.576 -0.384,1.728 l -21.12,56.736 q -0.576,1.536 -0.864,2.208 -0.288,0.672 -1.056,1.632 -0.672,0.96 -1.824,1.344 -1.056,0.384 -2.784,0.384 h -8.736 q -1.056,0 -2.016,-0.096 -0.864,-0.192 -1.536,-0.576 -0.576,-0.48 -0.96,-0.672 -0.384,-0.192 -0.864,-0.96 -0.384,-0.864 -0.576,-1.056 -0.096,-0.192 -0.48,-1.248 -0.384,-1.056 -0.384,-1.152 l -21.023998,-56.544 q -0.384,-1.152 -0.384,-1.728 z"
         style="font-weight:bold;font-size:96px;font-family:'CMU Sans Serif';-inkscape-font-specification:'CMU Sans Serif Bold'"
         id="path424" />
      <path
         d="m 159.62923,336.97783 q -0.192,-1.056 -0.192,-1.248 0,-0.288 0,-1.44 v -56.928 q 0,-4.512 4.512,-4.512 h 4.896 q 4.224,0 4.224,4.32 v 23.136 h 31.392 v -23.232 q 0,-4.224 4.224,-4.224 h 4.992 q 1.536,0 2.496,0.48 1.056,0.384 1.344,1.344 0.384,0.864 0.48,1.344 0.096,0.48 0.096,1.344 v 56.928 q 0,0.096 0,0.288 0,1.056 -0.096,1.728 -0.096,0.576 -0.48,1.44 -0.288,0.864 -1.248,1.344 -0.864,0.384 -2.4,0.384 h -4.896 q -4.512,0 -4.512,-4.224 v -25.824 h -31.392 v 25.824 q 0,4.224 -4.416,4.224 h -4.896 q -1.344,0 -2.208,-0.384 -0.864,-0.48 -1.344,-0.768 -0.384,-0.384 -0.576,-1.344 z"
         style="font-weight:bold;font-size:96px;font-family:'CMU Sans Serif';-inkscape-font-specification:'CMU Sans Serif Bold'"
         id="path426" />
    </g>
    <flowRoot
       xml:space="preserve"
       id="flowRoot871"
       style="font-style:normal;font-weight:normal;font-size:12px;line-height:1.25;font-family:sans-serif;letter-spacing:0px;word-spacing:0px;fill:#000000;fill-opacity:1;stroke:none"><flowRegion
         id="flowRegion873"
         style="font-size:12px"><rect
           id="rect875"
           width="147.48227"
           height="63.63961"
           x="288.90363"
           y="348.65833"
           style="font-size:12px" /></flowRegion><flowPara
         id="flowPara877" /></flowRoot>
    <flowRoot
       xml:space="preserve"
       id="flowRoot879"
       style="font-style:normal;font-weight:normal;font-size:40px;line-height:1.25;font-family:sans-serif;letter-spacing:0px;word-spacing:0px;fill:#000000;fill-opacity:1;stroke:none"><flowRegion
         id="flowRegion881"><rect
           id="rect883"
           width="208.09143"
           height="52.527931"
           x="243.44676"
           y="417.34869" /></flowRegion><flowPara
         id="flowPara885" /></flowRoot>
    <g
       aria-label="B. Henry"
       transform="matrix(0.93750002,0,0,0.93750002,782.2369,1127.9777)"
       id="flowRoot887"
       style="font-size:40px;line-height:1.25;letter-spacing:0px;word-spacing:0px">
      <path
         d="m -518.35208,-92.909524 q 0,-0.173333 0.08,-0.213333 0.08,-0.04 0.28,-0.04 0.65333,0 0.82666,-0.09333 0.18667,-0.106666 0.26667,-0.466666 l 1.8,-7.240003 q 0.0533,-0.18666 0.0533,-0.25333 0,-0.14667 -0.18666,-0.18667 -0.18667,-0.04 -0.58667,-0.04 -0.14667,0 -0.21333,0 -0.0533,-0.0133 -0.10667,-0.04 -0.04,-0.04 -0.04,-0.12 0,-0.17333 0.08,-0.21333 0.08,-0.04 0.28,-0.04 h 4.14667 q 1.04,0 1.64,0.53333 0.6,0.52 0.6,1.28 0,0.800003 -0.72,1.533336 -0.72,0.733334 -1.89334,1 0.78667,0.09333 1.32,0.573334 0.53334,0.48 0.53334,1.266666 0,1.08 -1.02667,2 -1.02667,0.92 -2.4,0.92 h -4.4 q -0.13333,0 -0.18667,0 -0.0533,-0.01333 -0.10666,-0.04 -0.04,-0.04 -0.04,-0.12 z m 2.4,-0.546667 q -0.0267,0.106667 -0.0267,0.16 0,0.05333 0.0133,0.08 0.0133,0.02667 0.10667,0.04 0.0933,0.01333 0.29333,0.01333 h 1.65334 q 1.05333,0 1.78666,-0.826667 0.74667,-0.84 0.74667,-1.853333 0,-0.2 -0.04,-0.386667 -0.04,-0.2 -0.16,-0.48 -0.10667,-0.28 -0.4,-0.453333 -0.29333,-0.173333 -0.72,-0.173333 h -2.29333 l -0.93334,3.746666 q 0,0.01333 -0.0267,0.133333 z m 1.04,-4.173333 h 1.76 q 1.08,0 1.81333,-0.786666 0.73333,-0.8 0.73333,-1.70667 0,-0.2 -0.04,-0.38666 -0.04,-0.18667 -0.16,-0.41334 -0.12,-0.24 -0.4,-0.37333 -0.26666,-0.14667 -0.65333,-0.14667 h -1.57333 q -0.34667,0 -0.46667,0.0667 -0.10667,0.0667 -0.18667,0.41333 z"
         style="font-style:italic;font-weight:500;font-size:13.3333px;font-family:'CMU Serif';-inkscape-font-specification:'CMU Serif Medium Italic'"
         id="path474" />
      <path
         d="m -508.3521,-93.322857 q 0,-0.306667 0.25334,-0.573334 0.26666,-0.266666 0.6,-0.266666 0.25333,0 0.41333,0.173333 0.16,0.16 0.16,0.4 0,0.306667 -0.26667,0.573333 -0.25333,0.266667 -0.58666,0.266667 -0.25334,0 -0.41334,-0.16 -0.16,-0.173333 -0.16,-0.413333 z"
         style="font-style:italic;font-weight:500;font-size:13.3333px;font-family:'CMU Serif';-inkscape-font-specification:'CMU Serif Medium Italic'"
         id="path476" />
      <path
         d="m -500.15211,-92.909524 q 0,-0.173333 0.08,-0.213333 0.08,-0.04 0.28,-0.04 0.65333,0 0.82667,-0.09333 0.18666,-0.106666 0.26666,-0.466666 l 1.8,-7.240003 q 0.0533,-0.18666 0.0533,-0.25333 0,-0.14667 -0.18667,-0.18667 -0.18667,-0.04 -0.58667,-0.04 -0.14666,0 -0.21333,0 -0.0533,-0.0133 -0.10667,-0.04 -0.04,-0.04 -0.04,-0.12 0,-0.25333 0.25334,-0.25333 0.25333,0 0.78666,0.0267 0.54667,0.0133 0.81334,0.0133 0.26666,0 0.78666,-0.0133 0.53334,-0.0267 0.78667,-0.0267 0.18667,0 0.18667,0.17333 0,0.16 -0.08,0.2 -0.08,0.04 -0.32,0.04 -0.61334,0 -0.8,0.10667 -0.17334,0.0933 -0.25334,0.42667 l -0.8,3.21333 h 3.65334 l 0.81333,-3.26667 q 0.0533,-0.18666 0.0533,-0.25333 0,-0.14667 -0.18666,-0.18667 -0.18667,-0.04 -0.58667,-0.04 -0.14667,0 -0.21333,0 -0.0533,-0.0133 -0.10667,-0.04 -0.04,-0.04 -0.04,-0.12 0,-0.25333 0.25333,-0.25333 0.25334,0 0.78667,0.0267 0.54667,0.0133 0.81333,0.0133 0.26667,0 0.78667,-0.0133 0.53333,-0.0267 0.78667,-0.0267 0.18666,0 0.18666,0.17333 0,0.16 -0.08,0.2 -0.08,0.04 -0.32,0.04 -0.61333,0 -0.8,0.10667 -0.17333,0.0933 -0.25333,0.42667 l -1.8,7.213329 q -0.0533,0.2 -0.0533,0.306667 0,0.08 0.0267,0.12 0.0267,0.04 0.2,0.08 0.18667,0.02667 0.54667,0.02667 0.16,0 0.21333,0.01333 0.0667,0 0.10667,0.04 0.04,0.04 0.04,0.12 0,0.24 -0.25333,0.24 -0.25334,0 -0.8,-0.01333 -0.53334,-0.02667 -0.8,-0.02667 -0.26667,0 -0.8,0.02667 -0.52,0.01333 -0.77334,0.01333 -0.18666,0 -0.18666,-0.16 0,-0.173333 0.08,-0.213333 0.08,-0.04 0.28,-0.04 0.65333,0 0.82666,-0.09333 0.18667,-0.106666 0.26667,-0.466666 l 0.88,-3.56 h -3.65333 l -0.89334,3.626666 q -0.0533,0.186667 -0.0533,0.266667 0,0.08 0.0267,0.12 0.0267,0.04 0.2,0.08 0.18666,0.02667 0.54666,0.02667 0.16,0 0.21334,0.01333 0.0667,0 0.10666,0.04 0.04,0.04 0.04,0.12 0,0.24 -0.25333,0.24 -0.25333,0 -0.8,-0.01333 -0.53333,-0.02667 -0.8,-0.02667 -0.26667,0 -0.8,0.02667 -0.52,0.01333 -0.77333,0.01333 -0.18667,0 -0.18667,-0.16 z"
         style="font-style:italic;font-weight:500;font-size:13.3333px;font-family:'CMU Serif';-inkscape-font-specification:'CMU Serif Medium Italic'"
         id="path478" />
      <path
         d="m -489.55211,-94.936191 q 0,-1.639999 1.06667,-2.666666 1.06666,-1.04 2.24,-1.04 0.61333,0 0.97333,0.333333 0.37333,0.32 0.37333,0.8 0,0.06667 -0.0133,0.146667 0,0.06667 -0.0533,0.253333 -0.0533,0.186667 -0.16,0.346667 -0.0933,0.16 -0.32,0.346667 -0.21334,0.173333 -0.50667,0.293333 -0.74667,0.293333 -1.93333,0.293333 h -0.52 q -0.22667,0.88 -0.22667,1.466667 0,0.333333 0.0667,0.626666 0.0667,0.293334 0.30666,0.573334 0.24,0.266666 0.64,0.266666 0.22667,0 0.50667,-0.04 0.29333,-0.05333 0.86667,-0.373333 0.58666,-0.333333 1.02666,-0.893333 0.12,-0.146667 0.17334,-0.146667 0.08,0 0.14666,0.08 0.0667,0.08 0.0667,0.133333 0,0.133334 -0.33333,0.48 -0.32,0.346667 -1.01334,0.706667 -0.69333,0.346667 -1.46666,0.346667 -0.90667,0 -1.41334,-0.68 -0.49333,-0.693334 -0.49333,-1.653334 z m 1.22667,-1.186666 h 0.28 q 0.2,0 0.36,0 0.16,-0.01333 0.50666,-0.04 0.36,-0.04 0.62667,-0.133333 0.26667,-0.09333 0.54667,-0.24 0.29333,-0.146667 0.44,-0.4 0.16,-0.266667 0.16,-0.6 0,-0.346667 -0.22667,-0.573334 -0.22667,-0.24 -0.61333,-0.24 -0.0933,0 -0.21334,0.02667 -0.12,0.01333 -0.41333,0.133333 -0.28,0.12 -0.52,0.333334 -0.24,0.213333 -0.50667,0.666666 -0.26666,0.453334 -0.42666,1.066667 z"
         style="font-style:italic;font-weight:500;font-size:13.3333px;font-family:'CMU Serif';-inkscape-font-specification:'CMU Serif Medium Italic'"
         id="path480" />
      <path
         d="m -483.83212,-96.589524 q 0,-0.02667 0.0533,-0.226666 0.0533,-0.213334 0.16,-0.546667 0.10667,-0.333333 0.21333,-0.573333 0.37334,-0.706667 0.96,-0.706667 0.44,0 0.74667,0.293333 0.30667,0.28 0.37333,0.76 0.13334,-0.2 0.32,-0.4 0.2,-0.2 0.64,-0.426666 0.45334,-0.226667 0.94667,-0.226667 0.58667,0 0.98667,0.32 0.4,0.32 0.4,1.066667 0,0.813333 -0.81334,2.973333 -0.24,0.72 -0.24,1 0,0.386666 0.29334,0.386666 0.74666,0 1.24,-1.666666 0.04,-0.16 0.0667,-0.186667 0.04,-0.04 0.16,-0.04 0.2,0 0.2,0.133333 0,0.04 -0.0533,0.24 -0.0533,0.2 -0.18667,0.52 -0.13333,0.306667 -0.32,0.6 -0.18666,0.28 -0.49333,0.493334 -0.29333,0.2 -0.64,0.2 -0.46667,0 -0.74667,-0.306667 -0.26666,-0.306667 -0.26666,-0.76 0,-0.293333 0.21333,-0.853333 0.77333,-2.213333 0.77333,-2.946667 0,-0.88 -0.61333,-0.88 -1.02667,0 -1.8,1.32 -0.22667,0.373334 -0.4,1.08 -0.0267,0.146667 -0.10667,0.44 -0.08,0.28 -0.10666,0.426667 l -0.53334,2.133333 q -0.13333,0.346667 -0.48,0.346667 -0.18666,0 -0.28,-0.106667 -0.0933,-0.106667 -0.0933,-0.24 0,-0.06667 0.04,-0.186667 l 1,-3.999999 q 0.0933,-0.373334 0.0933,-0.68 0,-0.533334 -0.34666,-0.533334 -0.29334,0 -0.50667,0.4 -0.2,0.4 -0.4,1.186667 -0.0533,0.213333 -0.0933,0.266667 -0.0267,0.04 -0.16,0.04 -0.2,0 -0.2,-0.133334 z"
         style="font-style:italic;font-weight:500;font-size:13.3333px;font-family:'CMU Serif';-inkscape-font-specification:'CMU Serif Medium Italic'"
         id="path482" />
      <path
         d="m -476.33878,-96.589524 q 0,-0.02667 0.0533,-0.226666 0.0533,-0.213334 0.16,-0.546667 0.10667,-0.333333 0.21333,-0.573333 0.37334,-0.706667 0.96,-0.706667 0.37334,0 0.68,0.24 0.32,0.226667 0.42667,0.72 0.69333,-0.96 1.61333,-0.96 0.46667,0 0.88,0.2 0.42667,0.186667 0.42667,0.64 0,0.346667 -0.21333,0.533333 -0.21334,0.173334 -0.44,0.173334 -0.24,0 -0.36,-0.133334 -0.10667,-0.133333 -0.10667,-0.293333 0,-0.06667 0.0267,-0.16 0.0267,-0.106667 0.14666,-0.253333 0.12,-0.16 0.33334,-0.226667 -0.26667,-0.186667 -0.70667,-0.186667 -0.32,0 -0.62667,0.186667 -0.29333,0.186667 -0.49333,0.426667 -0.18667,0.226666 -0.34667,0.52 -0.16,0.293333 -0.21333,0.426666 -0.0533,0.133334 -0.08,0.2 l -0.86667,3.493333 q -0.12,0.493334 -0.52,0.493334 -0.18666,0 -0.28,-0.106667 -0.0933,-0.106667 -0.0933,-0.24 0,-0.06667 0.04,-0.186667 l 1,-3.999999 q 0.0933,-0.373334 0.0933,-0.68 0,-0.533334 -0.34666,-0.533334 -0.29334,0 -0.50667,0.4 -0.2,0.4 -0.4,1.186667 -0.0533,0.213333 -0.0933,0.266667 -0.0267,0.04 -0.16,0.04 -0.2,0 -0.2,-0.133334 z"
         style="font-style:italic;font-weight:500;font-size:13.3333px;font-family:'CMU Serif';-inkscape-font-specification:'CMU Serif Medium Italic'"
         id="path484" />
      <path
         d="m -470.72546,-96.589524 q 0,-0.04 0.0533,-0.24 0.0533,-0.2 0.18666,-0.506666 0.14667,-0.32 0.32,-0.6 0.18667,-0.293334 0.49334,-0.493334 0.30666,-0.213333 0.65333,-0.213333 0.44,0 0.72,0.293333 0.29333,0.293334 0.29333,0.786667 0,0.266667 -0.17333,0.72 -0.77333,2.106666 -0.77333,2.92 0,1.026666 0.72,1.026666 0.53333,0 0.92,-0.4 0.4,-0.413333 0.49333,-0.786666 l 0.97333,-3.92 q 0.12,-0.493333 0.52,-0.493333 0.18667,0 0.28,0.106666 0.0933,0.106667 0.0933,0.24 0,0.02667 -0.0267,0.09333 -0.0133,0.05333 -0.0133,0.09333 l -1.30667,5.253333 q -0.26667,1.053333 -1.10667,1.866667 -0.84,0.826666 -1.82666,0.826666 -0.56,0 -0.92,-0.32 -0.36,-0.306666 -0.36,-0.826666 0,-0.333334 0.14666,-0.546667 0.14667,-0.2 0.28,-0.24 0.13334,-0.04 0.25334,-0.04 0.18666,0 0.32,0.106667 0.13333,0.12 0.13333,0.32 0,0.2 -0.14667,0.4 -0.14666,0.2 -0.42666,0.24 -0.10667,0.01333 -0.10667,0.04 0,0.05333 0.0667,0.173333 0.0667,0.133333 0.26666,0.266667 0.2,0.133333 0.49334,0.133333 0.61333,0 1.21333,-0.653333 0.6,-0.64 0.94667,-2.133334 -0.49334,0.493334 -1.2,0.493334 -0.62667,0 -1.06667,-0.373334 -0.42667,-0.373333 -0.42667,-1.173333 0,-0.746667 0.69334,-2.613333 0.32,-0.893333 0.32,-1.2 0,-0.386667 -0.29334,-0.386667 -0.8,0 -1.24,1.68 -0.04,0.146667 -0.08,0.186667 -0.04,0.02667 -0.16,0.02667 -0.2,0 -0.2,-0.133334 z"
         style="font-style:italic;font-weight:500;font-size:13.3333px;font-family:'CMU Serif';-inkscape-font-specification:'CMU Serif Medium Italic'"
         id="path486" />
    </g>
  </g>
</svg>
