<?xml version="1.0" encoding="UTF-8" standalone="no"?>
<!-- Created with Inkscape (http://www.inkscape.org/) -->

<svg
   width="100mm"
   height="100mm"
   viewBox="0 0 354.33073 354.33071"
   id="svg2"
   version="1.1"
   inkscape:version="1.2.2 (b0a8486541, 2022-12-01)"
   sodipodi:docname="Logo_Math_2nde_.svg"
   inkscape:export-filename="Logo_Math_2nde.png"
   inkscape:export-xdpi="96"
   inkscape:export-ydpi="96"
   xmlns:inkscape="http://www.inkscape.org/namespaces/inkscape"
   xmlns:sodipodi="http://sodipodi.sourceforge.net/DTD/sodipodi-0.dtd"
   xmlns:xlink="http://www.w3.org/1999/xlink"
   xmlns="http://www.w3.org/2000/svg"
   xmlns:svg="http://www.w3.org/2000/svg"
   xmlns:rdf="http://www.w3.org/1999/02/22-rdf-syntax-ns#"
   xmlns:cc="http://creativecommons.org/ns#"
   xmlns:dc="http://purl.org/dc/elements/1.1/">
  <defs
     id="defs4">
    <rect
       x="-83.669042"
       y="202.06208"
       width="82.587863"
       height="52.231989"
       id="rect260" />
    <linearGradient
       inkscape:collect="always"
       id="linearGradient4174">
      <stop
         style="stop-color:#006b06;stop-opacity:1;"
         offset="0"
         id="stop4176" />
      <stop
         style="stop-color:#006b07;stop-opacity:0;"
         offset="1"
         id="stop4178" />
    </linearGradient>
    <radialGradient
       inkscape:collect="always"
       xlink:href="#linearGradient4174"
       id="radialGradient4180"
       cx="177.78687"
       cy="874.57935"
       fx="177.78687"
       fy="874.57935"
       r="178.797"
       gradientTransform="matrix(0.99087435,0,0,0.99087438,-0.00921811,5.5681615)"
       gradientUnits="userSpaceOnUse" />
  </defs>
  <sodipodi:namedview
     id="base"
     pagecolor="#ffffff"
     bordercolor="#666666"
     borderopacity="1.0"
     inkscape:pageopacity="0.0"
     inkscape:pageshadow="2"
     inkscape:zoom="5.6"
     inkscape:cx="384.55357"
     inkscape:cy="340.35714"
     inkscape:document-units="px"
     inkscape:current-layer="layer1"
     showgrid="false"
     units="mm"
     inkscape:window-width="1920"
     inkscape:window-height="1016"
     inkscape:window-x="0"
     inkscape:window-y="0"
     inkscape:window-maximized="1"
     inkscape:showpageshadow="0"
     inkscape:pagecheckerboard="0"
     inkscape:deskcolor="#d1d1d1" />
  <metadata
     id="metadata7">
    <rdf:RDF>
      <cc:Work
         rdf:about="">
        <dc:format>image/svg+xml</dc:format>
        <dc:type
           rdf:resource="http://purl.org/dc/dcmitype/StillImage" />
        <cc:license
           rdf:resource="http://creativecommons.org/licenses/by-nc-sa/4.0/" />
        <dc:creator>
          <cc:Agent>
            <dc:title>HENRY Bruno</dc:title>
          </cc:Agent>
        </dc:creator>
      </cc:Work>
      <cc:License
         rdf:about="http://creativecommons.org/licenses/by-nc-sa/4.0/">
        <cc:permits
           rdf:resource="http://creativecommons.org/ns#Reproduction" />
        <cc:permits
           rdf:resource="http://creativecommons.org/ns#Distribution" />
        <cc:requires
           rdf:resource="http://creativecommons.org/ns#Notice" />
        <cc:requires
           rdf:resource="http://creativecommons.org/ns#Attribution" />
        <cc:prohibits
           rdf:resource="http://creativecommons.org/ns#CommercialUse" />
        <cc:permits
           rdf:resource="http://creativecommons.org/ns#DerivativeWorks" />
        <cc:requires
           rdf:resource="http://creativecommons.org/ns#ShareAlike" />
      </cc:License>
    </rdf:RDF>
  </metadata>
  <g
     inkscape:label="Calque 1"
     inkscape:groupmode="layer"
     id="layer1"
     transform="translate(1.0101318,-695.00103)">
    <path
       style="opacity:1;fill:url(#radialGradient4180);fill-opacity:1;stroke:none;stroke-width:1.00227547;stroke-linecap:round;stroke-linejoin:round;stroke-miterlimit:4;stroke-dasharray:none;stroke-dashoffset:0;stroke-opacity:1"
       id="path4167"
       sodipodi:type="arc"
       sodipodi:cx="176.15523"
       sodipodi:cy="872.16113"
       sodipodi:rx="177.16536"
       sodipodi:ry="177.17061"
       sodipodi:start="4.7232798"
       sodipodi:end="4.690328"
       sodipodi:open="true"
       d="M 178.08467,695.00103 A 177.16536,177.17061 0 0 1 353.31996,872.63114 177.16536,177.17061 0 0 1 177.14471,1049.329 177.16536,177.17061 0 0 1 -0.99320607,874.61009 177.16536,177.17061 0 0 1 172.2471,695.03364" />
    <g
       aria-label="Math "
       transform="matrix(0.93750002,0,0,0.93750002,477.75742,673.44089)"
       id="flowRoot825"
       style="font-size:40px;line-height:1.25;letter-spacing:0px;word-spacing:0px">
      <path
         d="M -489.91162,131.94306 V 52.609932 q 0,-5.866651 5.99999,-5.866651 h 10.9333 q 5.46665,0 7.86665,3.733323 1.06666,1.733329 13.59996,32.666584 12.5333,30.799922 14.26663,36.399902 1.33333,-4.79998 26.2666,-65.866494 1.06667,-2.399994 1.6,-3.466658 0.66666,-1.066663 2.53332,-2.26666 2,-1.199997 5.06666,-1.199997 h 11.86663 q 5.99999,0 5.99999,6.133317 v 79.999792 q 0,3.06666 -1.2,4.79999 -1.19999,1.6 -4.93332,1.6 h -4.26665 q -2.26666,0 -3.59999,-0.53333 -1.33333,-0.66667 -1.86667,-2 -0.4,-1.33333 -0.53333,-1.99999 0,-0.8 0,-2.4 V 67.143229 q 0,-0.666665 -0.13333,-1.866662 0,-1.199997 0,-1.866662 -1.33333,6.133317 -25.99994,65.866495 -1.86666,4.53332 -3.86665,5.86665 -2,1.2 -5.46665,1.2 h -2.66666 q -1.73333,0 -2.93333,-0.13333 -1.2,-0.26667 -2.26666,-0.93333 -1.06667,-0.8 -1.73333,-1.33333 -0.53333,-0.53333 -1.46666,-2.4 -0.8,-1.86666 -1.33333,-3.06665 -0.53333,-1.2 -1.73333,-4.26666 -1.2,-3.19999 -2.13333,-5.33332 l -13.86663,-34.266579 q -6.66665,-17.466622 -7.59998,-21.199946 v 69.733155 q 0,6.13332 -5.99999,6.13332 h -4.39998 q -2.26667,0 -3.6,-0.53333 -1.33333,-0.66667 -1.86666,-2 -0.4,-1.33333 -0.53333,-2.13333 0,-0.8 0,-2.66666 z"
         style="font-size:133.333px"
         id="path399" />
      <path
         d="m -368.44517,124.66304 q 0,-4.16 2.45333,-7.25333 2.45333,-3.09333 5.86667,-4.8 3.52,-1.70667 8.21333,-2.66667 4.8,-1.06666 8.21333,-1.38666 3.52,-0.32 7.04,-0.32 v -2.24 q 0,-4.58667 -1.49333,-7.253335 -1.49333,-2.666666 -6.08,-2.666666 -4.16,0 -7.57333,1.173333 -3.41334,1.066666 -5.12,2.453333 -1.6,1.386665 -3.09334,2.560005 -1.38666,1.17333 -2.02666,1.17333 l -0.42667,-0.10667 -0.42667,-0.32 q -0.32,-0.53333 -0.64,-2.56 -0.21333,-2.133332 -0.32,-3.839998 l -0.10666,-1.813333 q 0,-0.533334 0,-0.746667 0.10666,-0.32 0.42666,-0.64 0.32,-0.32 0.42667,-0.426667 0.21333,-0.106666 0.96,-0.426666 0.74667,-0.32 1.17333,-0.533334 7.68,-3.413333 16.74667,-3.413333 12.16,0 17.06667,4.586667 5.01333,4.586666 5.01333,13.226661 v 28.05334 q 0,4.8 -4.8,4.8 h -5.12 q -2.34667,0 -3.41333,-1.28 -0.96,-1.28 -0.96,-2.98667 -7.04,5.44 -16.42667,5.44 -7.14667,0 -11.41333,-4.90667 -4.16,-4.90666 -4.16,-10.88 z m 13.97333,0 q 0,3.09334 2.02667,5.54667 2.02666,2.45333 5.33333,2.45333 3.62667,0 7.04,-2.24 3.41333,-2.34666 3.41333,-7.57333 v -8.32 q -3.30666,0.32 -5.65333,0.74667 -2.34667,0.32 -5.54667,1.38666 -3.2,0.96 -4.90666,3.09334 -1.70667,2.02666 -1.70667,4.90666 z"
         style="font-size:106.667px"
         id="path401" />
      <path
         d="m -313.40522,94.263045 q 0,-3.84 4.69334,-3.84 h 2.56 v -9.173333 q 0,-4.8 5.12,-4.8 h 3.83999 q 4.8,0 4.8,4.8 v 9.173333 h 9.70667 q 1.92,0 3.09333,0.853334 1.17334,0.853333 1.38667,1.6 0.32,0.746666 0.32,1.493333 0,0.746667 -0.32,1.493333 -0.21333,0.746667 -1.38667,1.6 -1.06666,0.746667 -2.88,0.746667 h -9.92 v 21.333328 q 0,0.53334 -0.10666,1.38667 0,0.85333 0,1.38667 0,5.65333 1.06666,7.78666 1.06667,2.02667 3.41334,2.02667 2.98666,0 6.18666,-1.81333 3.2,-1.92 3.41334,-1.92 0.74666,0 1.28,1.49333 0.64,1.49333 0.96,2.98667 l 0.21333,1.38666 q 0,2.02667 -6.72,4.16 -6.61333,2.02667 -12.69333,2.02667 -7.78667,0 -10.13333,-7.68 -0.96,-3.2 -0.96,-9.70667 V 98.209712 h -2.24 q -4.69334,0 -4.69334,-3.946667 z"
         style="font-size:106.667px"
         id="path403" />
      <path
         d="M -266.25862,134.58304 V 67.383046 q 0,-5.12 4.69333,-5.12 h 4.26667 q 1.6,0 2.56,0.213333 0.96,0.213334 1.81333,1.386667 0.96,1.066667 0.96,3.2 v 29.226666 q 7.04,-7.04 16.96,-7.04 3.84,0 6.61333,0.746667 2.88,0.64 4.48,2.133333 1.70667,1.386667 2.66667,2.773333 1.06667,1.28 1.38667,3.733333 0.42666,2.346672 0.53333,3.840002 0.10667,1.38666 0.10667,3.94666 v 28.16 q 0,4.69334 -4.58667,4.69334 h -5.01333 q -2.88,0 -3.94667,-1.17334 -0.96,-1.28 -0.96,-3.52 v -29.86666 q 0,-3.84 -1.17333,-5.760002 -1.17334,-1.92 -5.01334,-1.92 -4.8,0 -7.89333,3.306672 -3.09333,3.2 -3.73333,7.46666 -0.10667,0.53333 -0.10667,3.73333 v 22.4 q 0,1.28 -0.10667,2.02667 -0.10666,0.64 -0.53333,1.6 -0.42667,0.85333 -1.6,1.28 -1.06667,0.42667 -2.77333,0.42667 h -4.69334 q -4.90666,0 -4.90666,-4.69334 z"
         style="font-size:106.667px"
         id="path405" />
    </g>
    <g
       aria-label="LVH"
       transform="matrix(0.93750002,0,0,0.93750002,-22.34371,709.25516)"
       id="flowRoot863"
       style="font-size:40px;line-height:1.25;letter-spacing:0px;word-spacing:0px">
      <path
         d="m 45.101234,334.96183 v -57.6 q 0,-2.304 0.96,-3.36 0.96,-1.152 3.456,-1.152 h 4.992 q 4.224,0 4.224,4.128 v 52.8 q 3.648,0 9.6,-0.096 6.048,-0.192 10.464,-0.288 4.416,-0.096 4.608,-0.096 4.224,0 4.224,4.416 v 1.056 q 0,1.344 -0.192,2.304 -0.192,0.864 -1.248,1.632 -1.056,0.768 -3.072,0.768 h -33.6 q -1.344,0 -2.208,-0.192 -0.768,-0.288 -1.536,-1.344 -0.672,-1.056 -0.672,-2.976 z"
         style="font-weight:bold;font-size:96px;font-family:'CMU Sans Serif';-inkscape-font-specification:'CMU Sans Serif Bold'"
         id="path413" />
      <path
         d="m 82.925252,275.44183 q 0,-2.592 3.36,-2.592 h 5.28 q 0.672,0 1.248,0.096 0.672,0.096 1.152,0.192 0.48,0.096 0.864,0.48 0.48,0.288 0.768,0.48 0.288,0.096 0.576,0.576 0.384,0.48 0.48,0.672 0.192,0.096 0.48,0.768 0.288,0.672 0.288,0.768 0.096,0.096 0.384,0.864 0.288,0.768 0.288,0.864 l 17.951998,48.864 q 0.96,-3.552 17.76,-48.672 0.672,-1.92 0.96,-2.592 0.384,-0.768 1.152,-1.728 0.768,-0.96 1.824,-1.248 1.152,-0.384 2.88,-0.384 h 4.032 q 3.264,0 3.264,2.592 0,0.576 -0.384,1.728 l -21.12,56.736 q -0.576,1.536 -0.864,2.208 -0.288,0.672 -1.056,1.632 -0.672,0.96 -1.824,1.344 -1.056,0.384 -2.784,0.384 h -8.736 q -1.056,0 -2.016,-0.096 -0.864,-0.192 -1.536,-0.576 -0.576,-0.48 -0.96,-0.672 -0.384,-0.192 -0.864,-0.96 -0.384,-0.864 -0.576,-1.056 -0.096,-0.192 -0.48,-1.248 -0.384,-1.056 -0.384,-1.152 l -21.023998,-56.544 q -0.384,-1.152 -0.384,-1.728 z"
         style="font-weight:bold;font-size:96px;font-family:'CMU Sans Serif';-inkscape-font-specification:'CMU Sans Serif Bold'"
         id="path415" />
      <path
         d="m 159.62923,336.97783 q -0.192,-1.056 -0.192,-1.248 0,-0.288 0,-1.44 v -56.928 q 0,-4.512 4.512,-4.512 h 4.896 q 4.224,0 4.224,4.32 v 23.136 h 31.392 v -23.232 q 0,-4.224 4.224,-4.224 h 4.992 q 1.536,0 2.496,0.48 1.056,0.384 1.344,1.344 0.384,0.864 0.48,1.344 0.096,0.48 0.096,1.344 v 56.928 q 0,0.096 0,0.288 0,1.056 -0.096,1.728 -0.096,0.576 -0.48,1.44 -0.288,0.864 -1.248,1.344 -0.864,0.384 -2.4,0.384 h -4.896 q -4.512,0 -4.512,-4.224 v -25.824 h -31.392 v 25.824 q 0,4.224 -4.416,4.224 h -4.896 q -1.344,0 -2.208,-0.384 -0.864,-0.48 -1.344,-0.768 -0.384,-0.384 -0.576,-1.344 z"
         style="font-weight:bold;font-size:96px;font-family:'CMU Sans Serif';-inkscape-font-specification:'CMU Sans Serif Bold'"
         id="path417" />
    </g>
    <flowRoot
       xml:space="preserve"
       id="flowRoot871"
       style="font-style:normal;font-weight:normal;font-size:12px;line-height:1.25;font-family:sans-serif;letter-spacing:0px;word-spacing:0px;fill:#000000;fill-opacity:1;stroke:none"><flowRegion
         id="flowRegion873"
         style="font-size:12px"><rect
           id="rect875"
           width="147.48227"
           height="63.63961"
           x="288.90363"
           y="348.65833"
           style="font-size:12px" /></flowRegion><flowPara
         id="flowPara877" /></flowRoot>
    <flowRoot
       xml:space="preserve"
       id="flowRoot879"
       style="font-style:normal;font-weight:normal;font-size:40px;line-height:1.25;font-family:sans-serif;letter-spacing:0px;word-spacing:0px;fill:#000000;fill-opacity:1;stroke:none"><flowRegion
         id="flowRegion881"><rect
           id="rect883"
           width="208.09143"
           height="52.527931"
           x="243.44676"
           y="417.34869" /></flowRegion><flowPara
         id="flowPara885" /></flowRoot>
    <g
       aria-label="B. Henry"
       transform="matrix(0.93750002,0,0,0.93750002,782.2369,1127.9777)"
       id="flowRoot887"
       style="font-size:40px;line-height:1.25;letter-spacing:0px;word-spacing:0px">
      <path
         d="m -518.35209,-92.909524 q 0,-0.173332 0.08,-0.213332 0.08,-0.04 0.28,-0.04 0.65334,0 0.82667,-0.09333 0.18666,-0.106667 0.26666,-0.466666 l 1.8,-7.239985 q 0.0533,-0.18666 0.0533,-0.25333 0,-0.14667 -0.18666,-0.18667 -0.18667,-0.04 -0.58667,-0.04 -0.14666,0 -0.21333,0 -0.0533,-0.0133 -0.10667,-0.04 -0.04,-0.04 -0.04,-0.11999 0,-0.17334 0.08,-0.21334 0.08,-0.04 0.28,-0.04 h 4.14666 q 1.03999,0 1.63999,0.53333 0.6,0.52 0.6,1.28 0,0.799999 -0.72,1.533331 -0.71999,0.733331 -1.89332,0.999997 0.78666,0.09333 1.31999,0.573332 0.53333,0.479999 0.53333,1.266663 0,1.079998 -1.02666,1.999995 -1.02666,0.919998 -2.39999,0.919998 h -4.39999 q -0.13334,0 -0.18667,0 -0.0533,-0.01333 -0.10667,-0.04 -0.04,-0.04 -0.04,-0.12 z m 2.4,-0.546665 q -0.0267,0.106667 -0.0267,0.16 0,0.05333 0.0133,0.08 0.0133,0.02667 0.10666,0.04 0.0933,0.01333 0.29333,0.01333 h 1.65333 q 1.05333,0 1.78667,-0.826665 0.74666,-0.839998 0.74666,-1.853328 0,-0.2 -0.04,-0.386666 -0.04,-0.2 -0.16,-0.479999 -0.10667,-0.279999 -0.4,-0.453332 -0.29333,-0.173333 -0.72,-0.173333 h -2.29332 l -0.93333,3.746657 q 0,0.01333 -0.0267,0.133333 z m 1.04,-4.173323 h 1.75999 q 1.08,0 1.81333,-0.786664 0.73333,-0.799998 0.73333,-1.706664 0,-0.2 -0.04,-0.38666 -0.04,-0.18667 -0.16,-0.41334 -0.12,-0.24 -0.4,-0.37333 -0.26666,-0.14667 -0.65333,-0.14667 h -1.57333 q -0.34666,0 -0.46666,0.0667 -0.10667,0.0667 -0.18667,0.41333 z"
         style="font-style:italic;font-weight:500;font-size:13.3333px;font-family:'CMU Serif';-inkscape-font-specification:'CMU Serif Medium Italic'"
         id="path474" />
      <path
         d="m -508.35212,-93.322856 q 0,-0.306666 0.25333,-0.573332 0.26667,-0.266666 0.6,-0.266666 0.25333,0 0.41333,0.173333 0.16,0.16 0.16,0.399999 0,0.306666 -0.26667,0.573332 -0.25333,0.266666 -0.58666,0.266666 -0.25333,0 -0.41333,-0.16 -0.16,-0.173332 -0.16,-0.413332 z"
         style="font-style:italic;font-weight:500;font-size:13.3333px;font-family:'CMU Serif';-inkscape-font-specification:'CMU Serif Medium Italic'"
         id="path476" />
      <path
         d="m -500.15216,-92.909524 q 0,-0.173332 0.08,-0.213332 0.08,-0.04 0.28,-0.04 0.65333,0 0.82667,-0.09333 0.18666,-0.106667 0.26666,-0.466666 l 1.8,-7.239985 q 0.0533,-0.18666 0.0533,-0.25333 0,-0.14667 -0.18666,-0.18667 -0.18667,-0.04 -0.58667,-0.04 -0.14667,0 -0.21333,0 -0.0533,-0.0133 -0.10667,-0.04 -0.04,-0.04 -0.04,-0.11999 0,-0.25334 0.25333,-0.25334 0.25334,0 0.78667,0.0267 0.54666,0.0133 0.81333,0.0133 0.26667,0 0.78666,-0.0133 0.53334,-0.0267 0.78667,-0.0267 0.18667,0 0.18667,0.17334 0,0.15999 -0.08,0.19999 -0.08,0.04 -0.32,0.04 -0.61333,0 -0.8,0.10667 -0.17333,0.0933 -0.25333,0.42667 l -0.8,3.213322 h 3.65332 l 0.81333,-3.266662 q 0.0533,-0.18666 0.0533,-0.25333 0,-0.14667 -0.18667,-0.18667 -0.18667,-0.04 -0.58666,-0.04 -0.14667,0 -0.21334,0 -0.0533,-0.0133 -0.10666,-0.04 -0.04,-0.04 -0.04,-0.11999 0,-0.25334 0.25333,-0.25334 0.25333,0 0.78666,0.0267 0.54667,0.0133 0.81333,0.0133 0.26667,0 0.78667,-0.0133 0.53333,-0.0267 0.78666,-0.0267 0.18667,0 0.18667,0.17334 0,0.15999 -0.08,0.19999 -0.08,0.04 -0.32,0.04 -0.61333,0 -0.8,0.10667 -0.17333,0.0933 -0.25333,0.42667 l -1.79999,7.213312 q -0.0533,0.199999 -0.0533,0.306666 0,0.08 0.0267,0.119999 0.0267,0.04 0.2,0.08 0.18666,0.02667 0.54666,0.02667 0.16,0 0.21334,0.01333 0.0667,0 0.10666,0.04 0.04,0.04 0.04,0.12 0,0.239999 -0.25333,0.239999 -0.25333,0 -0.8,-0.01333 -0.53333,-0.02667 -0.8,-0.02667 -0.26666,0 -0.79999,0.02667 -0.52,0.01333 -0.77334,0.01333 -0.18666,0 -0.18666,-0.16 0,-0.173332 0.08,-0.213332 0.08,-0.04 0.28,-0.04 0.65333,0 0.82666,-0.09333 0.18667,-0.106667 0.26667,-0.466666 l 0.88,-3.559991 h -3.65333 l -0.89333,3.626658 q -0.0533,0.186666 -0.0533,0.266666 0,0.08 0.0267,0.119999 0.0267,0.04 0.2,0.08 0.18667,0.02667 0.54667,0.02667 0.16,0 0.21333,0.01333 0.0667,0 0.10667,0.04 0.04,0.04 0.04,0.12 0,0.239999 -0.25333,0.239999 -0.25334,0 -0.8,-0.01333 -0.53333,-0.02667 -0.8,-0.02667 -0.26667,0 -0.8,0.02667 -0.52,0.01333 -0.77333,0.01333 -0.18667,0 -0.18667,-0.16 z"
         style="font-style:italic;font-weight:500;font-size:13.3333px;font-family:'CMU Serif';-inkscape-font-specification:'CMU Serif Medium Italic'"
         id="path478" />
      <path
         d="m -489.55218,-94.936185 q 0,-1.639996 1.06666,-2.66666 1.06666,-1.039997 2.23999,-1.039997 0.61334,0 0.97334,0.333332 0.37333,0.319999 0.37333,0.799998 0,0.06667 -0.0133,0.146666 0,0.06667 -0.0533,0.253333 -0.0533,0.186666 -0.16,0.346666 -0.0933,0.159999 -0.32,0.346666 -0.21333,0.173333 -0.50666,0.293332 -0.74667,0.293333 -1.93333,0.293333 h -0.52 q -0.22667,0.879998 -0.22667,1.466663 0,0.333332 0.0667,0.626665 0.0667,0.293333 0.30667,0.573332 0.24,0.266666 0.63999,0.266666 0.22667,0 0.50667,-0.04 0.29333,-0.05333 0.86666,-0.373332 0.58667,-0.333333 1.02667,-0.893332 0.12,-0.146666 0.17333,-0.146666 0.08,0 0.14667,0.08 0.0667,0.08 0.0667,0.133333 0,0.133333 -0.33333,0.479999 -0.32,0.346666 -1.01333,0.706665 -0.69333,0.346665 -1.46666,0.346665 -0.90667,0 -1.41333,-0.679998 -0.49333,-0.693331 -0.49333,-1.653329 z m 1.22666,-1.186664 h 0.28 q 0.2,0 0.36,0 0.16,-0.01333 0.50666,-0.04 0.36,-0.04 0.62667,-0.133333 0.26666,-0.09333 0.54666,-0.239999 0.29334,-0.146666 0.44,-0.399999 0.16,-0.266666 0.16,-0.599998 0,-0.346666 -0.22666,-0.573332 -0.22667,-0.24 -0.61334,-0.24 -0.0933,0 -0.21333,0.02667 -0.12,0.01333 -0.41333,0.133333 -0.28,0.12 -0.52,0.333332 -0.24,0.213333 -0.50666,0.666665 -0.26667,0.453333 -0.42667,1.066664 z"
         style="font-style:italic;font-weight:500;font-size:13.3333px;font-family:'CMU Serif';-inkscape-font-specification:'CMU Serif Medium Italic'"
         id="path480" />
      <path
         d="m -483.83221,-96.589514 q 0,-0.02667 0.0533,-0.226666 0.0533,-0.213333 0.16,-0.546666 0.10667,-0.333332 0.21334,-0.573331 0.37333,-0.706665 0.95999,-0.706665 0.44,0 0.74667,0.293332 0.30666,0.28 0.37333,0.759998 0.13333,-0.199999 0.32,-0.399999 0.2,-0.199999 0.64,-0.426665 0.45333,-0.226666 0.94666,-0.226666 0.58667,0 0.98667,0.319999 0.4,0.319999 0.4,1.066664 0,0.813331 -0.81334,2.973326 -0.23999,0.719998 -0.23999,0.999997 0,0.386666 0.29333,0.386666 0.74666,0 1.23999,-1.666663 0.04,-0.159999 0.0667,-0.186666 0.04,-0.04 0.16,-0.04 0.2,0 0.2,0.133333 0,0.04 -0.0533,0.24 -0.0533,0.199999 -0.18667,0.519998 -0.13333,0.306666 -0.32,0.599999 -0.18666,0.279999 -0.49333,0.493332 -0.29333,0.199999 -0.64,0.199999 -0.46666,0 -0.74666,-0.306666 -0.26667,-0.306665 -0.26667,-0.759998 0,-0.293332 0.21333,-0.853331 0.77333,-2.213327 0.77333,-2.946659 0,-0.879998 -0.61333,-0.879998 -1.02666,0 -1.79999,1.319997 -0.22667,0.373332 -0.4,1.079997 -0.0267,0.146666 -0.10667,0.439999 -0.08,0.279999 -0.10666,0.426666 l -0.53334,2.133328 q -0.13333,0.346665 -0.48,0.346665 -0.18666,0 -0.27999,-0.106666 -0.0933,-0.106666 -0.0933,-0.239999 0,-0.06667 0.04,-0.186667 l 1,-3.999989 q 0.0933,-0.373333 0.0933,-0.679999 0,-0.533332 -0.34666,-0.533332 -0.29334,0 -0.50667,0.399999 -0.2,0.399999 -0.4,1.186664 -0.0533,0.213333 -0.0933,0.266666 -0.0267,0.04 -0.16,0.04 -0.2,0 -0.2,-0.133333 z"
         style="font-style:italic;font-weight:500;font-size:13.3333px;font-family:'CMU Serif';-inkscape-font-specification:'CMU Serif Medium Italic'"
         id="path482" />
      <path
         d="m -476.33889,-96.589514 q 0,-0.02667 0.0533,-0.226666 0.0533,-0.213333 0.16,-0.546666 0.10667,-0.333332 0.21333,-0.573331 0.37334,-0.706665 0.96,-0.706665 0.37333,0 0.68,0.239999 0.32,0.226666 0.42666,0.719998 0.69334,-0.959997 1.61333,-0.959997 0.46667,0 0.88,0.199999 0.42667,0.186666 0.42667,0.639999 0,0.346665 -0.21334,0.533332 -0.21333,0.173332 -0.43999,0.173332 -0.24,0 -0.36,-0.133333 -0.10667,-0.133333 -0.10667,-0.293332 0,-0.06667 0.0267,-0.16 0.0267,-0.106666 0.14666,-0.253332 0.12,-0.16 0.33334,-0.226667 -0.26667,-0.186666 -0.70667,-0.186666 -0.32,0 -0.62666,0.186666 -0.29334,0.186667 -0.49334,0.426666 -0.18666,0.226666 -0.34666,0.519999 -0.16,0.293332 -0.21334,0.426665 -0.0533,0.133333 -0.08,0.2 l -0.86666,3.493324 q -0.12,0.493332 -0.52,0.493332 -0.18666,0 -0.28,-0.106666 -0.0933,-0.106666 -0.0933,-0.239999 0,-0.06667 0.04,-0.186667 l 1,-3.999989 q 0.0933,-0.373333 0.0933,-0.679999 0,-0.533332 -0.34667,-0.533332 -0.29333,0 -0.50666,0.399999 -0.2,0.399999 -0.4,1.186664 -0.0533,0.213333 -0.0933,0.266666 -0.0267,0.04 -0.16,0.04 -0.2,0 -0.2,-0.133333 z"
         style="font-style:italic;font-weight:500;font-size:13.3333px;font-family:'CMU Serif';-inkscape-font-specification:'CMU Serif Medium Italic'"
         id="path484" />
      <path
         d="m -470.72558,-96.589514 q 0,-0.04 0.0533,-0.24 0.0533,-0.199999 0.18667,-0.506665 0.14666,-0.319999 0.32,-0.599998 0.18666,-0.293333 0.49333,-0.493333 0.30667,-0.213332 0.65333,-0.213332 0.44,0 0.72,0.293332 0.29333,0.293333 0.29333,0.786665 0,0.266666 -0.17333,0.719998 -0.77333,2.106661 -0.77333,2.919993 0,1.026664 0.72,1.026664 0.53333,0 0.91999,-0.399999 0.4,-0.413332 0.49334,-0.786665 l 0.97333,-3.91999 q 0.12,-0.493332 0.52,-0.493332 0.18666,0 0.27999,0.106666 0.0933,0.106667 0.0933,0.24 0,0.02667 -0.0267,0.09333 -0.0133,0.05333 -0.0133,0.09333 l -1.30667,5.25332 q -0.26666,1.053331 -1.10666,1.866662 -0.84,0.826665 -1.82666,0.826665 -0.56,0 -0.92,-0.32 -0.36,-0.306666 -0.36,-0.826664 0,-0.333333 0.14667,-0.546666 0.14666,-0.199999 0.28,-0.239999 0.13333,-0.04 0.25333,-0.04 0.18667,0 0.32,0.106667 0.13333,0.119999 0.13333,0.319999 0,0.199999 -0.14666,0.399999 -0.14667,0.199999 -0.42667,0.239999 -0.10667,0.01333 -0.10667,0.04 0,0.05333 0.0667,0.173333 0.0667,0.133333 0.26667,0.266666 0.2,0.133333 0.49333,0.133333 0.61333,0 1.21333,-0.653332 0.6,-0.639998 0.94666,-2.133328 -0.49333,0.493332 -1.19999,0.493332 -0.62667,0 -1.06667,-0.373332 -0.42666,-0.373332 -0.42666,-1.17333 0,-0.746665 0.69333,-2.613327 0.32,-0.893331 0.32,-1.199997 0,-0.386666 -0.29334,-0.386666 -0.79999,0 -1.23999,1.679996 -0.04,0.146666 -0.08,0.186666 -0.04,0.02667 -0.16,0.02667 -0.2,0 -0.2,-0.133333 z"
         style="font-style:italic;font-weight:500;font-size:13.3333px;font-family:'CMU Serif';-inkscape-font-specification:'CMU Serif Medium Italic'"
         id="path486" />
    </g>
    <text
       xml:space="preserve"
       style="font-size:162.5px;line-height:1.25;font-family:'Virgil YOFF';-inkscape-font-specification:'Virgil YOFF, Normal';letter-spacing:0px;word-spacing:0px;stroke-width:0.9375"
       x="123.7003"
       y="889.32098"
       id="text256"><tspan
         sodipodi:role="line"
         id="tspan254"
         style="font-size:162.5px;stroke-width:0.9375"
         x="123.7003"
         y="889.32098" /></text>
    <text
       xml:space="preserve"
       transform="matrix(0.93750002,0,0,0.93750002,-1.0101318,695.00103)"
       id="text258"
       style="font-size:24px;line-height:1.25;font-family:'Virgil YOFF';-inkscape-font-specification:'Virgil YOFF, Normal';letter-spacing:0px;word-spacing:0px;white-space:pre;shape-inside:url(#rect260);display:inline" />
    <g
       aria-label="2ᵉ "
       transform="matrix(0.93750002,0,0,0.93750002,702.3407,798.71025)"
       id="flowRoot825-3"
       style="font-size:40px;line-height:1.25;letter-spacing:0px;word-spacing:0px">
      <path
         d="m -495.9116,63.543238 q 0,-0.533332 0.66666,-2.399994 0.8,-1.866662 2.79999,-4.933321 2,-3.066659 4.93332,-5.733319 2.93333,-2.799992 8.13332,-4.799987 5.19998,-1.999995 11.59997,-1.999995 13.99996,0 22.66661,8.93331 8.79997,8.933311 8.79997,21.866611 0,3.733324 -1.19999,7.333315 -1.06667,3.466658 -2.4,5.999984 -1.19999,2.399994 -4.66665,6.266651 -3.46666,3.733324 -5.73332,5.733319 -2.13333,1.999998 -7.86665,7.066648 -5.59998,5.06665 -8.53331,7.86665 l -10.9333,10.39997 h 4.53332 l 27.73326,-0.26667 h 3.06666 q 5.99998,0 5.99998,5.99999 v 2.39999 q 0,5.99999 -5.99998,5.99999 h -46.39988 q -2.13333,0 -3.46666,-0.53333 -1.33333,-0.53334 -1.86666,-1.73333 -0.53333,-1.2 -0.66667,-1.73333 0,-0.53333 -0.13333,-1.86666 v -2.13333 q 0,-1.73333 1.2,-3.19999 0.79999,-0.93333 18.13328,-19.46662 0.66667,-0.66667 3.06666,-3.19999 2.53333,-2.66666 3.33333,-3.59999 0.93333,-0.93333 3.06666,-3.333328 2.26666,-2.533327 3.06665,-3.733324 0.93334,-1.33333 2.53333,-3.599991 1.73333,-2.266661 2.4,-3.866657 0.66666,-1.733329 1.59999,-3.866656 0.93333,-2.266661 1.2,-4.399989 0.4,-2.133328 0.4,-4.399989 0,-7.199981 -3.86666,-12.266635 -3.86666,-5.199987 -11.06664,-5.199987 -5.06665,0 -8.53331,2.66666 -3.33332,2.66666 -4.66665,5.999985 -1.2,3.199991 -2.26666,5.866651 -1.06667,2.66666 -1.86667,2.66666 -0.53333,0 -1.19999,-0.399999 -0.53334,-0.533332 -1.06667,-1.066664 -0.4,-0.533332 -1.06666,-1.466663 -0.66667,-0.933331 -0.93333,-1.199997 -0.8,-0.933331 -1.73333,-2.133328 -0.93333,-1.199996 -1.33333,-1.599995 -0.4,-0.533332 -0.8,-1.199997 -0.4,-0.666665 -0.53333,-0.933331 -0.13333,-0.399999 -0.13333,-0.799998 z"
         style="font-size:133.333px"
         id="path408" />
      <path
         d="m -426.31188,79.943196 q 0,-5.866652 1.86666,-9.999975 1.86666,-4.133322 4.93332,-5.999984 3.19999,-1.866662 6.13332,-2.533327 3.06666,-0.799998 6.39998,-0.799998 3.99999,0 7.06665,1.066664 3.06666,1.066664 4.66666,2.66666 1.73332,1.599996 2.79999,4.133322 1.06666,2.399994 1.46666,4.399989 0.4,1.999995 0.66667,4.799988 0,1.733329 -0.66667,2.66666 -0.66666,0.933331 -1.33333,1.066664 -0.66666,0.133333 -1.86666,0.133333 h -21.86661 q 0.26666,12.133302 10.13331,12.133302 6.53331,0 13.06663,-5.199987 h 0.66666 q 1.2,0.399999 1.2,5.733319 0,2.133328 -5.46665,3.733324 -5.33332,1.599996 -9.99998,1.599996 -7.99998,0 -13.99996,-4.399989 -5.86665,-4.533322 -5.86665,-15.199961 z m 10.39997,-3.599991 h 16.53329 q -0.26666,-5.599986 -2.13333,-7.733314 -1.86666,-2.133327 -5.73331,-2.133327 -7.73332,0 -8.66665,9.866641 z"
         style="font-size:133.333px"
         id="path410" />
    </g>
  </g>
</svg>
